<?xml version="1.0" encoding="UTF-8" standalone="no"?>
<!-- Created with Inkscape (http://www.inkscape.org/) -->

<svg
   xmlns:dc="http://purl.org/dc/elements/1.1/"
   xmlns:cc="http://creativecommons.org/ns#"
   xmlns:rdf="http://www.w3.org/1999/02/22-rdf-syntax-ns#"
   xmlns:svg="http://www.w3.org/2000/svg"
   xmlns="http://www.w3.org/2000/svg"
   xmlns:xlink="http://www.w3.org/1999/xlink"
   xmlns:sodipodi="http://sodipodi.sourceforge.net/DTD/sodipodi-0.dtd"
   xmlns:inkscape="http://www.inkscape.org/namespaces/inkscape"
   id="svg2"
   version="1.1"
   inkscape:version="0.92.2 (5c3e80d, 2017-08-06)"
   width="2481"
   height="3503"
   sodipodi:docname="Pepper-and-Carrot_by-David-Revoy_E19P03.svg"
   inkscape:export-filename="E:\Users\jamesmichael\Downloads\Compressed\eps\peppercarrot_ep19_translation-master\peppercarrot_ep19_translation-master\ph\Pepper-and-Carrot_by-David-Revoy_E19P03.png"
   inkscape:export-xdpi="98.181801"
   inkscape:export-ydpi="98.181801">
  <metadata
     id="metadata8">
    <rdf:RDF>
      <cc:Work
         rdf:about="">
        <dc:format>image/svg+xml</dc:format>
        <dc:type
           rdf:resource="http://purl.org/dc/dcmitype/StillImage" />
        <dc:title />
      </cc:Work>
    </rdf:RDF>
  </metadata>
  <defs
     id="defs6">
    <filter
       inkscape:collect="always"
       style="color-interpolation-filters:sRGB"
       id="filter4290"
       x="-0.0263734"
       width="1.0527468"
       y="-0.063105625"
       height="1.1262112">
      <feGaussianBlur
         inkscape:collect="always"
         stdDeviation="4.2854759"
         id="feGaussianBlur4292" />
    </filter>
  </defs>
  <sodipodi:namedview
     pagecolor="#ffffff"
     bordercolor="#666666"
     borderopacity="1"
     objecttolerance="10"
     gridtolerance="10"
     guidetolerance="10"
     inkscape:pageopacity="0"
     inkscape:pageshadow="2"
     inkscape:window-width="1366"
     inkscape:window-height="705"
     id="namedview4"
     showgrid="false"
     inkscape:zoom="0.32232926"
     inkscape:cx="1406.1047"
     inkscape:cy="757.42254"
     inkscape:window-x="-8"
     inkscape:window-y="-8"
     inkscape:window-maximized="1"
     inkscape:current-layer="layer1" />
  <g
     inkscape:groupmode="layer"
     id="layer2"
     inkscape:label="artwork"
     sodipodi:insensitive="true">
    <image
       sodipodi:absref="E:\Users\jamesmichael\Downloads\Compressed\eps\peppercarrot_ep19_translation-master\peppercarrot_ep19_translation-master\ph\../gfx_Pepper-and-Carrot_by-David-Revoy_E19P03.png"
       xlink:href="../gfx_Pepper-and-Carrot_by-David-Revoy_E19P03.png"
       y="0"
       x="0"
       id="image10"
       height="3503"
       width="2481" />
  </g>
  <g
     inkscape:groupmode="layer"
     id="layer3"
     inkscape:label="speechbubbles">
    <path
       style="opacity:0.81800011;fill:#3797aa;fill-opacity:1;stroke:none;filter:url(#filter4290)"
       d="m 757.91682,547.95632 c 10.78775,5.37741 19.14955,14.84596 30.44219,19.31347 26.21575,11.72459 54.23131,20.44572 82.82199,21.46258 10.78006,0.6048 21.21295,-2.34223 30.72486,-7.53313 15.9811,-3.99025 32.62516,-0.14466 48.6511,2.006 21.85331,3.29662 46.23501,7.6202 65.96104,-5.90477 15.7206,-9.41707 25.9773,-25.65792 39.6794,-37.58852 11.2841,-7.55869 25.5178,-8.20778 36.8078,-16.0064 18.802,-10.84366 25.4032,-40.16031 13.3989,-58.77952 -12.5261,-16.64496 -33.8685,-20.78182 -52.6216,-23.96589 -18.5842,-2.02486 -37.1278,-4.43636 -55.69153,-6.57322 -25.0718,-1.39125 -50.20928,-0.10049 -75.17639,2.399 -27.62546,1.09595 -53.76233,-14.92426 -81.54597,-10.02392 -14.88451,0.43368 -29.85614,-0.34389 -44.5288,2.99063 -17.47363,2.31042 -34.44978,9.82459 -46.7547,23.45666 -10.72674,10.01983 -22.34354,20.30342 -26.79001,35.32555 -5.22782,17.81668 15.23603,50.37977 34.62172,59.42148 z"
       id="path3250-3-6"
       inkscape:connector-curvature="0"
       sodipodi:nodetypes="ccccccccccccccccc"
       transform="matrix(1.1849829,0,0,1.2676433,-148.87338,-148.94297)" />
    <path
       style="opacity:0.81800005;fill:#3797aa;stroke:none;filter:url(#filter4290);fill-opacity:1;color:#000000;clip-rule:nonzero;display:inline;overflow:visible;visibility:visible;isolation:auto;mix-blend-mode:normal;color-interpolation:sRGB;color-interpolation-filters:linearRGB;solid-color:#000000;solid-opacity:1;fill-rule:nonzero;stroke-width:1;stroke-linecap:butt;stroke-linejoin:miter;stroke-miterlimit:4;stroke-dasharray:none;stroke-dashoffset:0;stroke-opacity:1;filter-blend-mode:normal;filter-gaussianBlur-deviation:0;color-rendering:auto;image-rendering:auto;shape-rendering:auto;text-rendering:auto;enable-background:accumulate"
       d="m 1713.1988,426.91208 c 1.4311,23.08058 -31.5228,28.65986 -39.0016,35.27672 -7.4788,6.61681 -34.7137,19.36411 -47.313,23.47432 -12.5993,4.11007 -54.1865,5.71364 -69.508,-3.10449 -15.3214,-8.81856 -56.575,3.0863 -79.4461,-0.85361 -22.8711,-3.93974 -34.2593,-19.51277 -44.4205,-27.12235 -10.1612,-7.60996 -22.8977,-8.44486 -22.9034,-42.18095 -0.01,-33.7362 61.4125,-31.20206 73.9721,-34.01391 12.5596,-2.81194 43.878,-25.27207 62.5183,-22.99886 18.6403,2.27328 50.0961,13.32507 67.6964,15.61629 17.6004,2.29123 12.1966,-2.16778 44.4804,3.75648 14.8354,2.72237 24.7667,10.88933 29.8076,15.99249 5.0408,5.10314 22.6866,13.0773 24.1178,36.15787 z"
       id="path3250-3"
       inkscape:connector-curvature="0"
       sodipodi:nodetypes="zssszsssssssz" />
    <path
       style="color:#000000;clip-rule:nonzero;display:inline;overflow:visible;visibility:visible;opacity:0.81800017;isolation:auto;mix-blend-mode:normal;color-interpolation:sRGB;color-interpolation-filters:linearRGB;solid-color:#000000;solid-opacity:1;fill:#3797aa;fill-opacity:1;fill-rule:nonzero;stroke:none;stroke-width:0.96210748;stroke-linecap:butt;stroke-linejoin:miter;stroke-miterlimit:4;stroke-dasharray:none;stroke-dashoffset:0;stroke-opacity:1;filter:url(#filter4290);color-rendering:auto;image-rendering:auto;shape-rendering:auto;text-rendering:auto;enable-background:accumulate"
       d="m 1833.2394,820.46626 c -2.5264,-31.97778 36.2035,-38.91224 44.7995,-47.89133 8.596,-8.979 38.1934,-42.72495 52.9295,-48.11249 14.7361,-5.38734 65.9259,10.14118 84.3461,22.71154 18.42,12.57096 72.2946,-14.60357 99.4573,-8.60433 27.1627,5.99903 35.6123,39.50796 47.8923,50.28243 12.28,10.77498 27.3572,12.23477 28.5853,58.92575 1.228,46.69117 -71.4235,41.71658 -86.1597,45.30814 -14.7361,3.59166 -59.5243,25.89015 -81.6284,22.29869 -22.1041,-3.59156 -51.0646,-11.60067 -71.9408,-15.19213 -20.8761,-3.59156 -56.5509,17.58353 -70.059,3.21729 -13.5081,-14.36684 -12.2801,-25.14152 -18.4202,-32.32473 -6.14,-7.18322 -27.2755,-18.64104 -29.8019,-50.61883 z"
       id="path3250"
       inkscape:connector-curvature="0"
       sodipodi:nodetypes="zssszsssssssz"
       transform="matrix(0.99418775,0,0,1.3556991,148.4586,-184.93922)" />
    <path
       style="color:#000000;display:inline;overflow:visible;visibility:visible;fill:#ffffff;fill-opacity:1;fill-rule:nonzero;stroke:none;stroke-width:1.39601517px;marker:none;enable-background:accumulate"
       d="m 1241.2096,1692.1522 c -28.9418,-40.3404 -44.6278,-55.5413 -6.6142,-103.0163 -49.9163,13.7985 -19.2631,-17.5104 -6.9363,-38.5591 -54.8165,29.6556 -39.4538,-8.9073 -25.4317,-34.7135 -15.9079,19.6265 -45.7288,37.5387 -19.2863,-11.6702 -11.351,16.0005 -47.1052,56.318 -32.5398,-2.7391 -12.0239,22.3961 -17.799,33.3161 -15.0809,6.0855 1.7874,-34.556 -9.2149,70.1912 -59.2924,4.6191 4.8156,19.1437 10.7497,48.3969 -40.2213,3.4214 16.3793,49.6546 -1.0987,44.764 -31.8607,21.2326 19.3259,21.0892 20.2668,32.8701 -24.73306,21.3922 31.31706,17.6165 60.17066,35.1779 11.41036,51.0034 11.367,6.9701 48.7089,-7.9929 7.4198,71.4882 31.1668,-15.7753 71.8709,-10.5484 63.2561,50.7913 17.4436,-27.3321 43.3131,-81.1449 46.5796,16.1292 45.0974,-55.9681 10.1359,-31.1859 36.5003,-1.395 -39.4265,-81.6527 -40.7688,-33.2864 72.5714,88.0452 -138.6156,-174.1097 -24.5063,-144.7647 5.9717,-113.7201 -34.9631,-50.348 -19.3905,-61.7576 18.2874,-28.3945 z"
       id="path3549"
       inkscape:connector-curvature="0"
       sodipodi:nodetypes="cccccccccccccccccccc" />
    <path
       style="color:#000000;display:inline;overflow:visible;visibility:visible;fill:#ffffff;fill-opacity:1;fill-rule:nonzero;stroke:#ffffff;stroke-width:7.69999981;marker:none;enable-background:accumulate;stroke-opacity:1;stroke-miterlimit:4;stroke-dasharray:none;stroke-dashoffset:0"
       d="m 1694.0627,2649.2898 c 3.9884,-55.2417 37.4414,-93.7635 121.6468,-78.1003 45.105,8.39 96.3868,15.2391 91.0689,96.1968 -5.3179,80.9577 -79.1036,74.2906 -94.3926,75.2431 -15.2889,0.9525 -94.4726,-12.4842 -107.6872,-40.9552 -8.2721,-17.8221 -11.3006,-35.2403 -10.6359,-52.3844 z"
       id="path4546-6"
       inkscape:connector-curvature="0"
       sodipodi:nodetypes="cssssc" />
    <path
       style="color:#000000;display:inline;overflow:visible;visibility:visible;fill:#ffffff;fill-opacity:1;fill-rule:nonzero;stroke:none;stroke-width:1px;marker:none;enable-background:accumulate"
       d="m 1827.4084,2846.6353 c -38.9829,-24.3744 -35.2819,-89.0806 -37.3787,-128.9314 -2.9638,-56.3326 1.3429,-30.7581 1.3429,-30.7581 l -8.5494,-20.5266 c -7.1172,-2.1741 -33.277,154.0001 44.5852,180.2161 z"
       id="path3072-1"
       inkscape:connector-curvature="0"
       sodipodi:nodetypes="csccc" />
    <path
       style="color:#000000;display:inline;overflow:visible;visibility:visible;fill:#ffffff;fill-opacity:1;fill-rule:nonzero;stroke:none;stroke-width:1.20441747px;marker:none;enable-background:accumulate"
       d="m 1229.0747,1802.9804 c -26.9216,-32.2803 -41.5127,-44.444 -6.1525,-82.4334 -46.4321,11.0415 -17.9185,-14.0118 -6.4521,-30.8549 -50.9903,23.7303 -36.7,-7.1276 -23.6566,-27.7777 -14.7975,15.7051 -42.5369,30.0384 -17.9401,-9.3385 -10.5587,12.8036 -43.8173,45.0656 -30.2685,-2.1918 -11.1847,17.9213 -16.5567,26.6595 -14.0283,4.8696 1.6626,-27.6516 -8.5717,56.1669 -55.1538,3.6962 4.4795,15.3188 9.9994,38.7271 -37.4138,2.7378 15.236,39.7335 -1.0221,35.8201 -29.6369,16.9903 17.977,16.8755 18.8522,26.3026 -23.0067,17.118 29.1311,14.0967 55.9708,28.1493 10.614,40.8128 10.5735,5.5775 45.309,-6.3959 6.9018,57.2047 28.9914,-12.6233 66.8544,-8.4408 58.8409,40.6431 16.226,-21.8711 40.2898,-64.932 43.3283,12.9066 41.9496,-44.7856 9.4284,-24.9549 33.9526,-1.1163 -36.6745,-65.3383 -37.9231,-26.6357 67.5059,70.4536 -128.9402,-139.3222 -22.7957,-115.8404 5.5549,-90.9986 -32.5227,-40.2884 -18.037,-49.4183 17.0109,-22.7212 z"
       id="path3549-8"
       inkscape:connector-curvature="0"
       sodipodi:nodetypes="cccccccccccccccccccc" />
    <path
       style="color:#000000;display:inline;overflow:visible;visibility:visible;fill:#ffffff;fill-opacity:1;fill-rule:nonzero;stroke:none;stroke-width:1.20441747px;marker:none;enable-background:accumulate"
       d="m 1239.6335,1749.404 c -26.9216,-32.2803 -41.5127,-44.444 -6.1525,-82.4334 -46.4321,11.0415 -17.9185,-14.0118 -6.4521,-30.8549 -50.9903,23.7303 -36.7,-7.1276 -23.6566,-27.7777 -14.7975,15.7051 -42.5369,30.0384 -17.9401,-9.3385 -10.5587,12.8036 -43.8173,45.0656 -30.2685,-2.1918 -11.1847,17.9213 -16.5567,26.6595 -14.0283,4.8696 1.6626,-27.6516 -8.5717,56.1669 -55.1538,3.6962 4.4795,15.3188 9.9994,38.7271 -37.4138,2.7378 15.236,39.7335 -1.0221,35.8201 -29.6369,16.9903 17.977,16.8755 18.8522,26.3026 -23.0067,17.118 29.1311,14.0967 55.9708,28.1493 10.6139,40.8128 10.5736,5.5775 45.3091,-6.3959 6.9019,57.2047 28.9914,-12.6233 66.8544,-8.4408 58.8409,40.6431 16.226,-21.8711 40.2898,-64.932 43.3283,12.9066 41.9496,-44.7856 9.4284,-24.9549 33.9526,-1.1163 -36.6745,-65.3383 -37.9231,-26.6357 67.5059,70.4536 -128.9402,-139.3222 -22.7957,-115.8404 5.5549,-90.9986 -32.5227,-40.2884 -18.037,-49.4183 17.0109,-22.7212 z"
       id="path3549-2"
       inkscape:connector-curvature="0"
       sodipodi:nodetypes="cccccccccccccccccccc" />
    <path
       style="color:#000000;display:inline;overflow:visible;visibility:visible;fill:#ffffff;fill-opacity:1;fill-rule:nonzero;stroke:#ffffff;stroke-width:9.68759727;stroke-miterlimit:4;stroke-dasharray:none;stroke-dashoffset:0;stroke-opacity:1;marker:none;enable-background:accumulate"
       d="m 374.92384,2355.2279 c 4.03333,-86.4675 37.86317,-146.7641 123.01713,-122.2471 45.6131,13.1325 97.47258,23.8531 92.09478,150.5727 -5.37781,126.7197 -79.99469,116.284 -95.45592,117.7749 -15.46112,1.4909 -95.53681,-19.541 -108.90027,-64.1055 -8.36529,-27.8961 -11.4279,-55.1601 -10.75572,-81.995 z"
       id="path4546-6-8"
       inkscape:connector-curvature="0"
       sodipodi:nodetypes="cssssc" />
    <text
       xml:space="preserve"
       style="font-style:normal;font-variant:normal;font-weight:normal;font-stretch:normal;line-height:0%;font-family:Lavi;-inkscape-font-specification:Lavi;text-align:center;letter-spacing:0px;word-spacing:0px;text-anchor:middle;fill:#000000;fill-opacity:1;stroke:none;"
       x="475.69949"
       y="2332.5547"
       id="text4246-3-2-9-6-6-0-5-1-3-9-9"><tspan
         sodipodi:role="line"
         style="font-size:45px;line-height:1.25;fill:#000000;stroke:none;"
         x="483.60965"
         y="2332.5547"
         id="tspan4817-1">Walang </tspan><tspan
         sodipodi:role="line"
         style="font-size:45px;line-height:1.25;fill:#000000;stroke:none;"
         x="475.69949"
         y="2388.8047"
         id="tspan4894">pake ha</tspan><tspan
         sodipodi:role="line"
         style="font-size:45px;line-height:1.25;fill:#000000;stroke:none;"
         x="475.69949"
         y="2445.0547"
         id="tspan4896">...</tspan><tspan
         sodipodi:role="line"
         style="font-size:45px;line-height:1.25;fill:#000000;stroke:none;"
         x="483.60965"
         y="2501.3047"
         id="tspan4834-7" /><tspan
         sodipodi:role="line"
         style="font-size:45px;line-height:1.25;fill:#000000;stroke:none;"
         x="483.60965"
         y="2557.5547"
         id="tspan4378-7-6-4-5-7-4"> </tspan></text>
  </g>
  <g
     inkscape:groupmode="layer"
     id="layer1"
     inkscape:label="txt">
    <text
       xml:space="preserve"
       style="font-style:normal;font-variant:normal;font-weight:normal;font-stretch:normal;line-height:0%;font-family:Lavi;-inkscape-font-specification:Lavi;text-align:center;letter-spacing:0px;word-spacing:0px;text-anchor:middle;fill:#ffffff;fill-opacity:1;stroke:none"
       x="913.09369"
       y="489.81882"
       id="text4246-3-2-9-6-6-0-5-1"><tspan
         sodipodi:role="line"
         style="font-size:45px;line-height:1.25;fill:#ffffff"
         x="913.09369"
         y="489.81882"
         id="tspan4378-7-6-4">...ang mga palpak</tspan><tspan
         sodipodi:role="line"
         style="font-size:45px;line-height:1.25;fill:#ffffff"
         x="913.09369"
         y="546.06885"
         id="tspan4811">dapat ibinabaon!</tspan></text>
    <text
       xml:space="preserve"
       style="font-style:normal;font-variant:normal;font-weight:normal;font-stretch:normal;line-height:0%;font-family:Lavi;-inkscape-font-specification:Lavi;text-align:center;letter-spacing:0px;word-spacing:0px;text-anchor:middle;fill:#ffffff;fill-opacity:1;stroke:none"
       x="1562.3771"
       y="438.56467"
       id="text4246-3-2-9-6-6-0-5-1-3-3"><tspan
         sodipodi:role="line"
         style="font-size:45px;line-height:1.25;fill:#ffffff"
         x="1570.2872"
         y="438.56467"
         id="tspan4178-6">tradition </tspan><tspan
         sodipodi:role="line"
         style="font-size:45px;line-height:1.25;fill:#ffffff"
         x="1570.2872"
         y="494.81467"
         id="tspan4378-7-6-4-5-2"> </tspan></text>
    <text
       xml:space="preserve"
       style="font-style:normal;font-variant:normal;font-weight:normal;font-stretch:normal;line-height:1;font-family:Lavi;-inkscape-font-specification:Lavi;text-align:center;letter-spacing:0px;word-spacing:0px;text-anchor:middle;fill:#ffffff;fill-opacity:1;stroke:none"
       x="2328.6165"
       y="880.56171"
       id="text4246-3-2-9-6-6-0-5-1-3"
       transform="skewX(-11.629333)"><tspan
         sodipodi:role="line"
         style="font-size:45px;line-height:1;fill:#ffffff"
         x="2336.5266"
         y="880.56171"
         id="tspan4378-7-6-4-5">simula pa </tspan><tspan
         sodipodi:role="line"
         style="font-size:45px;line-height:1;fill:#ffffff"
         x="2336.5266"
         y="925.56171"
         id="tspan4794">lang ng </tspan><tspan
         sodipodi:role="line"
         style="font-size:45px;line-height:1;fill:#ffffff"
         x="2336.5266"
         y="970.56171"
         id="tspan4800">unang </tspan><tspan
         sodipodi:role="line"
         style="font-size:45px;line-height:1;fill:#ffffff"
         x="2328.6165"
         y="1015.5616"
         id="tspan4804">panahon!</tspan><tspan
         sodipodi:role="line"
         style="font-size:45px;line-height:1;fill:#ffffff"
         x="2328.6165"
         y="1034.4702"
         id="tspan4796" /></text>
    <text
       xml:space="preserve"
       style="font-style:normal;font-variant:normal;font-weight:normal;font-stretch:normal;line-height:0%;font-family:Lavi;-inkscape-font-specification:Lavi;text-align:center;letter-spacing:0px;word-spacing:0px;text-anchor:middle;fill:#000000;fill-opacity:1;stroke:#000000"
       x="1118.644"
       y="1606.4298"
       id="text4246-3-2-9-6-6-0-5-1-3-9"><tspan
         sodipodi:role="line"
         style="font-size:45px;line-height:1.25;fill:#000000;stroke:#000000"
         x="1126.5542"
         y="1606.4298"
         id="tspan4236">YON </tspan><tspan
         sodipodi:role="line"
         style="font-size:45px;line-height:1.25;fill:#000000;stroke:#000000"
         x="1126.5542"
         y="1662.6798"
         id="tspan4815">NA </tspan><tspan
         sodipodi:role="line"
         style="font-size:45px;line-height:1.25;fill:#000000;stroke:#000000"
         x="1126.5542"
         y="1718.9298"
         id="tspan4817">NGA </tspan><tspan
         sodipodi:role="line"
         style="font-size:45px;line-height:1.25;fill:#000000;stroke:#000000"
         x="1126.5542"
         y="1775.1798"
         id="tspan4834">!!! </tspan><tspan
         sodipodi:role="line"
         style="font-size:45px;line-height:1.25;fill:#000000;stroke:#000000"
         x="1126.5542"
         y="1831.4298"
         id="tspan4378-7-6-4-5-7"> </tspan></text>
    <text
       xml:space="preserve"
       style="font-style:normal;font-variant:normal;font-weight:normal;font-stretch:normal;line-height:0%;font-family:Lavi;-inkscape-font-specification:Lavi;text-align:center;letter-spacing:0px;word-spacing:0px;text-anchor:middle;fill:#ffffff;fill-opacity:1;stroke:none;"
       x="1302.8601"
       y="3308.5044"
       id="text4246-3-2-9-6-6-0-5-1-3-9-0-3"
       transform="matrix(0.95684986,-0.26535014,0.03415032,1.0356256,0,0)"><tspan
         sodipodi:role="line"
         style="font-size:31.61978531px;line-height:1.25;fill:#ffffff;"
         x="1302.8601"
         y="3308.5044"
         id="tspan4378-7-6-4-5-7-3-3">Zzzz</tspan></text>
    <text
       xml:space="preserve"
       style="font-style:normal;font-variant:normal;font-weight:normal;font-stretch:normal;line-height:0%;font-family:Lavi;-inkscape-font-specification:Lavi;text-align:center;letter-spacing:0px;word-spacing:0px;text-anchor:middle;fill:#000000;fill-opacity:1;stroke:none"
       x="1801.1611"
       y="2616.5117"
       id="text4246-3-2-9-6-6-0-5-1-3-9-0"><tspan
         sodipodi:role="line"
         style="font-size:37.30024719px;line-height:1.25"
         x="1807.7178"
         y="2616.5117"
         id="tspan4236-9">Bilis, </tspan><tspan
         sodipodi:role="line"
         style="font-size:37.30024719px;line-height:1.25"
         x="1807.7178"
         y="2663.137"
         id="tspan4261">Carrot, </tspan><tspan
         sodipodi:role="line"
         style="font-size:37.30024719px;line-height:1.25"
         x="1807.7178"
         y="2709.7625"
         id="tspan4263">Bilis!!! </tspan><tspan
         sodipodi:role="line"
         style="font-size:37.30024719px;line-height:1.25"
         x="1807.7178"
         y="2756.3877"
         id="tspan4378-7-6-4-5-7-3"> </tspan></text>
    <flowRoot
       xml:space="preserve"
       id="flowRoot4777"
       style="fill:black;fill-opacity:1;stroke:none;font-family:sans-serif;font-style:normal;font-weight:normal;font-size:40px;line-height:1.25;letter-spacing:0px;word-spacing:0px"><flowRegion
         id="flowRegion4779"><rect
           id="rect4781"
           width="100.91207"
           height="81.168404"
           x="2055.5349"
           y="918.7735" /></flowRegion><flowPara
         id="flowPara4783" /></flowRoot>    <flowRoot
       xml:space="preserve"
       id="flowRoot4886"
       style="fill:black;fill-opacity:1;stroke:none;font-family:sans-serif;font-style:normal;font-weight:normal;font-size:40px;line-height:1.25;letter-spacing:0px;word-spacing:0px"><flowRegion
         id="flowRegion4888"><rect
           id="rect4890"
           width="5.3761001"
           height="100.025"
           x="502.63974"
           y="2430.6655" /></flowRegion><flowPara
         id="flowPara4892" /></flowRoot>  </g>
</svg>
