<?xml version="1.0" encoding="UTF-8" standalone="no"?>
<!-- Created with Inkscape (http://www.inkscape.org/) -->

<svg
   xmlns:dc="http://purl.org/dc/elements/1.1/"
   xmlns:cc="http://creativecommons.org/ns#"
   xmlns:rdf="http://www.w3.org/1999/02/22-rdf-syntax-ns#"
   xmlns:svg="http://www.w3.org/2000/svg"
   xmlns="http://www.w3.org/2000/svg"
   xmlns:xlink="http://www.w3.org/1999/xlink"
   xmlns:sodipodi="http://sodipodi.sourceforge.net/DTD/sodipodi-0.dtd"
   xmlns:inkscape="http://www.inkscape.org/namespaces/inkscape"
   id="svg2"
   version="1.1"
   inkscape:version="0.92.2 (5c3e80d, 2017-08-06)"
   width="2481"
   height="3503"
   sodipodi:docname="E24P03.svg"
   inkscape:export-filename="E:\Users\jamesmichael\Downloads\Compressed\eps\ep24_The-Unity-Tree_lang-pack\lang\ph\E24P03.png"
   inkscape:export-xdpi="90"
   inkscape:export-ydpi="90">
  <metadata
     id="metadata8">
    <rdf:RDF>
      <cc:Work
         rdf:about="">
        <dc:format>image/svg+xml</dc:format>
        <dc:type
           rdf:resource="http://purl.org/dc/dcmitype/StillImage" />
        <dc:title />
      </cc:Work>
    </rdf:RDF>
  </metadata>
  <defs
     id="defs6">
    <filter
       style="color-interpolation-filters:sRGB"
       id="filter4375-4-1-1-1-9-5-8"
       inkscape:label="Drop Shadow">
      <feFlood
         id="feFlood4377-7-9-0-8-1-7-3"
         flood-opacity="1"
         flood-color="rgb(200,55,55)"
         result="flood" />
      <feComposite
         id="feComposite4379-3-8-8-2-77-4-1"
         in2="SourceGraphic"
         in="flood"
         operator="in"
         result="composite1" />
      <feMorphology
         id="feMorphology4393-1-0-49-8-9-3-0"
         operator="dilate"
         radius="6.2000000000000002"
         result="result3" />
      <feComposite
         id="feComposite4385-9-5-7-0-8-8-7"
         in2="result3"
         in="SourceGraphic"
         operator="over"
         result="fbSourceGraphic" />
      <feColorMatrix
         result="fbSourceGraphicAlpha"
         in="fbSourceGraphic"
         values="0 0 0 -1 0 0 0 0 -1 0 0 0 0 -1 0 0 0 0 1 0"
         id="feColorMatrix4544" />
      <feTurbulence
         id="feTurbulence4546"
         type="fractalNoise"
         numOctaves="3"
         seed="37"
         baseFrequency="0.129 0.0050000000000000001"
         result="turbulence" />
      <feDisplacementMap
         id="feDisplacementMap4548"
         in2="turbulence"
         in="fbSourceGraphic"
         scale="6.6"
         yChannelSelector="G"
         xChannelSelector="R"
         result="fbSourceGraphic" />
      <feColorMatrix
         result="fbSourceGraphicAlpha"
         in="fbSourceGraphic"
         values="0 0 0 -1 0 0 0 0 -1 0 0 0 0 -1 0 0 0 0 1 0"
         id="feColorMatrix4670" />
      <feFlood
         id="feFlood4672"
         flood-opacity="1"
         flood-color="rgb(80,22,22)"
         result="flood"
         in="fbSourceGraphic" />
      <feComposite
         id="feComposite4674"
         in2="fbSourceGraphic"
         in="flood"
         operator="in"
         result="composite1" />
      <feGaussianBlur
         id="feGaussianBlur4676"
         in="composite1"
         stdDeviation="0"
         result="blur" />
      <feOffset
         id="feOffset4678"
         dx="6"
         dy="6"
         result="offset" />
      <feComposite
         id="feComposite4680"
         in2="offset"
         in="fbSourceGraphic"
         operator="over"
         result="composite2" />
    </filter>
    <filter
       inkscape:collect="always"
       style="color-interpolation-filters:sRGB"
       id="filter4210"
       x="-0.0015578248"
       width="1.0031157"
       y="-0.0045528179"
       height="1.0091056">
      <feGaussianBlur
         inkscape:collect="always"
         stdDeviation="0.2079876"
         id="feGaussianBlur4212" />
    </filter>
  </defs>
  <sodipodi:namedview
     pagecolor="#ffffff"
     bordercolor="#666666"
     borderopacity="1"
     objecttolerance="10"
     gridtolerance="10"
     guidetolerance="10"
     inkscape:pageopacity="0"
     inkscape:pageshadow="2"
     inkscape:window-width="1920"
     inkscape:window-height="1029"
     id="namedview4"
     showgrid="false"
     inkscape:zoom="0.19146613"
     inkscape:cx="1450.9773"
     inkscape:cy="1651.1654"
     inkscape:window-x="0"
     inkscape:window-y="27"
     inkscape:window-maximized="1"
     inkscape:current-layer="layer3"
     inkscape:snap-global="false" />
  <g
     inkscape:groupmode="layer"
     id="layer2"
     inkscape:label="artwork"
     sodipodi:insensitive="true">
    <image
       sodipodi:absref="E:\Users\jamesmichael\Downloads\Compressed\eps\ep24_The-Unity-Tree_lang-pack\lang\ph\../gfx_Pepper-and-Carrot_by-David-Revoy_E24P03.png"
       xlink:href="../gfx_Pepper-and-Carrot_by-David-Revoy_E24P03.png"
       y="0"
       x="0"
       id="image10"
       height="3503"
       width="2481" />
  </g>
  <g
     inkscape:groupmode="layer"
     id="layer3"
     inkscape:label="speechbubbles"
     style="display:inline">
    <path
       style="color:#000000;display:inline;overflow:visible;visibility:visible;fill:#ffffff;fill-opacity:1;fill-rule:nonzero;stroke:none;stroke-width:1.14848411px;marker:none;enable-background:accumulate"
       d="m 387.14011,1391.3483 c 13.35332,-1.4786 83.68087,25.1363 74.77857,115.3315 -8.90217,90.1952 -59.64484,107.9385 -77.44932,107.1992 -17.80434,-0.7394 -45.40118,-22.9184 -49.85246,-36.226 -4.45089,-13.3074 -15.1336,-48.0548 -11.57278,-70.2339 3.56107,-22.1791 21.36541,-90.1952 37.38948,-103.5027 16.02393,-13.3075 23.14569,-11.0895 26.70651,-12.5681 z"
       id="path3365"
       inkscape:connector-curvature="0" />
    <path
       style="fill:#ffffff;fill-opacity:1;fill-rule:evenodd;stroke:#fff6d5;stroke-width:0.7776196px;stroke-linecap:butt;stroke-linejoin:miter;stroke-opacity:1"
       d="m 1963.9763,776.61262 -60.0134,48.17973 -2.7913,91.87764 5.5826,61.62524 11.1653,98.60037 30.7046,36.9752 68.3873,11.2045 72.5744,-17.9273 41.8698,-52.6616 2.7913,-85.15484 2.1088,-105.0672 -27.2612,-75.0411 -58.7731,-34.4781 -61.2232,0.57875 z"
       id="path5098"
       inkscape:connector-curvature="0"
       sodipodi:nodetypes="ccccccccccccccc" />
    <path
       style="color:#000000;display:inline;overflow:visible;visibility:visible;fill:#ffffff;fill-opacity:1;fill-rule:nonzero;stroke:none;stroke-width:1px;marker:none;enable-background:accumulate"
       d="m 250.16733,89.842752 c 12.39782,-25.1607 23.91004,-33.96692 30.99455,-31.45075 7.08441,2.51605 43.39235,25.16058 47.82016,52.837198 4.4278,27.67674 9.74112,99.38445 5.31331,115.73893 -4.42772,16.35448 -33.65124,62.90162 -48.70567,62.90162 -15.05452,0 -44.27795,-8.80622 -53.13348,-33.96691 -8.8556,-25.16058 -14.169,-135.86743 17.71113,-166.060088 z"
       id="path3349"
       inkscape:connector-curvature="0" />
    <path
       style="fill:#ffffff;fill-rule:evenodd;stroke:none;stroke-width:1.24026155px;stroke-linecap:butt;stroke-linejoin:miter;stroke-opacity:1"
       d="m 209.43997,249.79238 c 36.65466,11.31236 64.4656,41.77542 83.03111,74.92974 8.96322,15.77793 23.78968,33.81243 22.06195,52.26705 -1.03237,18.33362 -7.1959,36.24104 -5.05508,54.77745 0.70713,22.53975 3.79212,45.47522 -0.61608,67.75617 -4.80996,19.80695 -7.3011,40.21377 -7.44554,60.65319 3.05307,14.41936 -5.08435,27.61403 -9.95145,40.49138 -5.25734,11.5606 -19.03116,23.36876 -27.16344,33.07897 -11.41593,8.94603 -21.34759,19.6577 -32.66194,28.70821 -6.18547,5.92197 -14.72925,5.35298 -22.63633,5.08015 -16.19211,-0.76911 -32.63976,-2.07159 -48.23943,-6.90593 -9.90368,-2.89298 -13.18125,-13.58598 -17.73219,-21.80227 -9.607,-19.44102 -16.89228,-40.08485 -28.19773,-58.6389 -5.78884,-18.38169 -3.08116,-37.91636 -2.20631,-56.76767 1.72317,-15.79613 4.12614,-31.68616 2.12222,-47.61802 -1.46644,-20.2775 -5.26349,-40.49342 -4.77713,-60.84343 3.33743,-25.493 11.555,-49.90836 18.14695,-74.61324 5.8102,-22.16472 16.73571,-42.36607 28.42329,-61.74977 6.63693,-10.35403 14.35134,-21.31504 26.58239,-24.96913 8.42215,-2.99547 17.44019,-3.70128 26.31474,-3.83395 z"
       id="path4365"
       inkscape:connector-curvature="0"
       sodipodi:nodetypes="cccccccccccccccccccc" />
    <path
       style="fill:#ffffff;stroke:none;stroke-width:1"
       d="m 255.74611,486.59733 c -23.27266,-23.83534 -20.48879,-35.75842 -16.41183,-49.14873 4.07679,-13.39047 8.97204,-25.16536 5.766,-32.83447 -3.20588,-7.66895 -10.93987,-14.22751 -17.30992,-18.09351 -6.37002,-3.86612 0.37438,-12.96194 1.66184,-22.47971 1.28739,-9.51792 -6.96124,-58.99857 -6.96124,-58.99857 0,0 -18.46628,33.89095 -21.4884,46.01372 -3.02229,12.1226 -4.17691,16.54274 -4.30975,21.64038 -0.13267,5.09782 1.0675,17.51673 6.55388,23.65787 5.48637,6.14113 13.38767,8.34016 18.4974,11.72826 5.10986,3.388 3.10789,14.22244 1.75318,24.94735 -1.3548,10.72489 -0.91888,18.61083 7.73931,32.21546 7.42161,11.66179 24.50953,21.35195 24.50953,21.35195 z"
       id="path3023-2"
       inkscape:connector-curvature="0"
       sodipodi:nodetypes="csssscssssssc" />
    <text
       xml:space="preserve"
       style="font-style:normal;font-variant:normal;font-weight:normal;font-stretch:normal;font-size:10.6579771px;line-height:0.01%;font-family:Arial;-inkscape-font-specification:Arial;letter-spacing:0px;word-spacing:0px;fill:#b8764f;fill-opacity:1;stroke:none;stroke-width:0.99999994"
       x="146.31161"
       y="792.88184"
       id="text969"
       transform="matrix(0.93043638,-0.40475701,0,1.0747645,0,0)"><tspan
         sodipodi:role="line"
         x="146.31161"
         y="792.88184"
         id="tspan967"
         style="fill:#b8764f;fill-opacity:1;stroke-width:0.99999994"><tspan
           x="146.31161"
           y="792.88184"
           style="font-style:normal;font-variant:normal;font-weight:normal;font-stretch:normal;font-size:42.63190842px;line-height:1.25;font-family:Lavi;-inkscape-font-specification:Lavi;fill:#b8764f;fill-opacity:1;stroke-width:0.99999994"
           id="tspan965">Shrr</tspan></tspan></text>
    <path
       style="color:#000000;display:inline;overflow:visible;visibility:visible;fill:#ffffff;fill-opacity:1;fill-rule:nonzero;stroke:none;stroke-width:1px;marker:none;enable-background:accumulate"
       d="m 677.3672,1855.853 c -13.81416,11.4352 -28.07371,23.5268 -45.37048,28.6126 -4.94334,1.3415 -10.13724,2.383 -15.17734,1.997 -5.10914,-1.5938 -7.95117,-6.8567 -8.29553,-12.0924 -1.01963,-7.5052 0.9934,-15.9414 -3.08945,-22.6298 -3.09088,-4.7908 -9.22063,-4.9463 -14.32973,-5.5392 -13.06169,-1.2494 -26.43419,-0.6991 -39.15272,-4.0712 -14.5982,-2.8393 -29.71536,-6.9131 -40.9249,-17.0755 -4.36621,-4.0993 -8.34623,-9.031 -9.60144,-15.1479 -3.92579,-15.5158 0.93662,-33.8932 13.48534,-44.6997 8.61929,-6.1452 22.04985,-4.5663 27.3382,4.6491 2.86475,4.8194 1.99218,10.9537 -0.28824,15.9992 -2.51679,10.0054 0.79504,20.6754 7.64932,27.7427 5.55929,5.9304 12.9599,9.9511 20.86509,11.8157 9.98256,5.4504 21.83723,2.9201 32.79926,2.915 5.00527,0.073 10.31159,0.497 14.65191,3.0035 5.29618,5.1051 4.90278,13.2996 3.78431,20.2236 -0.97364,7.164 -2.89521,15.3934 1.47098,21.6216 2.44167,4.7598 8.43508,2.4997 12.74015,2.4695 13.91862,-1.9388 27.23033,-8.2543 38.53704,-16.9232 1.01948,-0.9054 1.96415,-1.8854 2.90823,-2.8706 z"
       id="path4496"
       inkscape:connector-curvature="0"
       inkscape:transform-center-x="15.738959"
       inkscape:transform-center-y="-33.216744" />
    <text
       xml:space="preserve"
       style="font-style:normal;font-variant:normal;font-weight:normal;font-stretch:normal;font-size:66.33062744px;line-height:0.01%;font-family:Arial;-inkscape-font-specification:Arial;letter-spacing:0.01132977px;word-spacing:0px;display:inline;fill:#ffffff;fill-opacity:1;stroke:#fc5959;stroke-width:3.02600002;stroke-miterlimit:4;stroke-dasharray:none;stroke-opacity:1"
       x="2100.5652"
       y="1099.4115"
       id="text1105"
       transform="matrix(1.0092628,0.17044443,-0.63347357,0.88384115,0,0)"><tspan
         sodipodi:role="line"
         x="2127.418"
         y="1099.4115"
         id="tspan1103"
         style="font-style:normal;font-variant:normal;font-weight:normal;font-stretch:normal;font-family:Lavi;-inkscape-font-specification:Lavi;fill:#ffffff;fill-opacity:1;stroke:#fc5959;stroke-width:3.02600002;stroke-miterlimit:4;stroke-dasharray:none;stroke-opacity:1"><tspan
           x="2127.418"
           y="1099.4115"
           style="font-style:normal;font-variant:normal;font-weight:normal;font-stretch:normal;font-size:54.77391434px;font-family:Lavi;-inkscape-font-specification:Lavi;fill:#ffffff;fill-opacity:1;stroke:#fc5959;stroke-width:3.02600002;stroke-miterlimit:4;stroke-dasharray:none;stroke-opacity:1"
           id="tspan1095">ShiiING</tspan></tspan></text>
    <path
       style="color:#000000;display:inline;overflow:visible;visibility:visible;fill:#ffffff;fill-opacity:1;fill-rule:nonzero;stroke:none;stroke-width:1.10778546px;marker:none;enable-background:accumulate"
       d="m 790.69558,2331.1077 c 6.7699,-77.253 18.93117,-187.6029 69.79038,-210.5123 50.85943,-22.9094 133.78134,13.5114 162.99504,57.8839 29.2135,44.3723 38.4253,118.2909 30.3937,185.2887 -8.0315,66.9979 -4.2161,157.3125 -51.9607,178.8716 -47.74429,21.5594 -132.23231,52.5713 -174.61641,-9.1582 -48.29944,-70.3446 -36.85148,-202.2301 -36.60201,-202.3737 z"
       id="path3970-1"
       inkscape:connector-curvature="0"
       sodipodi:nodetypes="ccccssc" />
    <path
       style="opacity:1;fill:#ffffff;fill-rule:evenodd;stroke:none;stroke-width:0.59389627px;stroke-linecap:butt;stroke-linejoin:miter;stroke-opacity:1"
       d="m 841.57098,2578.2531 c 81.33155,30.4961 135.73985,28.0783 126.35903,-10.5298 -0.7356,-4.8999 -2.22429,-26.9295 -3.69549,-34.7116 -1.4712,-7.7821 -15.55736,10.1715 -21.94707,1.8468 -22.67023,-29.5351 -23.89721,10.2964 -18.67016,20.5166 11.59073,36.6144 -28.52589,36.3802 -82.04631,22.878 z"
       id="path4272"
       inkscape:connector-curvature="0"
       sodipodi:nodetypes="ccsscc" />
    <path
       style="fill:#ffffff;fill-opacity:1;stroke:none;stroke-width:0.92731094"
       d="m 2011.8882,2134.9817 c 97.3035,20.1034 134.7464,24.7541 130.484,250.1991 -3.7286,197.2122 -51.934,243.9072 -116.2914,256.9516 -44.2706,13.3919 -133.6446,42.447 -181.0718,-76.4095 -47.4273,-118.8569 -22.5994,-356.4253 19.9179,-394.261 49.1345,-41.4364 114.1902,-35.3852 146.9613,-36.4802 z"
       id="path3238"
       inkscape:connector-curvature="0"
       sodipodi:nodetypes="cscccc" />
    <path
       style="fill:#ffffff;stroke:none;stroke-width:0.7937606"
       d="m 1964.639,2689.2187 c -48.1954,-13.5473 -53.0214,-40.4994 -45.135,-53.5881 29.8116,-35.3871 -27.2384,-40.0916 -15.9902,1.1281 -2.7296,10.3178 -4.4089,23.491 6.6578,35.1127 10.5903,11.1215 54.4674,17.3473 54.4674,17.3473 z"
       id="path3023"
       inkscape:connector-curvature="0"
       sodipodi:nodetypes="cccsc" />
    <path
       style="fill:#ffffff;fill-rule:evenodd;stroke:none;stroke-width:0.89863646px;stroke-linecap:butt;stroke-linejoin:miter;stroke-opacity:1"
       d="m 1809.3764,91.828997 -80.3641,-39.799616 -118.9561,8.932822 -37.169,113.022287 7.4305,230.0811 85.0308,60.54774 103.1439,16.14603 102.691,-42.38341 4.5618,-287.75076 z"
       id="path5054"
       inkscape:connector-curvature="0"
       sodipodi:nodetypes="cccccccccc" />
    <path
       style="color:#000000;display:inline;overflow:visible;visibility:visible;fill:#ffffff;fill-opacity:1;fill-rule:nonzero;stroke:none;stroke-width:1.03626204px;marker:none;enable-background:accumulate"
       d="m 1852.7658,402.28141 c 1.5748,-37.4915 20.1424,-53.3252 47.8729,-62.5717 27.7304,-9.2465 72.4998,-1.5665 88.3523,14.6786 15.8524,16.245 17.4589,38.2241 15.3603,63.6653 -3.7924,45.9709 -15.7434,77.812 -58.7448,81.4115 -42.6952,3.574 -65.3472,0.7051 -85.6796,-33.087 -11.702,-31.8113 -7.1611,-64.0967 -7.1611,-64.0967 z"
       id="path3970"
       inkscape:connector-curvature="0"
       sodipodi:nodetypes="cccsscc" />
    <path
       style="fill:#ffffff;fill-opacity:1;fill-rule:evenodd;stroke:#fff6d5;stroke-width:1.05089247px;stroke-linecap:butt;stroke-linejoin:miter;stroke-opacity:1"
       d="m 2257.9959,557.53555 -106.67,25.45327 -95.7262,-38.43329 5.2982,-186.76529 2.3872,-138.77318 41.0488,-72.97822 164.5516,1.99438 52.8091,59.39465 11.3544,140.85735 -11.9365,131.16912 z"
       id="path5075"
       inkscape:connector-curvature="0"
       sodipodi:nodetypes="ccccccccccc" />
    <path
       style="color:#000000;display:inline;overflow:visible;visibility:visible;fill:#ffffff;fill-opacity:1;fill-rule:nonzero;stroke:none;stroke-width:1.08493054px;marker:none;enable-background:accumulate"
       d="m 2295.5284,722.89904 c -42.8944,-2.14695 -61.0099,-27.46109 -71.589,-65.26701 -10.579,-37.80604 -1.7923,-98.84202 16.7939,-120.45428 18.5862,-21.61227 43.7326,-23.80254 72.8402,-20.94123 52.5959,5.17026 89.0256,21.46339 93.1438,80.08892 4.0891,58.20811 0.8068,89.0905 -37.8552,116.81047 -36.3957,15.95391 -73.3337,9.76313 -73.3337,9.76313 z"
       id="path3970-36"
       inkscape:connector-curvature="0"
       sodipodi:nodetypes="cccsscc" />
    <path
       style="fill:#ffffff;fill-rule:evenodd;stroke:none;stroke-width:1.14120615px;stroke-linecap:butt;stroke-linejoin:miter;stroke-opacity:1"
       d="m 1923.1465,725.43305 c 38.1589,2.37711 94.0362,-8.86576 63.1863,-44.65472 59.88,25.3572 108.9756,20.93055 206.3796,-18.88537 -8.0943,55.47661 35.4405,50.29343 74.6876,39.64259 -37.6664,18.66829 29.9465,29.36578 66.3162,30.41443 -76.9365,40.37812 -36.5363,53.21963 -6.2208,68.4278 -75.6103,-11.25186 -57.3236,11.54652 -66.3547,24.43851 -64.8623,-29.21 -112.0325,-22.27747 -149.2981,4.88772 -19.4904,-14.7732 -25.6082,-45.30676 -97.4584,1.62921 26.4211,-40.51926 -8.211,-36.26621 -64.2813,-16.29228 8.7877,-13.8014 61.0151,-34.78842 -26.9564,-32.58474 54.9487,-13.12034 66.4714,-30.8935 0,-57.02315 z"
       id="path4584-1"
       inkscape:connector-curvature="0"
       sodipodi:nodetypes="cccccccccccc" />
    <path
       style="fill:#ffffff;fill-opacity:1;fill-rule:evenodd;stroke:none;stroke-width:1.28549039px;stroke-linecap:butt;stroke-linejoin:miter;stroke-opacity:1"
       d="m 2373.0973,1155.4561 -48.1935,99.4684 -132.4632,6.1204 -72.1389,-60.3437 2.1932,-176.5274 19.1834,-228.65049 57.3178,-56.82949 106.1913,10.25185 75.5999,78.02043 25.4879,170.6918 z"
       id="path5161"
       inkscape:connector-curvature="0"
       sodipodi:nodetypes="ccccccccccc" />
    <path
       style="color:#000000;display:inline;overflow:visible;visibility:visible;fill:#ffffff;fill-opacity:1;fill-rule:nonzero;stroke:none;stroke-width:0.78374565px;marker:none;enable-background:accumulate"
       d="m 256.97119,1333.6108 c 1.17924,-43.371 15.0837,-61.6878 35.84949,-72.3845 20.76588,-10.6966 54.29132,-1.8121 66.16239,16.9805 11.87108,18.7928 13.07408,44.2187 11.50258,73.6497 -2.83999,53.1803 -11.78935,90.0147 -43.9909,94.1788 -31.97221,4.1345 -48.93508,0.8158 -64.16098,-38.2759 -8.76301,-36.8001 -5.36258,-74.1486 -5.36258,-74.1486 z"
       id="path3970-36-4"
       inkscape:connector-curvature="0"
       sodipodi:nodetypes="cccsscc" />
    <path
       style="color:#000000;display:inline;overflow:visible;visibility:visible;fill:#ffffff;fill-opacity:1;fill-rule:nonzero;stroke:none;stroke-width:1.44080353px;marker:none;enable-background:accumulate"
       d="m 1792.8635,2069.9556 c 40.9195,0.6393 67.5302,20.4795 79.9531,31.4048 12.4233,10.9255 37.742,77.5806 36.2465,101.4739 -1.4958,23.8933 -37.0884,121.3746 -67.609,137.8267 -72.2948,29.6649 -131.1691,7.4063 -152.5245,-76.0463 -3.9272,-15.784 -4.3993,-60.5884 -1.855,-75.065 2.5447,-14.4766 38.9826,-125.4628 105.7889,-119.5941 z"
       id="path3357"
       inkscape:connector-curvature="0"
       sodipodi:nodetypes="ccccccc" />
    <text
       xml:space="preserve"
       style="font-style:normal;font-variant:normal;font-weight:normal;font-stretch:normal;line-height:0%;font-family:Lavi;-inkscape-font-specification:Lavi;text-align:center;letter-spacing:0px;word-spacing:0px;text-anchor:middle;display:inline;opacity:0.35800003;fill:#000000;fill-opacity:1;stroke:none;stroke-width:1.45996165;filter:url(#filter4210)"
       x="1174.0292"
       y="1085.962"
       id="text4246-5"
       transform="matrix(0.59859266,-0.06157078,0.00633293,0.63548918,541.82445,2358.5786)"><tspan
         sodipodi:role="line"
         style="font-style:normal;font-variant:normal;font-weight:normal;font-stretch:normal;font-size:45.00812149px;line-height:1.25;font-family:Fondamento;-inkscape-font-specification:Fondamento;stroke:#000000;stroke-width:4.95442009;stroke-miterlimit:4;stroke-dasharray:none;stroke-opacity:1"
         x="1174.0292"
         y="1085.962"
         id="tspan4217">ABANTE TONITE</tspan><tspan
         sodipodi:role="line"
         style="font-style:normal;font-variant:normal;font-weight:normal;font-stretch:normal;font-size:45.00812149px;line-height:1.25;font-family:Fondamento;-inkscape-font-specification:Fondamento;stroke:#000000;stroke-width:4.95442009;stroke-miterlimit:4;stroke-dasharray:none;stroke-opacity:1"
         x="1179.5233"
         y="1142.2222"
         id="tspan4207"> </tspan><tspan
         sodipodi:role="line"
         style="font-style:normal;font-variant:normal;font-weight:normal;font-stretch:normal;font-size:45.00812149px;line-height:1.25;font-family:Fondamento;-inkscape-font-specification:Fondamento;stroke:#000000;stroke-width:4.95442009;stroke-miterlimit:4;stroke-dasharray:none;stroke-opacity:1"
         x="1179.5233"
         y="1198.4823"
         id="tspan4209"> </tspan></text>
    <path
       style="color:#000000;display:inline;overflow:visible;visibility:visible;fill:#ffffff;fill-opacity:1;fill-rule:nonzero;stroke:none;stroke-width:1px;marker:none;enable-background:accumulate"
       d="m 1589.7943,157.61754 c -8.8614,-24.36709 -33.8637,-38.6263 -43.4322,-37.17458 -9.5684,1.45169 37.9222,-18.88289 66.1459,18.41098 28.2236,37.29379 -9.2438,35.86676 -9.2438,35.86676 z"
       id="path4035-5"
       inkscape:connector-curvature="0" />
    <path
       style="color:#000000;display:inline;overflow:visible;visibility:visible;fill:#ffffff;fill-opacity:1;fill-rule:nonzero;stroke:none;stroke-width:1.0799793px;marker:none;enable-background:accumulate"
       d="m 1118.7863,19.966647 c 97.0983,6.539634 395.2111,-1.353639 376.4787,166.472293 -8.1569,73.07884 10.0541,96.06484 -20.1338,121.54704 -48.3645,40.82529 -169.676,29.93223 -385.2827,27.90229 -408.95376,-3.8503 -379.03388,15.3053 -449.06842,-45.33577 -13.30793,-11.52299 20.3526,-21.65104 19.19588,-37.44919 C 599.05021,-58.470432 981.71759,21.230335 1118.7863,19.966647 Z"
       id="path4546-6"
       inkscape:connector-curvature="0"
       sodipodi:nodetypes="csssscc" />
    <path
       style="color:#000000;display:inline;overflow:visible;visibility:visible;fill:#ffffff;fill-opacity:1;fill-rule:nonzero;stroke:none;stroke-width:1.23743439px;marker:none;enable-background:accumulate"
       d="m 1566.5606,153.52999 c -71.9983,4.52699 -83.9113,-16.41582 -79.763,-44.57794 5.2491,-35.636878 38.3108,-42.893078 82.6909,-41.538798 49.2158,0.26824 73.951,7.0858 80.3616,22.20114 10.1218,23.865728 12.1771,47.692608 -13.0486,58.460548 -32.4676,8.01405 -70.2409,5.45505 -70.2409,5.45505 z"
       id="path3970-6"
       inkscape:connector-curvature="0"
       sodipodi:nodetypes="cscscc" />
    <path
       sodipodi:nodetypes="cccsscc"
       inkscape:connector-curvature="0"
       id="path5231"
       d="m 466.91636,1611.2973 c 3.21574,-98.8584 32.62792,-140.3627 76.26659,-164.368 43.63884,-24.005 113.64039,-3.1334 138.15747,39.9293 24.51708,43.0634 26.5959,101.0531 22.79978,168.123 -6.86019,121.1917 -26.22281,205.0047 -93.67908,213.9064 -66.97585,8.8383 -102.41484,0.9603 -133.60204,-88.4434 -17.7026,-84.0603 -9.94272,-169.1473 -9.94272,-169.1473 z"
       style="color:#000000;display:inline;overflow:visible;visibility:visible;fill:#ffffff;fill-opacity:1;fill-rule:nonzero;stroke:none;stroke-width:1.71192873px;marker:none;enable-background:accumulate" />
  </g>
  <g
     inkscape:groupmode="layer"
     id="layer1"
     inkscape:label="txt"
     style="display:inline">
    <text
       xml:space="preserve"
       style="font-style:normal;font-variant:normal;font-weight:normal;font-stretch:normal;line-height:0%;font-family:Lavi;-inkscape-font-specification:Lavi;text-align:center;letter-spacing:0px;word-spacing:0px;text-anchor:middle;fill:#000000;fill-opacity:1;stroke:none"
       x="212.79622"
       y="315.16226"
       id="text4246"><tspan
         sodipodi:role="line"
         style="font-size:45px;line-height:1.25"
         x="220.70638"
         y="315.16226"
         id="tspan4252">... </tspan><tspan
         sodipodi:role="line"
         style="font-size:45px;line-height:1.25"
         x="220.70638"
         y="371.41226"
         id="tspan4873">kung </tspan><tspan
         sodipodi:role="line"
         style="font-size:45px;line-height:1.25"
         x="220.70638"
         y="427.66226"
         id="tspan5062">tama ang </tspan><tspan
         sodipodi:role="line"
         style="font-size:45px;line-height:1.25"
         x="212.79622"
         y="483.91226"
         id="tspan4875">pagkaka-</tspan><tspan
         sodipodi:role="line"
         style="font-size:45px;line-height:1.25"
         x="220.70638"
         y="540.16223"
         id="tspan5064">alala </tspan><tspan
         sodipodi:role="line"
         style="font-size:45px;line-height:1.25"
         x="212.79622"
         y="596.41229"
         id="tspan5066">ko</tspan><tspan
         sodipodi:role="line"
         style="font-size:45px;line-height:1.25"
         x="212.79622"
         y="652.66229"
         id="tspan5068">...</tspan></text>
    <text
       xml:space="preserve"
       style="font-style:normal;font-variant:normal;font-weight:normal;font-stretch:normal;line-height:0%;font-family:Lavi;-inkscape-font-specification:Lavi;text-align:center;letter-spacing:0px;word-spacing:0px;text-anchor:middle;fill:#000000;fill-opacity:1;stroke:none"
       x="280.38809"
       y="182.94823"
       id="text4246-3"><tspan
         sodipodi:role="line"
         style="font-size:45px;line-height:1.25"
         x="280.38809"
         y="182.94823"
         id="tspan137">pero</tspan><tspan
         sodipodi:role="line"
         style="font-size:45px;line-height:1.25"
         x="280.38809"
         y="239.19823"
         id="tspan5060">...</tspan></text>
    <text
       xml:space="preserve"
       style="font-style:normal;font-variant:normal;font-weight:normal;font-stretch:normal;line-height:1;font-family:Lavi;-inkscape-font-specification:Lavi;text-align:center;letter-spacing:0px;word-spacing:0px;text-anchor:middle;fill:#000000;fill-opacity:1;stroke:none"
       x="1072.6111"
       y="176.86156"
       id="text4246-3-7"><tspan
         sodipodi:role="line"
         style="font-size:42.66666794px;line-height:1"
         x="1072.6111"
         y="176.86156"
         id="tspan5095">&quot;Mahika ng Gulo at Pagwasak-Chapter 3&quot;,</tspan><tspan
         sodipodi:role="line"
         style="font-size:42.66666794px;line-height:1"
         x="1080.1111"
         y="219.52823"
         id="tspan4903">Sabi ni Lola Thyme, gumawa muna ako </tspan><tspan
         sodipodi:role="line"
         style="font-size:42.66666794px;line-height:1"
         x="1080.1111"
         y="262.19489"
         id="tspan4893">ng micro-dimension bago mag-magic... </tspan><tspan
         sodipodi:role="line"
         style="font-size:42.66666794px;line-height:1"
         x="1072.6111"
         y="304.86157"
         id="tspan4891">andaming warnings dito ah</tspan></text>
    <text
       xml:space="preserve"
       style="font-style:normal;font-variant:normal;font-weight:normal;font-stretch:normal;line-height:0%;font-family:Lavi;-inkscape-font-specification:Lavi;text-align:center;letter-spacing:0px;word-spacing:0px;text-anchor:middle;fill:#000000;fill-opacity:1;stroke:none"
       x="930.90057"
       y="2282.6082"
       id="text4246-3-7-6-1"><tspan
         sodipodi:role="line"
         style="font-size:45px;line-height:1.25"
         x="938.81073"
         y="2282.6082"
         id="tspan4390">Gumagawa </tspan><tspan
         sodipodi:role="line"
         style="font-size:45px;line-height:1.25"
         x="938.81073"
         y="2338.8582"
         id="tspan5033">ba si Pepper </tspan><tspan
         sodipodi:role="line"
         style="font-size:45px;line-height:1.25"
         x="930.90057"
         y="2395.1082"
         id="tspan5037">ng micro-</tspan><tspan
         sodipodi:role="line"
         style="font-size:45px;line-height:1.25"
         x="930.90057"
         y="2451.3582"
         id="tspan5241">dimension</tspan><tspan
         sodipodi:role="line"
         style="font-size:45px;line-height:1.25"
         x="930.90057"
         y="2507.6082"
         id="tspan5243">?</tspan></text>
    <text
       xml:space="preserve"
       style="font-style:normal;font-variant:normal;font-weight:normal;font-stretch:normal;line-height:0%;font-family:Lavi;-inkscape-font-specification:Lavi;letter-spacing:0px;word-spacing:0px;fill:#ffffff;fill-opacity:1;stroke:#c83737;stroke-width:0.99236238;stroke-miterlimit:4;stroke-dasharray:none;stroke-opacity:1;filter:url(#filter4375-4-1-1-1-9-5-8)"
       x="787.65729"
       y="1584.5073"
       id="text4580-6-0"
       transform="matrix(0.83434398,-0.14790328,-0.40858731,0.88612324,1099.912,885.91633)"><tspan
         sodipodi:role="line"
         id="tspan4582-1-1"
         x="787.65729"
         y="1584.5073"
         style="font-size:70px;line-height:1.25;fill:#ffffff;fill-opacity:1;stroke:#c83737;stroke-opacity:1"><tspan
           style="font-size:93.14950562px;fill:#ffffff;fill-opacity:1;stroke:#c83737;stroke-opacity:1"
           id="tspan4315-8">SCHwoomp!</tspan><tspan
           style="font-size:114.73223114px;fill:#ffffff;fill-opacity:1;stroke:#c83737;stroke-opacity:1"
           id="tspan4313-2">!</tspan></tspan></text>
    <text
       xml:space="preserve"
       style="font-style:normal;font-variant:normal;font-weight:normal;font-stretch:normal;line-height:0%;font-family:Lavi;-inkscape-font-specification:Lavi;text-align:center;letter-spacing:0px;word-spacing:0px;text-anchor:middle;fill:#000000;fill-opacity:1;stroke:none"
       x="1803.3512"
       y="2219.8291"
       id="text4246-3-7-6-1-7"><tspan
         sodipodi:role="line"
         style="font-size:45px;line-height:1.25"
         x="1803.3512"
         y="2219.8291"
         id="tspan5249">Magaling!</tspan></text>
    <text
       xml:space="preserve"
       style="font-style:normal;font-variant:normal;font-weight:normal;font-stretch:normal;line-height:1;font-family:Lavi;-inkscape-font-specification:Lavi;text-align:center;letter-spacing:0px;word-spacing:0px;text-anchor:middle;fill:#916f6f;fill-opacity:1;stroke:none;stroke-width:1.79999995;stroke-miterlimit:4;stroke-dasharray:none"
       x="2300.615"
       y="261.39713"
       id="text4246-3-7-3"
       transform="skewX(-20)"><tspan
         sodipodi:role="line"
         style="font-size:45px;line-height:1;fill:#916f6f;fill-opacity:1;stroke-width:1.79999995;stroke-miterlimit:4;stroke-dasharray:none"
         x="2308.5251"
         y="261.39713"
         id="tspan887-7">Delikadong </tspan><tspan
         sodipodi:role="line"
         style="font-size:45px;line-height:1;fill:#916f6f;fill-opacity:1;stroke-width:1.79999995;stroke-miterlimit:4;stroke-dasharray:none"
         x="2308.5251"
         y="306.39709"
         id="tspan4983">kunin palabas </tspan><tspan
         sodipodi:role="line"
         style="font-size:45px;line-height:1;fill:#916f6f;fill-opacity:1;stroke-width:1.79999995;stroke-miterlimit:4;stroke-dasharray:none"
         x="2308.5251"
         y="351.39709"
         id="tspan5129">  ang mga </tspan><tspan
         sodipodi:role="line"
         style="font-size:45px;line-height:1;fill:#916f6f;fill-opacity:1;stroke-width:1.79999995;stroke-miterlimit:4;stroke-dasharray:none"
         x="2308.5251"
         y="396.39709"
         id="tspan4985">    resulta </tspan><tspan
         sodipodi:role="line"
         style="font-size:45px;line-height:1;fill:#916f6f;fill-opacity:1;stroke-width:1.79999995;stroke-miterlimit:4;stroke-dasharray:none"
         x="2308.5251"
         y="441.39709"
         id="tspan5131">       ng magic, </tspan><tspan
         sodipodi:role="line"
         style="font-size:45px;line-height:1;fill:#916f6f;fill-opacity:1;stroke-width:1.79999995;stroke-miterlimit:4;stroke-dasharray:none"
         x="2308.5251"
         y="486.39709"
         id="tspan4981">        Huwag </tspan><tspan
         sodipodi:role="line"
         style="font-size:45px;line-height:1;fill:#916f6f;fill-opacity:1;stroke-width:1.79999995;stroke-miterlimit:4;stroke-dasharray:none"
         x="2308.5251"
         y="531.39709"
         id="tspan5133">          susubukan </tspan></text>
    <text
       xml:space="preserve"
       style="font-style:normal;font-variant:normal;font-weight:normal;font-stretch:normal;line-height:1;font-family:Lavi;-inkscape-font-specification:Lavi;text-align:center;letter-spacing:0px;word-spacing:0px;text-anchor:middle;fill:#916f6f;fill-opacity:1;stroke:none;stroke-width:1.79999995;stroke-miterlimit:4;stroke-dasharray:none;"
       x="1807.4655"
       y="164.39951"
       id="text4246-3-7-3-2"
       transform="skewX(-20)"><tspan
         sodipodi:role="line"
         style="font-size:45px;line-height:1;fill:#916f6f;fill-opacity:1;stroke-width:1.79999995;stroke-miterlimit:4;stroke-dasharray:none;"
         x="1815.3756"
         y="164.39951"
         id="tspan4842">&quot;   Huwag         </tspan><tspan
         sodipodi:role="line"
         style="font-size:45px;line-height:1;fill:#916f6f;fill-opacity:1;stroke-width:1.79999995;stroke-miterlimit:4;stroke-dasharray:none;"
         x="1815.3756"
         y="209.39951"
         id="tspan4957">gamitin lahat </tspan><tspan
         sodipodi:role="line"
         style="font-size:45px;line-height:1;fill:#916f6f;fill-opacity:1;stroke-width:1.79999995;stroke-miterlimit:4;stroke-dasharray:none;"
         x="1815.3756"
         y="254.39952"
         id="tspan4955"> ng Rea sa </tspan><tspan
         sodipodi:role="line"
         style="font-size:45px;line-height:1;fill:#916f6f;fill-opacity:1;stroke-width:1.79999995;stroke-miterlimit:4;stroke-dasharray:none;"
         x="1815.3756"
         y="299.39954"
         id="tspan5121">   paggawa </tspan><tspan
         sodipodi:role="line"
         style="font-size:45px;line-height:1;fill:#916f6f;fill-opacity:1;stroke-width:1.79999995;stroke-miterlimit:4;stroke-dasharray:none;"
         x="1815.3756"
         y="344.39954"
         id="tspan4953">     ng micro- </tspan><tspan
         sodipodi:role="line"
         style="font-size:45px;line-height:1;fill:#916f6f;fill-opacity:1;stroke-width:1.79999995;stroke-miterlimit:4;stroke-dasharray:none;"
         x="1807.4655"
         y="389.39954"
         id="tspan5107">       dimension</tspan><tspan
         sodipodi:role="line"
         style="font-size:45px;line-height:1;fill:#916f6f;fill-opacity:1;stroke-width:1.79999995;stroke-miterlimit:4;stroke-dasharray:none;"
         x="1815.3756"
         y="434.39954"
         id="tspan5123">            ...     &quot; </tspan></text>
    <text
       xml:space="preserve"
       style="font-style:normal;font-variant:normal;font-weight:normal;font-stretch:normal;line-height:1;font-family:Lavi;-inkscape-font-specification:Lavi;text-align:center;letter-spacing:0px;word-spacing:0px;text-anchor:middle;fill:#916f6f;fill-opacity:1;stroke:none;stroke-width:1.29999995;stroke-miterlimit:4;stroke-dasharray:none;"
       x="2310.2832"
       y="773.5661"
       id="text4246-3-7-3-7"
       transform="skewX(-20)"><tspan
         sodipodi:role="line"
         style="font-size:45px;line-height:1;fill:#916f6f;fill-opacity:1;stroke-width:1.29999995;stroke-miterlimit:4;stroke-dasharray:none;"
         x="2310.2832"
         y="783.05389"
         id="tspan875-6-5" /><tspan
         sodipodi:role="line"
         style="font-size:45px;line-height:1;fill:#916f6f;fill-opacity:1;stroke-width:1.29999995;stroke-miterlimit:4;stroke-dasharray:none;"
         x="2310.2832"
         y="795.05389"
         id="tspan895-2-9" /><tspan
         sodipodi:role="line"
         style="font-size:45px;line-height:1;fill:#916f6f;fill-opacity:1;stroke-width:1.29999995;stroke-miterlimit:4;stroke-dasharray:none;"
         x="2318.1934"
         y="833.14539"
         id="tspan801">&quot;Huwag </tspan><tspan
         sodipodi:role="line"
         style="font-size:45px;line-height:1;fill:#916f6f;fill-opacity:1;stroke-width:1.29999995;stroke-miterlimit:4;stroke-dasharray:none;"
         x="2318.1934"
         y="878.14539"
         id="tspan5155">   umasa ng </tspan><tspan
         sodipodi:role="line"
         style="font-size:45px;line-height:1;fill:#916f6f;fill-opacity:1;stroke-width:1.29999995;stroke-miterlimit:4;stroke-dasharray:none;"
         x="2318.1934"
         y="923.14539"
         id="tspan5000">      tulong mula </tspan><tspan
         sodipodi:role="line"
         style="font-size:45px;line-height:1;fill:#916f6f;fill-opacity:1;stroke-width:1.29999995;stroke-miterlimit:4;stroke-dasharray:none;"
         x="2318.1934"
         y="968.14539"
         id="tspan5157">        sa labas ng </tspan><tspan
         sodipodi:role="line"
         style="font-size:45px;line-height:1;fill:#916f6f;fill-opacity:1;stroke-width:1.29999995;stroke-miterlimit:4;stroke-dasharray:none;"
         x="2310.2832"
         y="1013.1454"
         id="tspan4998">        micro-</tspan><tspan
         sodipodi:role="line"
         style="font-size:45px;line-height:1;fill:#916f6f;fill-opacity:1;stroke-width:1.29999995;stroke-miterlimit:4;stroke-dasharray:none;"
         x="2318.1934"
         y="1058.1454"
         id="tspan5160">           dimension </tspan><tspan
         sodipodi:role="line"
         style="font-size:45px;line-height:1;fill:#916f6f;fill-opacity:1;stroke-width:1.29999995;stroke-miterlimit:4;stroke-dasharray:none;"
         x="2318.1934"
         y="1103.1454"
         id="tspan5162">              ... </tspan></text>
    <text
       xml:space="preserve"
       style="font-style:normal;font-variant:normal;font-weight:normal;font-stretch:normal;line-height:0%;font-family:Lavi;-inkscape-font-specification:Lavi;text-align:center;letter-spacing:0px;word-spacing:0px;text-anchor:middle;fill:#000000;fill-opacity:1;stroke:none"
       x="1919.7407"
       y="430.4631"
       id="text4246-3-7-61"><tspan
         sodipodi:role="line"
         style="font-size:45px;line-height:1.25"
         x="1919.7407"
         y="430.4631"
         id="tspan887-1">Natural.</tspan></text>
    <text
       xml:space="preserve"
       style="font-style:normal;font-variant:normal;font-weight:normal;font-stretch:normal;line-height:0%;font-family:Lavi;-inkscape-font-specification:Lavi;text-align:center;letter-spacing:0px;word-spacing:0px;text-anchor:middle;fill:#000000;fill-opacity:1;stroke:#000000;stroke-width:0.60000002;stroke-miterlimit:4;stroke-dasharray:none;stroke-opacity:1"
       x="2136.875"
       y="768.88867"
       id="text4246-3-7-61-9"><tspan
         sodipodi:role="line"
         style="font-size:45px;line-height:1.25;stroke:#000000;stroke-width:0.60000002;stroke-miterlimit:4;stroke-dasharray:none;stroke-opacity:1"
         x="2136.875"
         y="768.88867"
         id="tspan887-1-4">Ha! eto na nga!</tspan></text>
    <text
       xml:space="preserve"
       style="font-style:normal;font-variant:normal;font-weight:normal;font-stretch:normal;line-height:1;font-family:Lavi;-inkscape-font-specification:Lavi;text-align:center;letter-spacing:0px;word-spacing:0px;text-anchor:middle;fill:#000000;fill-opacity:1;stroke:none"
       x="2325.6545"
       y="605.0036"
       id="text4246-3-7-61-7"><tspan
         sodipodi:role="line"
         style="font-weight:bold;font-size:45px;line-height:1"
         x="2333.5647"
         y="605.0036"
         id="tspan887-1-8">Meh... </tspan><tspan
         sodipodi:role="line"
         style="font-weight:bold;font-size:45px;line-height:1"
         x="2325.6545"
         y="650.0036"
         id="tspan5135">Obviously!</tspan></text>
    <text
       xml:space="preserve"
       style="font-style:normal;font-variant:normal;font-weight:normal;font-stretch:normal;line-height:0%;font-family:Lavi;-inkscape-font-specification:Lavi;text-align:center;letter-spacing:0px;word-spacing:0px;text-anchor:middle;fill:#000000;fill-opacity:1;stroke:none"
       x="1577.3273"
       y="120.9031"
       id="text4246-3-7-61-4"><tspan
         sodipodi:role="line"
         style="font-size:45px;line-height:1.25"
         x="1577.3273"
         y="120.9031"
         id="tspan887-1-5">Hmm...</tspan></text>
    <text
       xml:space="preserve"
       style="font-style:normal;font-variant:normal;font-weight:normal;font-stretch:normal;line-height:1;font-family:Lavi;-inkscape-font-specification:Lavi;text-align:center;letter-spacing:0px;word-spacing:0px;text-anchor:middle;fill:#916f6f;fill-opacity:1;stroke:#916f6f;stroke-width:1.29999995;stroke-miterlimit:4;stroke-dasharray:none;stroke-opacity:1"
       x="2575.5427"
       y="887.50061"
       id="text4246-3-7-3-7-0"
       transform="skewX(-20)"><tspan
         sodipodi:role="line"
         style="font-size:45px;line-height:1;fill:#916f6f;fill-opacity:1;stroke:#916f6f;stroke-width:1.29999995;stroke-miterlimit:4;stroke-dasharray:none;stroke-opacity:1"
         x="2583.4529"
         y="887.50061"
         id="tspan5159">&quot; ...walang </tspan><tspan
         sodipodi:role="line"
         style="font-size:45px;line-height:1;fill:#916f6f;fill-opacity:1;stroke:#916f6f;stroke-width:1.29999995;stroke-miterlimit:4;stroke-dasharray:none;stroke-opacity:1"
         x="2583.4529"
         y="932.50061"
         id="tspan5145">    makakakita </tspan><tspan
         sodipodi:role="line"
         style="font-size:45px;line-height:1;fill:#916f6f;fill-opacity:1;stroke:#916f6f;stroke-width:1.29999995;stroke-miterlimit:4;stroke-dasharray:none;stroke-opacity:1"
         x="2583.4529"
         y="977.50061"
         id="tspan5147">     sa kung  </tspan><tspan
         sodipodi:role="line"
         style="font-size:45px;line-height:1;fill:#916f6f;fill-opacity:1;stroke:#916f6f;stroke-width:1.29999995;stroke-miterlimit:4;stroke-dasharray:none;stroke-opacity:1"
         x="2583.4529"
         y="1022.5006"
         id="tspan5153">       ano man ang </tspan><tspan
         sodipodi:role="line"
         style="font-size:45px;line-height:1;fill:#916f6f;fill-opacity:1;stroke:#916f6f;stroke-width:1.29999995;stroke-miterlimit:4;stroke-dasharray:none;stroke-opacity:1"
         x="2583.4529"
         y="1067.5006"
         id="tspan5020">        ginagawa mo </tspan><tspan
         sodipodi:role="line"
         style="font-size:45px;line-height:1;fill:#916f6f;fill-opacity:1;stroke:#916f6f;stroke-width:1.29999995;stroke-miterlimit:4;stroke-dasharray:none;stroke-opacity:1"
         x="2583.4529"
         y="1112.5006"
         id="tspan5016">          mula sa </tspan><tspan
         sodipodi:role="line"
         style="font-size:45px;line-height:1;fill:#916f6f;fill-opacity:1;stroke:#916f6f;stroke-width:1.29999995;stroke-miterlimit:4;stroke-dasharray:none;stroke-opacity:1"
         x="2575.5427"
         y="1157.5006"
         id="tspan5149">             loob nito &quot;</tspan></text>
    <text
       xml:space="preserve"
       style="font-style:normal;font-variant:normal;font-weight:normal;font-stretch:normal;line-height:0%;font-family:Lavi;-inkscape-font-specification:Lavi;text-align:center;letter-spacing:0px;word-spacing:0px;text-anchor:middle;fill:#000000;fill-opacity:1;stroke:none"
       x="1988.8566"
       y="2223.2832"
       id="text4246-3-7-6-1-7-6"><tspan
         sodipodi:role="line"
         style="font-size:45px;line-height:1.25"
         x="1996.7666"
         y="2223.2832"
         id="tspan1274-5">Sana </tspan><tspan
         sodipodi:role="line"
         style="font-size:45px;line-height:1.25"
         x="1996.7666"
         y="2279.5332"
         id="tspan5251">naiintindihan </tspan><tspan
         sodipodi:role="line"
         style="font-size:45px;line-height:1.25"
         x="1996.7666"
         y="2335.7832"
         id="tspan5052">niyang mabuti </tspan><tspan
         sodipodi:role="line"
         style="font-size:45px;line-height:1.25"
         x="1996.7666"
         y="2392.0332"
         id="tspan5054">ang mga </tspan><tspan
         sodipodi:role="line"
         style="font-size:45px;line-height:1.25"
         x="1996.7666"
         y="2448.2832"
         id="tspan5257">warning na </tspan><tspan
         sodipodi:role="line"
         style="font-size:45px;line-height:1.25"
         x="1996.7666"
         y="2504.5332"
         id="tspan5056">sinulat ko sa </tspan><tspan
         sodipodi:role="line"
         style="font-size:45px;line-height:1.25"
         x="1988.8566"
         y="2560.7832"
         id="tspan5261">chapter 3</tspan></text>
    <text
       xml:space="preserve"
       style="font-style:normal;font-variant:normal;font-weight:normal;font-stretch:normal;line-height:0%;font-family:Lavi;-inkscape-font-specification:Lavi;text-align:center;letter-spacing:0px;word-spacing:0px;text-anchor:middle;fill:#000000;fill-opacity:1;stroke:none"
       x="310.48624"
       y="1338.9037"
       id="text4246-3-7-61-7-7-7"><tspan
         sodipodi:role="line"
         style="font-size:45px;line-height:1.25"
         x="318.39639"
         y="1338.9037"
         id="tspan5199-43">Ok </tspan><tspan
         sodipodi:role="line"
         style="font-size:45px;line-height:1.25"
         x="318.39639"
         y="1395.0043"
         id="tspan5237"><tspan
   style="fill:#ff6600"
   id="tspan5239">♪</tspan> </tspan><tspan
         sodipodi:role="line"
         style="font-size:45px;line-height:1.25"
         x="310.48624"
         y="1413.6873"
         id="tspan5022" /></text>
    <text
       id="text5180"
       y="1439.4437"
       x="390.13477"
       style="font-style:normal;font-variant:normal;font-weight:normal;font-stretch:normal;line-height:0%;font-family:Lavi;-inkscape-font-specification:Lavi;text-align:center;letter-spacing:0px;word-spacing:0px;text-anchor:middle;fill:#000000;fill-opacity:1;stroke:none"
       xml:space="preserve"><tspan
         id="tspan5168"
         y="1439.4437"
         x="398.04492"
         style="font-size:45px;line-height:1.25"
         sodipodi:role="line"> </tspan><tspan
         id="tspan5170"
         y="1495.6937"
         x="398.04492"
         style="font-size:45px;line-height:1.25"
         sodipodi:role="line">Wait </tspan><tspan
         y="1551.9437"
         x="390.13477"
         style="font-size:45px;line-height:1.25"
         sodipodi:role="line"
         id="tspan5221">lang!</tspan><tspan
         id="tspan5178"
         y="1570.4773"
         x="390.13477"
         style="font-size:45px;line-height:1.25"
         sodipodi:role="line" /></text>
    <text
       xml:space="preserve"
       style="font-style:normal;font-variant:normal;font-weight:normal;font-stretch:normal;line-height:0%;font-family:Lavi;-inkscape-font-specification:Lavi;text-align:center;letter-spacing:0px;word-spacing:0px;text-anchor:middle;fill:#000000;fill-opacity:1;stroke:none"
       x="587.29761"
       y="1567.4037"
       id="text5194"><tspan
         sodipodi:role="line"
         style="font-size:45px;line-height:1.25"
         x="587.29761"
         y="1570.8915"
         id="tspan5184" /><tspan
         sodipodi:role="line"
         style="font-size:45px;line-height:1.25"
         x="595.20776"
         y="1608.6079"
         id="tspan5186">Gagawa </tspan><tspan
         sodipodi:role="line"
         style="font-size:45px;line-height:1.25"
         x="595.20776"
         y="1664.8579"
         id="tspan5188">na tayo ng </tspan><tspan
         sodipodi:role="line"
         style="font-size:45px;line-height:1.25"
         x="595.20776"
         y="1721.1079"
         id="tspan5190">&quot;assignment!&quot; </tspan><tspan
         sodipodi:role="line"
         style="font-size:45px;line-height:1.25;fill:#ff8080"
         x="587.29761"
         y="1776.6876"
         id="tspan5192">♥</tspan></text>
    <flowRoot
       xml:space="preserve"
       id="flowRoot5223"
       style="fill:black;fill-opacity:1;stroke:none;font-family:sans-serif;font-style:normal;font-weight:normal;font-size:40px;line-height:1.25;letter-spacing:0px;word-spacing:0px"><flowRegion
         id="flowRegion5225"><rect
           id="rect5227"
           width="35.254276"
           height="88.788551"
           x="430.88562"
           y="1315.9291" /></flowRegion><flowPara
         id="flowPara5229"></flowPara></flowRoot>  </g>
</svg>
