<?xml version="1.0" encoding="UTF-8" standalone="no"?>
<!-- Created with Inkscape (http://www.inkscape.org/) -->

<svg
   xmlns:dc="http://purl.org/dc/elements/1.1/"
   xmlns:cc="http://creativecommons.org/ns#"
   xmlns:rdf="http://www.w3.org/1999/02/22-rdf-syntax-ns#"
   xmlns:svg="http://www.w3.org/2000/svg"
   xmlns="http://www.w3.org/2000/svg"
   xmlns:xlink="http://www.w3.org/1999/xlink"
   xmlns:sodipodi="http://sodipodi.sourceforge.net/DTD/sodipodi-0.dtd"
   xmlns:inkscape="http://www.inkscape.org/namespaces/inkscape"
   id="svg2"
   version="1.1"
   inkscape:version="0.92.2 (5c3e80d, 2017-08-06)"
   width="2481"
   height="3503"
   sodipodi:docname="E22P08.svg"
   enable-background="new"
   inkscape:export-filename="E:\Users\jamesmichael\Downloads\Compressed\eps\ep22_The-Voting-System_lang-pack\lang\ph\E22P08.png"
   inkscape:export-xdpi="90"
   inkscape:export-ydpi="90">
  <sodipodi:namedview
     pagecolor="#ffffff"
     bordercolor="#666666"
     inkscape:pageopacity="0"
     inkscape:pageshadow="2"
     inkscape:window-width="1813"
     inkscape:window-height="955"
     id="namedview70"
     showgrid="false"
     inkscape:zoom="0.28284271"
     inkscape:cx="1244.6448"
     inkscape:cy="1234.0151"
     inkscape:current-layer="layer4"
     inkscape:window-x="0"
     inkscape:window-y="26"
     inkscape:window-maximized="0"
     inkscape:snap-grids="false"
     inkscape:snap-to-guides="false"
     inkscape:snap-others="false"
     inkscape:object-nodes="false"
     inkscape:snap-nodes="false"
     inkscape:snap-global="false" />
  <metadata
     id="metadata8">
    <rdf:RDF>
      <cc:Work
         rdf:about="">
        <dc:format>image/svg+xml</dc:format>
        <dc:type
           rdf:resource="http://purl.org/dc/dcmitype/StillImage" />
        <dc:title />
      </cc:Work>
    </rdf:RDF>
  </metadata>
  <defs
     id="defs6">
    <linearGradient
       inkscape:collect="always"
       id="linearGradient4763">
      <stop
         id="stop4767"
         offset="0"
         style="stop-color:#ff6a05;stop-opacity:1" />
      <stop
         id="stop4765"
         offset="1"
         style="stop-color:#d40000;stop-opacity:1;" />
    </linearGradient>
    <linearGradient
       id="linearGradient4361"
       inkscape:collect="always">
      <stop
         id="stop4363"
         offset="0"
         style="stop-color:#e47107;stop-opacity:1" />
      <stop
         id="stop4365"
         offset="1"
         style="stop-color:#ffbf0b;stop-opacity:1" />
    </linearGradient>
    <filter
       style="color-interpolation-filters:sRGB"
       id="filter4375-4-1-1-1-9-6-9-2-1"
       inkscape:label="deevad outline effect">
      <feFlood
         id="feFlood4377-7-9-0-8-1-0-2-2-06"
         flood-opacity="1"
         flood-color="rgb(0,0,0)"
         result="flood" />
      <feComposite
         id="feComposite4379-3-8-8-2-77-6-0-8-3"
         in2="SourceGraphic"
         in="flood"
         operator="in"
         result="composite1" />
      <feMorphology
         id="feMorphology4393-1-0-49-8-9-2-2-9-2"
         operator="dilate"
         radius="4"
         result="result3" />
      <feComposite
         id="feComposite4385-9-5-7-0-8-6-3-7-0"
         in2="result3"
         in="SourceGraphic"
         operator="over"
         result="composite2" />
    </filter>
    <linearGradient
       inkscape:collect="always"
       id="linearGradient4288">
      <stop
         style="stop-color:#07b5e4;stop-opacity:1;"
         offset="0"
         id="stop4290" />
      <stop
         style="stop-color:#d0f5ff;stop-opacity:1"
         offset="1"
         id="stop4292" />
    </linearGradient>
    <filter
       style="color-interpolation-filters:sRGB"
       id="filter4375-4-1-1-1-9-5-8-8-5"
       inkscape:label="soundFX-fire">
      <feFlood
         id="feFlood4377-7-9-0-8-1-7-3-1-2"
         flood-opacity="1"
         flood-color="rgb(171,34,14)"
         result="flood" />
      <feComposite
         id="feComposite4379-3-8-8-2-77-4-1-0-6"
         in2="SourceGraphic"
         in="flood"
         operator="in"
         result="composite1"
         baseFrequency="0.053999999999999999 0.053999999999999999" />
      <feMorphology
         id="feMorphology4393-1-0-49-8-9-3-0-1-9"
         operator="dilate"
         radius="6.2000000000000002"
         result="result3" />
      <feComposite
         id="feComposite4385-9-5-7-0-8-8-7-5-4"
         in2="result3"
         in="SourceGraphic"
         operator="over"
         result="fbSourceGraphic" />
      <feColorMatrix
         result="fbSourceGraphicAlpha"
         in="fbSourceGraphic"
         values="0 0 0 -1 0 0 0 0 -1 0 0 0 0 -1 0 0 0 0 1 0"
         id="feColorMatrix4544-9-4" />
      <feTurbulence
         id="feTurbulence4546-3-6"
         type="fractalNoise"
         numOctaves="5"
         seed="174"
         baseFrequency="0.053999999999999999 0.054054054054054057"
         result="turbulence" />
      <feDisplacementMap
         id="feDisplacementMap4548-8-0"
         in2="turbulence"
         in="fbSourceGraphic"
         scale="6.6"
         yChannelSelector="G"
         xChannelSelector="R"
         result="fbSourceGraphic" />
      <feColorMatrix
         result="fbSourceGraphicAlpha"
         in="fbSourceGraphic"
         values="0 0 0 -1 0 0 0 0 -1 0 0 0 0 -1 0 0 0 0 1 0"
         id="feColorMatrix4670-7-7" />
      <feFlood
         id="feFlood4672-4-4"
         flood-opacity="1"
         flood-color="rgb(103,29,0)"
         result="flood"
         in="fbSourceGraphic" />
      <feComposite
         id="feComposite4674-8-3"
         in2="fbSourceGraphic"
         in="flood"
         operator="in"
         result="composite1" />
      <feGaussianBlur
         id="feGaussianBlur4676-3-7"
         in="composite1"
         stdDeviation="0"
         result="blur" />
      <feOffset
         id="feOffset4678-6-9"
         dx="6"
         dy="6"
         result="offset" />
      <feComposite
         id="feComposite4680-4-0"
         in2="offset"
         in="fbSourceGraphic"
         operator="over"
         result="composite2" />
    </filter>
    <linearGradient
       inkscape:collect="always"
       xlink:href="#linearGradient4288"
       id="linearGradient4273"
       x1="754.64325"
       y1="1552.0063"
       x2="1186.035"
       y2="1552.0063"
       gradientUnits="userSpaceOnUse" />
    <linearGradient
       inkscape:collect="always"
       xlink:href="#linearGradient4288"
       id="linearGradient4281"
       x1="754.64325"
       y1="1552.0063"
       x2="1186.035"
       y2="1552.0063"
       gradientUnits="userSpaceOnUse" />
    <linearGradient
       inkscape:collect="always"
       xlink:href="#linearGradient4288"
       id="linearGradient4289"
       x1="754.64325"
       y1="1552.0063"
       x2="1186.035"
       y2="1552.0063"
       gradientUnits="userSpaceOnUse" />
    <filter
       style="color-interpolation-filters:sRGB"
       id="filter4375-4-1-1-1-9-5-8-8-5-2"
       inkscape:label="soundFX-fire">
      <feFlood
         id="feFlood4377-7-9-0-8-1-7-3-1-2-0"
         flood-opacity="1"
         flood-color="rgb(171,34,14)"
         result="flood" />
      <feComposite
         id="feComposite4379-3-8-8-2-77-4-1-0-6-2"
         in2="SourceGraphic"
         in="flood"
         operator="in"
         result="composite1"
         baseFrequency="0.053999999999999999 0.053999999999999999" />
      <feMorphology
         id="feMorphology4393-1-0-49-8-9-3-0-1-9-3"
         operator="dilate"
         radius="6.2000000000000002"
         result="result3" />
      <feComposite
         id="feComposite4385-9-5-7-0-8-8-7-5-4-7"
         in2="result3"
         in="SourceGraphic"
         operator="over"
         result="fbSourceGraphic" />
      <feColorMatrix
         result="fbSourceGraphicAlpha"
         in="fbSourceGraphic"
         values="0 0 0 -1 0 0 0 0 -1 0 0 0 0 -1 0 0 0 0 1 0"
         id="feColorMatrix4544-9-4-5" />
      <feTurbulence
         id="feTurbulence4546-3-6-9"
         type="fractalNoise"
         numOctaves="5"
         seed="174"
         baseFrequency="0.053999999999999999 0.054054054054054057"
         result="turbulence" />
      <feDisplacementMap
         id="feDisplacementMap4548-8-0-2"
         in2="turbulence"
         in="fbSourceGraphic"
         scale="6.6"
         yChannelSelector="G"
         xChannelSelector="R"
         result="fbSourceGraphic" />
      <feColorMatrix
         result="fbSourceGraphicAlpha"
         in="fbSourceGraphic"
         values="0 0 0 -1 0 0 0 0 -1 0 0 0 0 -1 0 0 0 0 1 0"
         id="feColorMatrix4670-7-7-2" />
      <feFlood
         id="feFlood4672-4-4-8"
         flood-opacity="1"
         flood-color="rgb(103,29,0)"
         result="flood"
         in="fbSourceGraphic" />
      <feComposite
         id="feComposite4674-8-3-9"
         in2="fbSourceGraphic"
         in="flood"
         operator="in"
         result="composite1" />
      <feGaussianBlur
         id="feGaussianBlur4676-3-7-7"
         in="composite1"
         stdDeviation="0"
         result="blur" />
      <feOffset
         id="feOffset4678-6-9-3"
         dx="6"
         dy="6"
         result="offset" />
      <feComposite
         id="feComposite4680-4-0-6"
         in2="offset"
         in="fbSourceGraphic"
         operator="over"
         result="composite2" />
    </filter>
    <linearGradient
       inkscape:collect="always"
       xlink:href="#linearGradient4361"
       id="linearGradient4401"
       x1="754.64325"
       y1="1552.0063"
       x2="1186.035"
       y2="1552.0063"
       gradientUnits="userSpaceOnUse" />
    <filter
       style="color-interpolation-filters:sRGB"
       id="filter4375-4-1-1-1-9-5-8-8-5-2-7"
       inkscape:label="soundFX-fire">
      <feFlood
         id="feFlood4377-7-9-0-8-1-7-3-1-2-0-8"
         flood-opacity="1"
         flood-color="rgb(171,34,14)"
         result="flood" />
      <feComposite
         id="feComposite4379-3-8-8-2-77-4-1-0-6-2-4"
         in2="SourceGraphic"
         in="flood"
         operator="in"
         result="composite1"
         baseFrequency="0.053999999999999999 0.053999999999999999" />
      <feMorphology
         id="feMorphology4393-1-0-49-8-9-3-0-1-9-3-5"
         operator="dilate"
         radius="6.2000000000000002"
         result="result3" />
      <feComposite
         id="feComposite4385-9-5-7-0-8-8-7-5-4-7-0"
         in2="result3"
         in="SourceGraphic"
         operator="over"
         result="fbSourceGraphic" />
      <feColorMatrix
         result="fbSourceGraphicAlpha"
         in="fbSourceGraphic"
         values="0 0 0 -1 0 0 0 0 -1 0 0 0 0 -1 0 0 0 0 1 0"
         id="feColorMatrix4544-9-4-5-3" />
      <feTurbulence
         id="feTurbulence4546-3-6-9-6"
         type="fractalNoise"
         numOctaves="5"
         seed="174"
         baseFrequency="0.053999999999999999 0.054054054054054057"
         result="turbulence" />
      <feDisplacementMap
         id="feDisplacementMap4548-8-0-2-1"
         in2="turbulence"
         in="fbSourceGraphic"
         scale="6.6"
         yChannelSelector="G"
         xChannelSelector="R"
         result="fbSourceGraphic" />
      <feColorMatrix
         result="fbSourceGraphicAlpha"
         in="fbSourceGraphic"
         values="0 0 0 -1 0 0 0 0 -1 0 0 0 0 -1 0 0 0 0 1 0"
         id="feColorMatrix4670-7-7-2-0" />
      <feFlood
         id="feFlood4672-4-4-8-6"
         flood-opacity="1"
         flood-color="rgb(103,29,0)"
         result="flood"
         in="fbSourceGraphic" />
      <feComposite
         id="feComposite4674-8-3-9-3"
         in2="fbSourceGraphic"
         in="flood"
         operator="in"
         result="composite1" />
      <feGaussianBlur
         id="feGaussianBlur4676-3-7-7-2"
         in="composite1"
         stdDeviation="0"
         result="blur" />
      <feOffset
         id="feOffset4678-6-9-3-0"
         dx="6"
         dy="6"
         result="offset" />
      <feComposite
         id="feComposite4680-4-0-6-6"
         in2="offset"
         in="fbSourceGraphic"
         operator="over"
         result="composite2" />
    </filter>
    <linearGradient
       inkscape:collect="always"
       xlink:href="#linearGradient4361"
       id="linearGradient4507"
       x1="754.64325"
       y1="1552.0063"
       x2="1186.035"
       y2="1552.0063"
       gradientUnits="userSpaceOnUse" />
    <linearGradient
       inkscape:collect="always"
       xlink:href="#linearGradient4361"
       id="linearGradient4515"
       x1="754.64325"
       y1="1552.0063"
       x2="1186.035"
       y2="1552.0063"
       gradientUnits="userSpaceOnUse" />
    <linearGradient
       inkscape:collect="always"
       xlink:href="#linearGradient4361"
       id="linearGradient4523"
       x1="754.64325"
       y1="1552.0063"
       x2="1186.035"
       y2="1552.0063"
       gradientUnits="userSpaceOnUse" />
    <filter
       style="color-interpolation-filters:sRGB"
       id="filter4375-4-1-1-1-9-6-9-2-1-7"
       inkscape:label="deevad outline effect">
      <feFlood
         id="feFlood4377-7-9-0-8-1-0-2-2-06-6"
         flood-opacity="1"
         flood-color="rgb(0,0,0)"
         result="flood" />
      <feComposite
         id="feComposite4379-3-8-8-2-77-6-0-8-3-5"
         in2="SourceGraphic"
         in="flood"
         operator="in"
         result="composite1" />
      <feMorphology
         id="feMorphology4393-1-0-49-8-9-2-2-9-2-6"
         operator="dilate"
         radius="4"
         result="result3" />
      <feComposite
         id="feComposite4385-9-5-7-0-8-6-3-7-0-9"
         in2="result3"
         in="SourceGraphic"
         operator="over"
         result="composite2" />
    </filter>
    <filter
       inkscape:label="Magmah-FX"
       inkscape:menu="Distort"
       inkscape:menu-tooltip="Horizontal rippling of edges"
       style="color-interpolation-filters:sRGB"
       id="filter4265-7"
       y="-0.1">
      <feTurbulence
         numOctaves="1"
         baseFrequency="0.002 0.107"
         id="feTurbulence4267-7" />
      <feColorMatrix
         values="5 0 0 0 0 0 0 0 0 0 0 0 0 0 0 0 0 0 4 0 "
         result="result91"
         id="feColorMatrix4269-1" />
      <feDisplacementMap
         yChannelSelector="A"
         xChannelSelector="R"
         scale="14.3"
         in="SourceGraphic"
         in2="result91"
         id="feDisplacementMap4271-2" />
    </filter>
    <filter
       style="color-interpolation-filters:sRGB;"
       inkscape:label="Magmah-spell-glow"
       id="filter4751">
      <feFlood
         flood-opacity="1"
         flood-color="rgb(255,255,255)"
         result="flood"
         id="feFlood4753" />
      <feComposite
         in="flood"
         in2="SourceGraphic"
         operator="in"
         result="composite1"
         id="feComposite4755" />
      <feGaussianBlur
         in="composite1"
         stdDeviation="5.4"
         result="blur"
         id="feGaussianBlur4757" />
      <feOffset
         dx="0"
         dy="0"
         result="offset"
         id="feOffset4759" />
      <feComposite
         in="SourceGraphic"
         in2="offset"
         operator="over"
         result="composite2"
         id="feComposite4761" />
    </filter>
    <radialGradient
       inkscape:collect="always"
       xlink:href="#linearGradient4763"
       id="radialGradient4769"
       cx="438.56332"
       cy="238.34987"
       fx="438.56332"
       fy="238.34987"
       r="324.33624"
       gradientTransform="matrix(1,0,0,0.36474659,0,151.41257)"
       gradientUnits="userSpaceOnUse" />
    <filter
       style="color-interpolation-filters:sRGB"
       id="filter4375-4-1-1-1-9-6-9-2-1-4"
       inkscape:label="deevad outline effect">
      <feFlood
         id="feFlood4377-7-9-0-8-1-0-2-2-06-5"
         flood-opacity="1"
         flood-color="rgb(0,0,0)"
         result="flood" />
      <feComposite
         id="feComposite4379-3-8-8-2-77-6-0-8-3-2"
         in2="SourceGraphic"
         in="flood"
         operator="in"
         result="composite1" />
      <feMorphology
         id="feMorphology4393-1-0-49-8-9-2-2-9-2-5"
         operator="dilate"
         radius="4"
         result="result3" />
      <feComposite
         id="feComposite4385-9-5-7-0-8-6-3-7-0-4"
         in2="result3"
         in="SourceGraphic"
         operator="over"
         result="composite2" />
    </filter>
    <filter
       style="color-interpolation-filters:sRGB"
       id="filter4375-4-1-1-1-9-6-9-2-1-7-4"
       inkscape:label="deevad outline effect">
      <feFlood
         id="feFlood4377-7-9-0-8-1-0-2-2-06-6-3"
         flood-opacity="1"
         flood-color="rgb(0,0,0)"
         result="flood" />
      <feComposite
         id="feComposite4379-3-8-8-2-77-6-0-8-3-5-0"
         in2="SourceGraphic"
         in="flood"
         operator="in"
         result="composite1" />
      <feMorphology
         id="feMorphology4393-1-0-49-8-9-2-2-9-2-6-7"
         operator="dilate"
         radius="6"
         result="result3" />
      <feComposite
         id="feComposite4385-9-5-7-0-8-6-3-7-0-9-8"
         in2="result3"
         in="SourceGraphic"
         operator="over"
         result="composite2" />
    </filter>
    <filter
       style="color-interpolation-filters:sRGB"
       id="filter4375-4-1-1-1-9-5-8-8-5-4"
       inkscape:label="soundFX-fire">
      <feFlood
         id="feFlood4377-7-9-0-8-1-7-3-1-2-9"
         flood-opacity="1"
         flood-color="rgb(171,34,14)"
         result="flood" />
      <feComposite
         id="feComposite4379-3-8-8-2-77-4-1-0-6-20"
         in2="SourceGraphic"
         in="flood"
         operator="in"
         result="composite1"
         baseFrequency="0.053999999999999999 0.053999999999999999" />
      <feMorphology
         id="feMorphology4393-1-0-49-8-9-3-0-1-9-6"
         operator="dilate"
         radius="6.2000000000000002"
         result="result3" />
      <feComposite
         id="feComposite4385-9-5-7-0-8-8-7-5-4-8"
         in2="result3"
         in="SourceGraphic"
         operator="over"
         result="fbSourceGraphic" />
      <feColorMatrix
         result="fbSourceGraphicAlpha"
         in="fbSourceGraphic"
         values="0 0 0 -1 0 0 0 0 -1 0 0 0 0 -1 0 0 0 0 1 0"
         id="feColorMatrix4544-9-4-9" />
      <feTurbulence
         id="feTurbulence4546-3-6-2"
         type="fractalNoise"
         numOctaves="5"
         seed="174"
         baseFrequency="0.053999999999999999 0.054054054054054057"
         result="turbulence" />
      <feDisplacementMap
         id="feDisplacementMap4548-8-0-6"
         in2="turbulence"
         in="fbSourceGraphic"
         scale="6.6"
         yChannelSelector="G"
         xChannelSelector="R"
         result="fbSourceGraphic" />
      <feColorMatrix
         result="fbSourceGraphicAlpha"
         in="fbSourceGraphic"
         values="0 0 0 -1 0 0 0 0 -1 0 0 0 0 -1 0 0 0 0 1 0"
         id="feColorMatrix4670-7-7-6" />
      <feFlood
         id="feFlood4672-4-4-4"
         flood-opacity="1"
         flood-color="rgb(103,29,0)"
         result="flood"
         in="fbSourceGraphic" />
      <feComposite
         id="feComposite4674-8-3-95"
         in2="fbSourceGraphic"
         in="flood"
         operator="in"
         result="composite1" />
      <feGaussianBlur
         id="feGaussianBlur4676-3-7-0"
         in="composite1"
         stdDeviation="0"
         result="blur" />
      <feOffset
         id="feOffset4678-6-9-4"
         dx="6"
         dy="6"
         result="offset" />
      <feComposite
         id="feComposite4680-4-0-8"
         in2="offset"
         in="fbSourceGraphic"
         operator="over"
         result="composite2" />
    </filter>
    <linearGradient
       inkscape:collect="always"
       xlink:href="#linearGradient4361"
       id="linearGradient4869"
       x1="754.64325"
       y1="1552.0063"
       x2="1186.035"
       y2="1552.0063"
       gradientUnits="userSpaceOnUse" />
    <linearGradient
       inkscape:collect="always"
       xlink:href="#linearGradient4361"
       id="linearGradient4877"
       x1="754.64325"
       y1="1552.0063"
       x2="1186.035"
       y2="1552.0063"
       gradientUnits="userSpaceOnUse" />
    <linearGradient
       inkscape:collect="always"
       xlink:href="#linearGradient4361"
       id="linearGradient4885"
       x1="754.64325"
       y1="1552.0063"
       x2="1186.035"
       y2="1552.0063"
       gradientUnits="userSpaceOnUse" />
    <filter
       style="color-interpolation-filters:sRGB"
       id="filter4375-4-1-1-1-9-5-8-8-5-4-6"
       inkscape:label="soundFX-fire">
      <feFlood
         id="feFlood4377-7-9-0-8-1-7-3-1-2-9-1"
         flood-opacity="1"
         flood-color="rgb(255,47,0)"
         result="flood" />
      <feComposite
         id="feComposite4379-3-8-8-2-77-4-1-0-6-20-0"
         in2="SourceGraphic"
         in="flood"
         operator="in"
         result="composite1"
         baseFrequency="0.053999999999999999 0.053999999999999999" />
      <feMorphology
         id="feMorphology4393-1-0-49-8-9-3-0-1-9-6-6"
         operator="dilate"
         radius="6.2000000000000002"
         result="result3" />
      <feComposite
         id="feComposite4385-9-5-7-0-8-8-7-5-4-8-1"
         in2="result3"
         in="SourceGraphic"
         operator="over"
         result="fbSourceGraphic" />
      <feColorMatrix
         result="fbSourceGraphicAlpha"
         in="fbSourceGraphic"
         values="0 0 0 -1 0 0 0 0 -1 0 0 0 0 -1 0 0 0 0 1 0"
         id="feColorMatrix4544-9-4-9-5" />
      <feTurbulence
         id="feTurbulence4546-3-6-2-9"
         type="fractalNoise"
         numOctaves="5"
         seed="174"
         baseFrequency="0.053999999999999999 0.054054054054054057"
         result="turbulence" />
      <feDisplacementMap
         id="feDisplacementMap4548-8-0-6-4"
         in2="turbulence"
         in="fbSourceGraphic"
         scale="6.6"
         yChannelSelector="G"
         xChannelSelector="R"
         result="fbSourceGraphic" />
      <feColorMatrix
         result="fbSourceGraphicAlpha"
         in="fbSourceGraphic"
         values="0 0 0 -1 0 0 0 0 -1 0 0 0 0 -1 0 0 0 0 1 0"
         id="feColorMatrix4670-7-7-6-9" />
      <feFlood
         id="feFlood4672-4-4-4-0"
         flood-opacity="1"
         flood-color="rgb(103,29,0)"
         result="flood"
         in="fbSourceGraphic" />
      <feComposite
         id="feComposite4674-8-3-95-9"
         in2="fbSourceGraphic"
         in="flood"
         operator="in"
         result="composite1" />
      <feGaussianBlur
         id="feGaussianBlur4676-3-7-0-1"
         in="composite1"
         stdDeviation="0"
         result="blur" />
      <feOffset
         id="feOffset4678-6-9-4-7"
         dx="6"
         dy="6"
         result="offset" />
      <feComposite
         id="feComposite4680-4-0-8-7"
         in2="offset"
         in="fbSourceGraphic"
         operator="over"
         result="composite2" />
    </filter>
    <linearGradient
       inkscape:collect="always"
       xlink:href="#linearGradient4361"
       id="linearGradient4982"
       x1="754.64325"
       y1="1552.0063"
       x2="1186.035"
       y2="1552.0063"
       gradientUnits="userSpaceOnUse" />
    <linearGradient
       inkscape:collect="always"
       xlink:href="#linearGradient4361"
       id="linearGradient4990"
       x1="754.64325"
       y1="1552.0063"
       x2="1186.035"
       y2="1552.0063"
       gradientUnits="userSpaceOnUse" />
    <linearGradient
       inkscape:collect="always"
       xlink:href="#linearGradient4361"
       id="linearGradient4998"
       x1="754.64325"
       y1="1552.0063"
       x2="1186.035"
       y2="1552.0063"
       gradientUnits="userSpaceOnUse" />
    <filter
       style="color-interpolation-filters:sRGB"
       id="filter4375-4-1-1-1-9-5-8-8-5-4-6-5"
       inkscape:label="soundFX-fire">
      <feFlood
         id="feFlood4377-7-9-0-8-1-7-3-1-2-9-1-6"
         flood-opacity="1"
         flood-color="rgb(171,34,14)"
         result="flood" />
      <feComposite
         id="feComposite4379-3-8-8-2-77-4-1-0-6-20-0-3"
         in2="SourceGraphic"
         in="flood"
         operator="in"
         result="composite1"
         baseFrequency="0.053999999999999999 0.053999999999999999" />
      <feMorphology
         id="feMorphology4393-1-0-49-8-9-3-0-1-9-6-6-9"
         operator="dilate"
         radius="6.2000000000000002"
         result="result3" />
      <feComposite
         id="feComposite4385-9-5-7-0-8-8-7-5-4-8-1-4"
         in2="result3"
         in="SourceGraphic"
         operator="over"
         result="fbSourceGraphic" />
      <feColorMatrix
         result="fbSourceGraphicAlpha"
         in="fbSourceGraphic"
         values="0 0 0 -1 0 0 0 0 -1 0 0 0 0 -1 0 0 0 0 1 0"
         id="feColorMatrix4544-9-4-9-5-8" />
      <feTurbulence
         id="feTurbulence4546-3-6-2-9-1"
         type="fractalNoise"
         numOctaves="5"
         seed="174"
         baseFrequency="0.053999999999999999 0.054054054054054057"
         result="turbulence" />
      <feDisplacementMap
         id="feDisplacementMap4548-8-0-6-4-2"
         in2="turbulence"
         in="fbSourceGraphic"
         scale="6.6"
         yChannelSelector="G"
         xChannelSelector="R"
         result="fbSourceGraphic" />
      <feColorMatrix
         result="fbSourceGraphicAlpha"
         in="fbSourceGraphic"
         values="0 0 0 -1 0 0 0 0 -1 0 0 0 0 -1 0 0 0 0 1 0"
         id="feColorMatrix4670-7-7-6-9-9" />
      <feFlood
         id="feFlood4672-4-4-4-0-3"
         flood-opacity="1"
         flood-color="rgb(103,29,0)"
         result="flood"
         in="fbSourceGraphic" />
      <feComposite
         id="feComposite4674-8-3-95-9-9"
         in2="fbSourceGraphic"
         in="flood"
         operator="in"
         result="composite1" />
      <feGaussianBlur
         id="feGaussianBlur4676-3-7-0-1-0"
         in="composite1"
         stdDeviation="0"
         result="blur" />
      <feOffset
         id="feOffset4678-6-9-4-7-8"
         dx="6"
         dy="6"
         result="offset" />
      <feComposite
         id="feComposite4680-4-0-8-7-8"
         in2="offset"
         in="fbSourceGraphic"
         operator="over"
         result="composite2" />
    </filter>
    <linearGradient
       inkscape:collect="always"
       xlink:href="#linearGradient4361"
       id="linearGradient5130"
       x1="754.64325"
       y1="1552.0063"
       x2="1186.035"
       y2="1552.0063"
       gradientUnits="userSpaceOnUse" />
    <linearGradient
       inkscape:collect="always"
       xlink:href="#linearGradient4361"
       id="linearGradient5138"
       x1="754.64325"
       y1="1552.0063"
       x2="1186.035"
       y2="1552.0063"
       gradientUnits="userSpaceOnUse" />
    <linearGradient
       inkscape:collect="always"
       xlink:href="#linearGradient4361"
       id="linearGradient5146"
       x1="754.64325"
       y1="1552.0063"
       x2="1186.035"
       y2="1552.0063"
       gradientUnits="userSpaceOnUse" />
    <filter
       inkscape:collect="always"
       style="color-interpolation-filters:sRGB"
       id="filter7233">
      <feBlend
         inkscape:collect="always"
         mode="color-dodge"
         in2="BackgroundImage"
         id="feBlend7235" />
    </filter>
  </defs>
  <sodipodi:namedview
     pagecolor="#ffffff"
     bordercolor="#666666"
     borderopacity="1"
     objecttolerance="10"
     gridtolerance="10"
     guidetolerance="10"
     inkscape:pageopacity="0"
     inkscape:pageshadow="2"
     inkscape:window-width="1920"
     inkscape:window-height="1025"
     id="namedview4"
     showgrid="false"
     inkscape:zoom="0.28284273"
     inkscape:cx="815.88565"
     inkscape:cy="994.26235"
     inkscape:window-x="0"
     inkscape:window-y="26"
     inkscape:window-maximized="1"
     inkscape:current-layer="layer1" />
  <g
     inkscape:groupmode="layer"
     id="layer2"
     inkscape:label="artwork"
     sodipodi:insensitive="true">
    <image
       sodipodi:absref="E:\Users\jamesmichael\Downloads\Compressed\eps\ep22_The-Voting-System_lang-pack\lang\ph\../gfx_Pepper-and-Carrot_by-David-Revoy_E22P08.png"
       xlink:href="../gfx_Pepper-and-Carrot_by-David-Revoy_E22P08.png"
       width="2481"
       height="3503"
       id="image10"
       x="0"
       y="0" />
  </g>
  <g
     inkscape:groupmode="layer"
     id="layer3"
     inkscape:label="speechbubbles"
     style="display:inline">
    <path
       style="color:#000000;display:inline;overflow:visible;visibility:visible;fill:#ffffff;fill-opacity:1;fill-rule:nonzero;stroke:none;stroke-width:1px;marker:none;enable-background:accumulate"
       d="m 360.11328,-72.132812 c -7.93297,-0.06457 -15.83115,1.887089 -22.53711,6.271484 -2.30872,1.961337 -4.78936,3.642847 -7.38672,5.117187 -9.65737,-1.928377 -19.5457,-2.76644 -29.375,-2.634765 -7.96967,-0.7266 -14.08092,5.853495 -21.75976,6.640625 -4.94932,-3.31129 -10.19516,-6.245424 -15.82031,-8.246094 -12.94791,-5.2394 -28.64276,-5.136277 -40.56446,2.658203 -8.93237,7.58835 -20.39333,11.068181 -31.52344,14.025391 -12.18284,3.36832 -24.71165,8.190336 -33.26171,17.910156 -6.28197,8.55324 -6.98233,19.487209 -9.78125,29.39257812 -6.33838,15.72389088 -9.57835,32.61951488 -10.02344,49.54687488 -0.20196,17.05222 -2.17739,34.496337 2.41992,51.179688 1.51462,6.677154 6.68435,12.532514 5.76367,19.691404 -9.56144,11.74276 -7.56964,30.94435 4.20508,40.47461 -4.01382,8.63352 -6.61177,17.98858 -7.07227,27.51953 -0.14755,12.37362 5.7414,23.60595 10.07032,34.87305 -3.00388,9.16632 -5.80954,18.504 -6.59766,28.16211 -1.33313,14.5848 4.17567,28.49387 6.96289,42.57422 -3.1759,6.18707 -5.26924,13.08199 -5.07617,20.08594 -0.44308,5.53697 2.89369,10.43449 3.08789,15.88476 0.266,2.05019 -0.82175,3.78045 -2.0625,5.30274 -9.31515,12.18548 -14.35953,27.77964 -12.87891,43.12695 0.17029,9.01543 7.21082,16.27101 7.13672,25.3164 -5.5969,12.41832 -9.52297,25.90018 -8.98633,39.63477 -0.31678,11.95613 3.42068,24.37772 11.88672,33.08203 5.65084,5.95968 12.70675,11.3489 15.18555,19.52539 2.176,7.43572 3.60443,15.18133 7.33594,22.06446 7.26856,14.10477 20.40828,25.79741 36.24023,28.96484 15.05806,2.76231 30.12899,-1.48318 45.18555,-1.97266 7.93468,-0.64863 14.37595,4.94587 21.79687,6.64063 11.60632,1.48244 23.49947,-0.31946 34.49414,-4.18164 3.48034,-1.02689 6.77991,-2.71134 9.58399,-4.99414 1.26467,0.37273 2.54281,0.71199 3.8457,0.97265 15.05806,2.76231 30.12899,-1.48317 45.18555,-1.97265 7.93468,-0.64863 14.374,4.94586 21.79492,6.64062 11.60632,1.48244 23.49947,-0.31946 34.49414,-4.18164 5.80189,-1.71188 11.11199,-5.23787 14.4375,-10.34961 3.42648,-4.72371 6.63554,-10.5845 12.67383,-12.24805 13.5103,-4.35132 23.69939,-15.65207 29.61133,-28.21289 4.65242,-7.46742 2.91756,-16.83856 6.54687,-24.66015 4.03492,-5.37944 9.598,-9.45578 13.69922,-14.8086 10.2622,-12.18938 17.21198,-27.94174 16.21289,-44.09765 -1.70371,-7.493 0.42257,-15.39117 4.48828,-21.77344 5.35683,-8.74182 5.2963,-19.3938 4.96094,-29.29688 -0.81573,-8.67825 4.65141,-16.11684 6.53906,-24.27343 1.52759,-10.1681 -2.58761,-20.03862 -6.72851,-29.09766 -3.75158,-5.61775 -4.71273,-13.22127 -1.63867,-19.35547 3.22164,-9.86632 0.98911,-20.33119 -0.75782,-30.25 -2.66503,-14.33435 1.39082,-28.64974 2.86328,-42.86914 1.55789,-11.94253 -2.90848,-23.46028 -6.16796,-34.73047 -1.86498,-7.4795 1.79104,-14.70074 3.57617,-21.80859 2.02287,-9.19647 -1.57547,-18.30949 -4.75977,-26.79297 -2.81785,-5.51 -1.29848,-11.92596 0.63086,-17.45703 2.93563,-9.70869 0.26546,-19.850555 -1.60156,-29.490235 -3.30997,-12.083611 -1.98314,-23.9858 -10.93359,-29.5 1.55205,-15.29481 8.0807,-38.221788 0.89062,-51.70507812 C 500.08669,-10.377353 492.20222,-18.339099 483.55664,-20.136719 c 1.86381,-7.85309 -4.43795,-31.543386 -13.86328,-36.472656 -16.91359,-7.43305 -35.55021,-10.551478 -53.97266,-10.304687 -7.96967,-0.726601 -14.08288,5.853495 -21.76172,6.640624 -4.94932,-3.311289 -10.19515,-6.245423 -15.82031,-8.246093 -5.66471,-2.292238 -11.8553,-3.563062 -18.02539,-3.613281 z"
       id="path4043-4"
       inkscape:connector-curvature="0" />
    <path
       style="color:#000000;display:inline;overflow:visible;visibility:visible;fill:#ffffff;fill-opacity:1;fill-rule:nonzero;stroke:none;stroke-width:1px;marker:none;enable-background:accumulate"
       d="m 293.67507,582.0829 c -1.2969,-8.327 6.9164,-12.4905 6.9164,-12.4905 0,0 -8.2133,-6.4345 1.2968,-12.8691 9.51,-6.4345 18.1554,1.5141 18.1554,1.5141 0,0 12.1037,-12.4906 23.3427,1.8925 11.2392,14.383 0,22.3315 0,22.3315 0,0 6.4842,15.1401 -10.8068,18.5466 -17.2909,3.4065 -22.0459,1.1355 -26.3687,-7.9485 -12.1036,-3.0281 -12.5358,-10.9766 -12.5358,-10.9766 z"
       id="path5098"
       inkscape:connector-curvature="0" />
    <path
       style="color:#000000;display:inline;overflow:visible;visibility:visible;fill:#ffffff;fill-opacity:1;fill-rule:nonzero;stroke:none;stroke-width:1px;marker:none;enable-background:accumulate"
       d="m 317.13637,623.3989 c -4.24238,-4.2985 -1.51511,-8.82321 2.12118,-9.72816 3.63636,-0.90494 11.21209,-0.22628 13.33335,4.29843 6.06056,-2.0361 9.99993,2.03617 10.30293,3.84606 0.30308,1.80988 -0.303,5.42966 -0.303,5.42966 0,0 4.84846,11.08553 -3.03035,14.25286 -7.87867,3.16734 -15.45447,-2.26239 -15.45447,-7.69204 -5.75755,2.26239 -11.5151,-0.45244 -10.90901,-3.61978 0.60608,-3.16726 3.93937,-6.78703 3.93937,-6.78703 z"
       id="path5106"
       inkscape:connector-curvature="0" />
    <path
       style="color:#000000;display:inline;overflow:visible;visibility:visible;fill:#ffffff;fill-opacity:1;fill-rule:nonzero;stroke:none;stroke-width:1.04171288px;marker:none;enable-background:accumulate"
       d="m 2250.5601,476.10222 c -17.6191,5.61912 -21.5512,43.56361 -18.9768,57.79545 -17.367,-29.48577 -29.3705,-29.28373 -33.7347,8.91923 -30.4221,-66.53927 -28.6218,-13.67475 -38.0821,-3.89061 -8.6293,-51.24614 -27.8139,-35.70455 -38.2508,-3.85751 3.2915,-58.03717 -9.8188,-44.79379 -28.7988,-23.98262 13.1667,-24.92945 24.0203,-64.00515 -5.9142,-67.37762 28.6677,-35.49262 29.415,-54.725 0.6345,-70.12403 26.3136,-9.56464 33.7434,-47.51513 7.1174,-63.95676 38.1576,-10.16158 35.8477,-55.48879 19.5092,-83.4506 11.7849,15.86762 33.4807,6.99491 32.5862,-44.5303 11.434,4.89154 26.6322,-0.62754 26.3771,-26.63432 5.1176,30.27254 12.0504,36.24393 23.524,-18.59129 -1.9997,42.16732 -3.0171,81.5442 26.9838,33.88418 -0.3678,15.54466 -25.1098,50.86258 41.3708,37.9951 -22.2464,44.14032 -35.2226,91.20445 5.4119,91.50878 -23.0015,15.44525 -35.7542,44.01263 -9.2388,58.5412 -26.2373,8.84092 -17.6315,41.478 -1.28,59.21065 -18.0236,9.82849 -30.7851,25.46111 -9.2387,58.54107 z"
       id="path3549-3-7"
       inkscape:connector-curvature="0"
       sodipodi:nodetypes="ccccccccccccccccccc" />
    <path
       style="color:#000000;display:inline;overflow:visible;visibility:visible;fill:url(#radialGradient4769);fill-opacity:1;fill-rule:nonzero;stroke:none;stroke-width:1px;marker:none;filter:url(#filter4265-7);enable-background:accumulate"
       d="m 168.28312,242.56886 c 0,-59.7361 29.8086,-90.5375 118.2404,-96.1379 88.4319,-5.6002 342.7586,-13.9748 381.5097,5.6261 38.751,19.601 38.7901,48.5099 40.7774,87.7117 1.9872,39.2018 -86.4447,99.8714 -174.8765,97.0713 -88.4319,-2.8002 -252.71431,7.13546 -300.40791,-6.86524 -47.6936,-14.0007 -64.80526,-54.51924 -65.24309,-87.40596 z"
       id="path3986-3"
       inkscape:connector-curvature="0"
       sodipodi:nodetypes="csssssc"
       transform="matrix(0.05524901,-0.33523845,2.4104978,0.00712234,-1.7720839,1611.7007)" />
    <path
       style="color:#000000;display:inline;overflow:visible;visibility:visible;fill:#ffffff;fill-opacity:1;fill-rule:nonzero;stroke:none;stroke-width:1px;marker:none;enable-background:accumulate"
       d="m 1081.3751,2501.7988 c 3.2527,-11.3215 20.627,-46.387 25.7118,-9.2908 37.4381,-49.6727 83.6395,-32.1693 93.8806,-24.9317 -4.7258,-14.704 4.8022,-41.1365 32.0153,-34.6371 -5.1706,-14.2063 2.6362,-24.8732 22.022,-32.3819 -27.4731,-6.645 -33.2796,-15.2908 15.0553,-28.9371 -37.6389,2.0456 -72.8702,2.9007 -32.2408,-33.7574 -13.9008,0.2967 -43.8343,30.571 -36.8893,-51.6076 -21.0909,27.809 -44.9596,44.1275 -82.345,-7.6374 -7.5628,22.2148 -20.6761,37.8516 -51.7969,10.8375 -3.8196,21.7569 -37.5549,26.2154 -50.4824,22.8831 27.6128,21.8028 28.2717,36.6578 -5.6527,41.6714 61.708,38.3446 14.2263,35.6004 6.113,47.2134 46.5049,11.2067 28.2717,31.1822 22.1502,50.136 51.7672,-3.4832 37.8708,27.2285 42.4589,50.4396 z"
       id="path3549-3"
       inkscape:connector-curvature="0"
       sodipodi:nodetypes="ccccccccccccccc" />
    <path
       style="color:#000000;display:inline;overflow:visible;visibility:visible;fill:#ffffff;fill-opacity:1;fill-rule:nonzero;stroke:none;stroke-width:1px;marker:none;enable-background:accumulate"
       d="m 1131.712,2455.8179 c 6.2225,27.4825 16.5932,59.1133 19.7045,66.3728 6.2224,-7.2595 12.9634,-12.4449 18.1488,-16.5932 4.6668,14.0005 22.8156,80.3733 20.7414,97.485 6.741,-42.0015 -3.6297,-93.3367 -12.9634,-115.6338 -7.778,4.1483 -11.9263,7.778 -16.0746,9.8522 -5.1854,-10.8893 -14.5191,-49.7796 -14.5191,-49.7796 z"
       id="path5066"
       inkscape:connector-curvature="0" />
    <path
       style="fill:#ffffff;fill-rule:evenodd;stroke:none;stroke-width:1px;stroke-linecap:butt;stroke-linejoin:miter;stroke-opacity:1"
       d="m 1890.1009,3231.1388 c 33.5947,-0.018 37,8.1066 8.9261,24.723 31.438,-6.8279 26.6822,0.4187 13.4842,10.9483 49.5525,17.4568 46.6264,44.1263 42.4659,71.0124 36.8056,-28.1799 45.0647,-9.757 59.5754,-1.5401 0.2213,-29.5712 10.2267,-15.1915 22.9625,11.4519 -2.1009,-37.123 3.3382,-42.6009 15.6537,-19.2218 1.5642,-24.7917 10.0464,-37.8661 26.4801,-37.4723 20.1121,-31.5183 39.1906,-9.3648 58.6033,-4.5589 -0.8203,-24.8184 11.1585,-30.9793 27.2178,-31.1919 3.723,-12.3347 4.5105,-28.1923 28.5176,-16.1847 -1.6072,-20.0706 11.3524,-11.2003 19.8358,-11.2236 -12.2881,-6.2386 2.5493,-16.2719 48.5876,-30.6699 -18.8114,2.3309 -19.6856,-5.4089 0.6106,-25.0346 -28.7434,2.0511 -31.9693,-9.3271 -21.7898,-27.76 -35.0466,-4.829 -10.9646,-35.6247 -1.6365,-59.9413 -27.284,21.9038 -51.2106,32.4799 -64.8129,8.2194 -38.9589,41.3457 -35.7049,26.8768 -34.3754,14.9525 -20.445,37.8088 -25.5543,15.036 -35.2303,10.3031 -67.6985,65.8704 -74.5447,33.0168 -95.6266,23.2587 4.6577,39.0912 -15.7914,32.5378 -36.3443,25.7958 9.88,30.3318 -2.6348,25.9231 -14.6814,22.2406 2.7701,13.7692 -5.5992,21.9836 -28.9865,22.7079 18.084,4.0467 9.5058,10.0985 -39.4369,19.1855 z"
       id="path4289"
       inkscape:connector-curvature="0"
       sodipodi:nodetypes="cccccccccccccccccccccccc" />
    <path
       style="color:#000000;display:inline;overflow:visible;visibility:visible;fill:#ffffff;fill-opacity:1;fill-rule:nonzero;stroke:none;stroke-width:1px;marker:none;enable-background:accumulate"
       d="m 1887.3215,3381.0916 c 58.1864,-24.0464 81.2101,-45.1344 101.8154,-66.0111 9.6953,-9.8229 -19.046,-21.1368 -19.046,-21.1368 l -15.7859,22.4288 c 0,0 -19.7655,38.2932 -66.9835,64.7191 z"
       id="path4000"
       inkscape:connector-curvature="0"
       sodipodi:nodetypes="csccc"
       inkscape:transform-center-x="-312.46852"
       inkscape:transform-center-y="-2.166888" />
    <path
       style="fill:#d40000;fill-rule:evenodd;stroke:none;stroke-width:1px;stroke-linecap:butt;stroke-linejoin:miter;stroke-opacity:1"
       d="m 770.60065,1465.6323 c 4.61452,-4.8105 4.76031,-11.8487 5.17178,-18.0965 0.47655,-5.0179 2.33565,-10.5129 7.00775,-13.0915 4.48022,-3.18 9.91917,-5.2075 15.47201,-4.7025 2.90071,0.167 5.75898,0.7993 8.51783,1.6942 -1.969,-1.3535 -4.69984,-1.4407 -6.96121,-2.3306 -3.15319,-0.8753 -6.36837,-1.583 -9.40125,-2.8379 -0.50846,-2.4994 4.08235,-1.1969 5.90476,-1.4458 2.85531,0.1407 5.73597,0.4174 8.58083,-0.01 0.11895,-2.4585 1.81847,-5.3324 2.67408,-8.1496 3.01357,-8.9058 2.23767,-20.8749 8.63715,-26.8517 4.6652,-5.6225 13.91267,-8.9802 22.7853,-8.9528 7.67623,-0.3542 13.2568,-0.9119 19.04744,3.0528 8.41783,3.0903 4.00382,0.9894 9.66529,3.2722 3.27217,1.1436 11.50731,6.5162 14.22696,8.7368 -6.5847,-8.9636 -17.50852,-12.8466 -25.72027,-19.966 -2.04064,-1.4582 -6.47368,-3.18 -12.24755,-4.3885 -8.92568,-1.2722 -11.0277,-1.0183 -19.9542,-2.2803 -4.72078,1.2496 -9.44151,2.4994 -14.16227,3.7491 -7.16881,3.998 -11.8246,10.4516 -18.19072,15.0536 -5.28563,3.5806 -10.74021,7.2155 -14.68438,12.3156 -1.31995,3.1331 2.02042,5.6525 4.23483,7.2561 3.3693,1.8325 3.68207,5.5782 4.62164,8.5401 0.0307,2.0308 -1.88454,4.8978 0.5639,6.2205 -3.90116,0.6671 -5.45607,-5.6619 -9.4936,-3.7896 -2.8453,1.3062 -4.58766,4.1245 -7.25269,5.7019 -3.27007,2.7713 -7.04981,5.1 -9.341,8.8418 -2.81767,3.8288 -5.6354,7.6575 -8.45311,11.4863 6.26889,6.9734 12.37461,14.096 18.7507,20.9713 z"
       id="path4345"
       inkscape:connector-curvature="0"
       sodipodi:nodetypes="cccccccccccccccccccccccccccccc" />
    <path
       sodipodi:nodetypes="ccccccccccccccccccc"
       inkscape:connector-curvature="0"
       id="path4995"
       d="m 2063.6302,169.36396 c 6.752,10.18761 10.4386,24.22041 22.8571,29.12117 9.0205,-3.07669 7.8159,-14.45083 11.7259,-21.51386 0.4514,-2.25611 4.0323,-6.65187 3.9907,-1.66904 2.3068,9.86487 4.7164,22.62001 15.3118,26.71245 11.2373,0.016 15.8323,-12.26994 19.9074,-20.77856 0.6567,-1.56454 2.6352,-8.21626 2.2597,-3.16986 -0.1263,11.50554 -2.1928,24.34636 4.839,34.40226 8.5597,3.17807 14.3776,-6.12791 19.9486,-10.92086 0.6714,-0.95219 4.4913,-4.49764 2.6857,-1.10897 -7.0389,14.11724 -14.7781,30.97566 -7.9706,46.66571 3.9306,5.61613 11.1089,7.89339 17.7079,7.95897 -8.7795,10.23992 -20.5827,21.71537 -18.1749,36.50608 4.1385,9.71576 15.2922,12.72933 24.4988,15.51858 -16.3448,3.95101 -28.0382,25.54636 -17.5761,40.20522 3.9958,5.35436 9.8259,9.09231 16.0211,11.4245 -23.7757,6.90306 -37.0936,34.38747 -31.9336,57.85159 1.3833,10.43588 4.8627,20.53502 9.7745,29.82532 -5.8784,-9.78109 -20.6363,-5.2307 -25.5391,3.24332 -9.065,14.76498 -11.9275,32.33632 -12.4621,49.39817 -14.6626,-5.50627 -30.1348,10.15402 -27.9014,24.80252 -0.8403,2.03953 -1.2242,-4.20091 -1.5597,-5.08497 -0.9031,-5.05904 -2.2614,-10.74634 -6.7423,-13.85605 -9.2131,4.57017 -8.6531,16.33217 -12.2819,24.62013 -1.117,4.29786 -1.9447,8.66805 -3.1458,12.94391 -0.1505,-16.31406 3.3015,-33.48528 -3.3827,-49.01307 -6.5823,-4.40031 -12.7592,3.29566 -16.4392,7.97389 -2.7409,3.31278 -5.1374,6.88855 -7.5957,10.41073 0.6334,-10.47597 8.3521,-21.78458 1.6317,-31.74176 -12.021,-9.70636 -28.333,-4.91284 -42.0962,-3.28447 -2.5432,-1.88418 2.1006,-4.73252 2.2304,-7.17946 9.5758,-19.40447 19.7305,-41.10864 14.8681,-63.25453 -3.7517,-9.40593 -14.3815,-13.97338 -23.9762,-14.11786 11.8442,-8.45565 24.4247,-21.19023 21.9089,-37.06642 -1.3519,-7.47222 -7.5088,-12.91926 -13.8579,-16.44187 12.3821,-3.67071 18.6826,-18.12499 14.7666,-30.06018 -2.7585,-9.31187 -8.1918,-17.72684 -14.962,-24.63864 14.0162,-5.02431 25.0269,-21.85526 18.1586,-36.39354 -2.2083,-6.3685 -5.8326,-12.11738 -9.6888,-17.60154 14.4374,-6.36614 17.6683,-23.75173 18.8439,-37.85123 0.3865,-5.16321 0.2731,-10.38388 -0.6297,-15.49029 5.784,7.75064 11.3572,19.00939 22.5461,18.82914 9.988,-4.76083 8.3675,-17.6647 11.4334,-26.17663 z"
       style="color:#000000;display:inline;overflow:visible;visibility:visible;fill:#ffffff;fill-opacity:1;fill-rule:nonzero;stroke:none;stroke-width:1px;marker:none;enable-background:accumulate" />
  </g>
  <g
     inkscape:groupmode="layer"
     id="layer1"
     inkscape:label="txt">
    <text
       xml:space="preserve"
       style="font-style:normal;font-variant:normal;font-weight:normal;font-stretch:normal;line-height:0%;font-family:Lavi;-inkscape-font-specification:'Lavi, Normal';text-align:center;letter-spacing:0px;word-spacing:0px;writing-mode:lr-tb;text-anchor:middle;display:inline;fill:#000000;fill-opacity:1;stroke:none"
       x="330.06555"
       y="172.45711"
       id="text4246-2-3-1-3-9-9-36"><tspan
         sodipodi:role="line"
         x="337.97571"
         y="172.45711"
         id="tspan4841"
         style="font-size:45px;line-height:1.25">Grrr! Hindi ako </tspan><tspan
         sodipodi:role="line"
         x="337.97571"
         y="228.70711"
         style="font-size:45px;line-height:1.25"
         id="tspan4964">pwedeng matalo </tspan><tspan
         sodipodi:role="line"
         x="337.97571"
         y="284.95709"
         style="font-size:45px;line-height:1.25"
         id="tspan4966">ni Spirulina! </tspan><tspan
         sodipodi:role="line"
         x="337.97571"
         y="341.20709"
         style="font-size:45px;line-height:1.25"
         id="tspan4968">Kailangan ko </tspan><tspan
         sodipodi:role="line"
         x="337.97571"
         y="397.45709"
         style="font-size:45px;line-height:1.25"
         id="tspan4978">nang gamitin </tspan><tspan
         sodipodi:role="line"
         x="330.06555"
         y="453.70709"
         style="font-size:45px;line-height:1.25"
         id="tspan4982">ang alas ko sa</tspan><tspan
         sodipodi:role="line"
         x="330.06555"
         y="509.95709"
         style="font-size:45px;line-height:1.25"
         id="tspan4972">-final round</tspan></text>
    <text
       xml:space="preserve"
       style="font-style:normal;font-variant:normal;font-weight:normal;font-stretch:normal;line-height:0%;font-family:Lavi;-inkscape-font-specification:Lavi;text-align:center;letter-spacing:0px;word-spacing:0px;text-anchor:middle;display:inline;fill:#000000;fill-opacity:1;stroke:none"
       x="2132.9229"
       y="356.20773"
       id="text4246-2-3-1-3-9-9"><tspan
         sodipodi:role="line"
         style="font-size:45px;line-height:1.25"
         x="2140.833"
         y="356.20773"
         id="tspan4161">Gumilid ka </tspan><tspan
         sodipodi:role="line"
         style="font-size:45px;line-height:1.25"
         x="2132.9229"
         y="412.45773"
         id="tspan4976">Truffle!</tspan></text>
    <text
       xml:space="preserve"
       style="font-style:normal;font-variant:normal;font-weight:normal;font-stretch:normal;line-height:0%;font-family:Lavi;-inkscape-font-specification:Lavi;letter-spacing:0px;word-spacing:0px;display:inline;fill:#ffffff;fill-opacity:1;stroke:#ffffff;stroke-width:6.33107901;stroke-miterlimit:4;stroke-dasharray:none;stroke-opacity:1;filter:url(#filter4375-4-1-1-1-9-6-9-2-1-4)"
       x="787.65729"
       y="1584.5073"
       id="text4580-1-7-3-6-7"
       transform="matrix(0.33739004,-0.05008716,-0.20691278,0.42188934,1303.5349,348.33512)"><tspan
         sodipodi:role="line"
         id="tspan4582-8-5-6-1-4"
         x="787.65729"
         y="1584.5073"
         style="font-size:70px;line-height:1.25;letter-spacing:10.62820244px;fill:#ffffff;fill-opacity:1;stroke:#ffffff;stroke-width:6.33107901;stroke-miterlimit:4;stroke-dasharray:none;stroke-opacity:1">Krchh!</tspan></text>
    <text
       xml:space="preserve"
       style="font-style:normal;font-variant:normal;font-weight:normal;font-stretch:normal;line-height:0%;font-family:Lavi;-inkscape-font-specification:Lavi;letter-spacing:0px;word-spacing:0px;display:inline;fill:#ffffff;fill-opacity:1;stroke:#ffffff;stroke-width:4.67640924;stroke-miterlimit:4;stroke-dasharray:none;stroke-opacity:1;filter:url(#filter4375-4-1-1-1-9-6-9-2-1)"
       x="787.65729"
       y="1584.5073"
       id="text4580-1-7-3-6"
       transform="matrix(0.41463955,-0.21651977,-0.07654858,0.57373717,2001.5427,63.146459)"><tspan
         sodipodi:role="line"
         id="tspan4582-8-5-6-1"
         x="787.65729"
         y="1584.5073"
         style="font-size:70px;line-height:1.25;letter-spacing:10.62820244px;fill:#ffffff;fill-opacity:1;stroke:#ffffff;stroke-width:4.67640924;stroke-miterlimit:4;stroke-dasharray:none;stroke-opacity:1">Meow!</tspan></text>
    <text
       transform="matrix(1.3677321,0,0,1.5597356,-237.98045,-783.62771)"
       id="text3586"
       y="1442.5577"
       x="604.64612"
       style="font-style:normal;font-variant:normal;font-weight:normal;font-stretch:normal;line-height:0%;font-family:Lavi;-inkscape-font-specification:Lavi;text-align:center;letter-spacing:0px;word-spacing:0px;text-anchor:middle;opacity:1;fill:#ffffff;fill-opacity:1;stroke:none;filter:url(#filter4751)"
       xml:space="preserve"><tspan
         id="tspan3590"
         style="font-style:normal;font-variant:normal;font-weight:normal;font-stretch:normal;font-size:50.4467392px;line-height:1.25;font-family:'Drukaatie burti';-inkscape-font-specification:'Drukaatie burti'"
         y="1442.5577"
         x="604.64612"
         sodipodi:role="line">SPIRALIS</tspan></text>
    <text
       xml:space="preserve"
       style="font-style:normal;font-variant:normal;font-weight:normal;font-stretch:normal;line-height:0%;font-family:Lavi;-inkscape-font-specification:Lavi;text-align:center;letter-spacing:0px;word-spacing:0px;text-anchor:middle;opacity:1;fill:#ffffff;fill-opacity:1;stroke:none;filter:url(#filter4751)"
       x="604.64612"
       y="1442.5577"
       id="text4180-1"
       transform="matrix(0.99830099,0,0,1.0017019,-1.6437905,0)"><tspan
         sodipodi:role="line"
         id="tspan4182-2"
         x="610.95197"
         y="1442.5577"
         style="font-style:normal;font-variant:normal;font-weight:normal;font-stretch:normal;font-size:50.4467392px;line-height:1.25;font-family:'Drukaatie burti';-inkscape-font-specification:'Drukaatie burti'"> </tspan><tspan
         sodipodi:role="line"
         x="604.64612"
         y="1514.0958"
         style="font-style:normal;font-variant:normal;font-weight:normal;font-stretch:normal;font-size:50.4467392px;line-height:1.25;font-family:'Drukaatie burti';-inkscape-font-specification:'Drukaatie burti'"
         id="tspan4663">FLAMA<tspan
   style="font-size:60px"
   id="tspan4665">aaaa</tspan>aaah!</tspan></text>
    <text
       xml:space="preserve"
       style="font-style:normal;font-variant:normal;font-weight:normal;font-stretch:normal;line-height:0%;font-family:Lavi;-inkscape-font-specification:Lavi;letter-spacing:0px;word-spacing:0px;display:inline;fill:#ffffff;fill-opacity:1;stroke:#ffffff;stroke-width:2.78456187;stroke-miterlimit:4;stroke-dasharray:none;stroke-opacity:1;filter:url(#filter4375-4-1-1-1-9-6-9-2-1-7)"
       x="787.65729"
       y="1584.5073"
       id="text4580-1-7-3-6-3"
       transform="matrix(0.35846032,-0.60815828,0.29464439,1.2414789,790.20845,414.72153)"><tspan
         sodipodi:role="line"
         id="tspan4582-8-5-6-1-7"
         x="787.65729"
         y="1584.5073"
         style="font-size:70px;line-height:1.25;letter-spacing:10.62820244px;fill:#ffffff;fill-opacity:1;stroke:#ffffff;stroke-width:2.78456187;stroke-miterlimit:4;stroke-dasharray:none;stroke-opacity:1">Swwwiiip!</tspan></text>
    <text
       xml:space="preserve"
       style="font-style:normal;font-variant:normal;font-weight:normal;font-stretch:normal;line-height:0%;font-family:Lavi;-inkscape-font-specification:Lavi;letter-spacing:0px;word-spacing:0px;fill:url(#linearGradient4401);fill-opacity:1;stroke:none;filter:url(#filter4375-4-1-1-1-9-5-8-8-5-4)"
       x="787.65729"
       y="1584.5073"
       id="text4580-6-0-0-0-7"
       transform="matrix(0.79953711,-0.5103772,-0.0366462,1.1217926,132.99641,1216.9386)"><tspan
         sodipodi:role="line"
         id="tspan4582-1-1-0-2-1"
         x="787.65729"
         y="1584.5073"
         style="font-size:70px;line-height:1.25;fill:url(#linearGradient4401);fill-opacity:1;stroke:none"><tspan
           style="font-size:93.14950562px;fill:url(#linearGradient4401);fill-opacity:1;stroke:none"
           id="tspan4315-8-9-2-7">Fs<tspan
   style="font-size:69.38005829px;fill:url(#linearGradient4401);fill-opacity:1"
   id="tspan4241-2">ssh</tspan>!</tspan></tspan></text>
    <text
       xml:space="preserve"
       style="font-style:normal;font-variant:normal;font-weight:normal;font-stretch:normal;line-height:0%;font-family:Lavi;-inkscape-font-specification:Lavi;letter-spacing:0px;word-spacing:0px;display:inline;fill:#ffffff;fill-opacity:1;stroke:#ffffff;stroke-width:3.33236313;stroke-miterlimit:4;stroke-dasharray:none;stroke-opacity:1;filter:url(#filter4375-4-1-1-1-9-6-9-2-1-7-4)"
       x="787.65729"
       y="1584.5073"
       id="text4580-1-7-3-6-3-6"
       transform="matrix(0.72752989,-0.6519553,0.08417536,0.9655441,-134.90783,2132.2771)"><tspan
         sodipodi:role="line"
         id="tspan4582-8-5-6-1-7-8"
         x="787.65729"
         y="1584.5073"
         style="font-size:70px;line-height:1.25;letter-spacing:10.62820244px;fill:#ffffff;fill-opacity:1;stroke:#ffffff;stroke-width:3.33236313;stroke-miterlimit:4;stroke-dasharray:none;stroke-opacity:1">Paf!</tspan></text>
    <text
       xml:space="preserve"
       style="font-style:normal;font-variant:normal;font-weight:normal;font-stretch:normal;line-height:0%;font-family:Lavi;-inkscape-font-specification:Lavi;text-align:center;letter-spacing:0px;word-spacing:0px;text-anchor:middle;display:inline;fill:#000000;fill-opacity:1;stroke:none"
       x="1723.3469"
       y="2172.8474"
       id="text4246-2-3-1-3-9-9-7"
       transform="matrix(0.89365156,0,-0.19329856,1.1190044,0,0)"><tspan
         sodipodi:role="line"
         style="font-size:104.29582214px;line-height:1.25"
         x="1723.3469"
         y="2172.8474"
         id="tspan4161-6">?!!</tspan></text>
    <text
       xml:space="preserve"
       style="font-style:normal;font-variant:normal;font-weight:normal;font-stretch:normal;font-size:10.43091583px;line-height:0%;font-family:Lavi;-inkscape-font-specification:Lavi;text-align:center;letter-spacing:0px;word-spacing:0px;text-anchor:middle;display:inline;fill:#000000;fill-opacity:1;stroke:none;stroke-width:0.86924297"
       x="1392.9568"
       y="4451.5898"
       id="text4246-2-3-1-3-9-9-3"
       transform="matrix(1.0202845,-0.54955327,0.15019414,0.89922007,0,0)"><tspan
         sodipodi:role="line"
         style="font-size:60.98950195px;line-height:1.25;stroke-width:0.86924297"
         x="1392.9568"
         y="4451.5898"
         id="tspan4161-5">Aiiiiiee!<tspan
   style="font-size:83.31282806px;stroke-width:0.86924297"
   id="tspan5246">!</tspan></tspan></text>
  </g>
  <g
     inkscape:groupmode="layer"
     id="layer4"
     inkscape:label="effecta"
     style="filter:url(#filter7233)">
    <text
       xml:space="preserve"
       style="font-style:normal;font-variant:normal;font-weight:normal;font-stretch:normal;line-height:0%;font-family:Lavi;-inkscape-font-specification:Lavi;letter-spacing:0px;word-spacing:0px;fill:#ffffff;fill-opacity:1;stroke:#ffcc00;stroke-width:2.04316306;stroke-miterlimit:4;stroke-dasharray:none;stroke-opacity:1;filter:url(#filter4375-4-1-1-1-9-5-8-8-5-2)"
       x="787.65729"
       y="1584.5073"
       id="text4580-6-0-0-0-1"
       transform="matrix(0.81870718,-0.54382117,-0.03752484,1.1953014,442.50929,-1068.4707)"
       inkscape:transform-center-x="-550.23435"
       inkscape:transform-center-y="231.85584"><tspan
         sodipodi:role="line"
         id="tspan4582-1-1-0-2-2"
         x="787.65729"
         y="1584.5073"
         style="font-size:70px;line-height:1.25;fill:#ffffff;fill-opacity:1;stroke:#ffcc00;stroke-width:2.04316306;stroke-miterlimit:4;stroke-dasharray:none;stroke-opacity:1"><tspan
           style="font-size:93.14950562px;fill:#ffffff;fill-opacity:1;stroke:#ffcc00;stroke-width:2.04316306;stroke-miterlimit:4;stroke-dasharray:none;stroke-opacity:1"
           id="tspan4315-8-9-2-9">Fr<tspan
   style="font-size:69.38005829px;fill:#ffffff;fill-opacity:1;stroke:#ffcc00;stroke-width:2.04316306;stroke-miterlimit:4;stroke-dasharray:none;stroke-opacity:1"
   id="tspan4241-3">rrshh</tspan>!</tspan></tspan></text>
    <text
       xml:space="preserve"
       style="font-style:normal;font-variant:normal;font-weight:normal;font-stretch:normal;line-height:0%;font-family:Lavi;-inkscape-font-specification:Lavi;letter-spacing:0px;word-spacing:0px;fill:#ffffff;fill-opacity:1;stroke:#ffcc00;stroke-width:1.9247179;stroke-miterlimit:4;stroke-dasharray:none;stroke-opacity:1;filter:url(#filter4375-4-1-1-1-9-5-8-8-5)"
       x="787.65729"
       y="1584.5073"
       id="text4580-6-0-0-0"
       transform="matrix(0.91033933,-0.55112907,-0.04172474,1.2113639,1090.9664,-721.2272)"><tspan
         sodipodi:role="line"
         id="tspan4582-1-1-0-2"
         x="787.65729"
         y="1584.5073"
         style="font-size:70px;line-height:1.25;fill:#ffffff;fill-opacity:1;stroke:#ffcc00;stroke-width:1.9247179;stroke-miterlimit:4;stroke-dasharray:none;stroke-opacity:1"><tspan
           style="font-size:93.14950562px;fill:#ffffff;fill-opacity:1;stroke:#ffcc00;stroke-width:1.9247179;stroke-miterlimit:4;stroke-dasharray:none;stroke-opacity:1"
           id="tspan4315-8-9-2">Fr<tspan
   style="font-size:69.38005829px;fill:#ffffff;fill-opacity:1;stroke:#ffcc00;stroke-width:1.9247179;stroke-miterlimit:4;stroke-dasharray:none;stroke-opacity:1"
   id="tspan4241">rrshh</tspan>!</tspan></tspan></text>
    <text
       xml:space="preserve"
       style="font-style:normal;font-variant:normal;font-weight:normal;font-stretch:normal;line-height:0%;font-family:Lavi;-inkscape-font-specification:Lavi;letter-spacing:0px;word-spacing:0px;fill:#ffffff;fill-opacity:1;stroke:#ffcc00;filter:url(#filter4375-4-1-1-1-9-5-8-8-5-2-7);stroke-width:2.83838037;stroke-miterlimit:4;stroke-dasharray:none"
       x="787.65729"
       y="1584.5073"
       id="text4580-6-0-0-0-1-1"
       transform="matrix(0.96260424,-0.65489848,-0.03536691,1.3793666,-525.48092,310.2796)"
       inkscape:transform-center-x="-651.41186"
       inkscape:transform-center-y="248.5494"><tspan
         sodipodi:role="line"
         id="tspan4582-1-1-0-2-2-5"
         x="787.65729"
         y="1584.5073"
         style="font-size:70px;line-height:1.25;fill:#ffffff;fill-opacity:1;stroke:#ffcc00;stroke-width:2.83838037;stroke-miterlimit:4;stroke-dasharray:none"><tspan
           style="font-size:93.14950562px;fill:#ffffff;fill-opacity:1;stroke:#ffcc00;stroke-width:2.83838037;stroke-miterlimit:4;stroke-dasharray:none"
           id="tspan4315-8-9-2-9-5">Fw<tspan
   style="font-size:69.38005829px;fill:#ffffff;fill-opacity:1;stroke:#ffcc00;stroke-width:2.83838037;stroke-miterlimit:4;stroke-dasharray:none"
   id="tspan4241-3-4">wwooo<tspan
   style="font-size:55.15313339px;fill:#ffffff;stroke:#ffcc00;stroke-width:2.83838037;stroke-miterlimit:4;stroke-dasharray:none"
   id="tspan4773">oshh</tspan></tspan>!</tspan></tspan></text>
    <text
       xml:space="preserve"
       style="font-style:normal;font-variant:normal;font-weight:normal;font-stretch:normal;line-height:0%;font-family:Lavi;-inkscape-font-specification:Lavi;letter-spacing:0px;word-spacing:0px;fill:#ffffff;fill-opacity:1;stroke:#ffcc00;filter:url(#filter4375-4-1-1-1-9-5-8-8-5-4-6)"
       x="787.65729"
       y="1584.5073"
       id="text4580-6-0-0-0-7-1"
       transform="matrix(0.93910536,-0.7621869,0.18588011,1.2291386,359.49961,1748.4197)"><tspan
         sodipodi:role="line"
         id="tspan4582-1-1-0-2-1-1"
         x="787.65729"
         y="1584.5073"
         style="font-size:70px;line-height:1.25;fill:#ffffff;fill-opacity:1;stroke:#ffcc00"><tspan
           style="font-size:93.14950562px;fill:#ffffff;fill-opacity:1;stroke:#ffcc00"
           id="tspan4315-8-9-2-7-5">Fs<tspan
   style="font-size:69.38005829px;fill:#ffffff;fill-opacity:1;stroke:#ffcc00"
   id="tspan4241-2-9">ssh</tspan>!</tspan></tspan></text>
    <text
       xml:space="preserve"
       style="font-style:normal;font-variant:normal;font-weight:normal;font-stretch:normal;line-height:0%;font-family:Lavi;-inkscape-font-specification:Lavi;letter-spacing:0px;word-spacing:0px;fill:#ffffff;fill-opacity:1;stroke:none;filter:url(#filter4375-4-1-1-1-9-5-8-8-5-4-6-5);"
       x="787.65729"
       y="1584.5073"
       id="text4580-6-0-0-0-7-1-5"
       transform="matrix(0.78023356,-0.73773231,0.12940894,0.99375194,796.919,1269.8661)"><tspan
         sodipodi:role="line"
         id="tspan4582-1-1-0-2-1-1-0"
         x="787.65729"
         y="1584.5073"
         style="font-size:70px;line-height:1.25;fill:#ffffff;fill-opacity:1;stroke:none;"><tspan
           style="font-size:93.14950562px;fill:#ffffff;fill-opacity:1;stroke:none;"
           id="tspan4315-8-9-2-7-5-9">Fs<tspan
   style="font-size:69.38005829px;fill:#ffffff;fill-opacity:1;"
   id="tspan4241-2-9-6">ssh</tspan>!</tspan></tspan></text>
  </g>
</svg>
