<?xml version="1.0" encoding="UTF-8" standalone="no"?>
<!-- Created with Inkscape (http://www.inkscape.org/) -->

<svg
   xmlns:dc="http://purl.org/dc/elements/1.1/"
   xmlns:cc="http://creativecommons.org/ns#"
   xmlns:rdf="http://www.w3.org/1999/02/22-rdf-syntax-ns#"
   xmlns:svg="http://www.w3.org/2000/svg"
   xmlns="http://www.w3.org/2000/svg"
   xmlns:xlink="http://www.w3.org/1999/xlink"
   xmlns:sodipodi="http://sodipodi.sourceforge.net/DTD/sodipodi-0.dtd"
   xmlns:inkscape="http://www.inkscape.org/namespaces/inkscape"
   id="svg2"
   version="1.1"
   inkscape:version="0.92.3 (2405546, 2018-03-11)"
   width="2481"
   height="3503"
   sodipodi:docname="E26P01.svg">
  <metadata
     id="metadata8">
    <rdf:RDF>
      <cc:Work
         rdf:about="">
        <dc:format>image/svg+xml</dc:format>
        <dc:type
           rdf:resource="http://purl.org/dc/dcmitype/StillImage" />
        <dc:title />
      </cc:Work>
    </rdf:RDF>
  </metadata>
  <defs
     id="defs6" />
  <sodipodi:namedview
     pagecolor="#ffffff"
     bordercolor="#666666"
     borderopacity="1"
     objecttolerance="10"
     gridtolerance="10"
     guidetolerance="10"
     inkscape:pageopacity="0"
     inkscape:pageshadow="2"
     inkscape:window-width="1299"
     inkscape:window-height="713"
     id="namedview4"
     showgrid="false"
     inkscape:zoom="0.3478261"
     inkscape:cx="1480.9646"
     inkscape:cy="666.66823"
     inkscape:window-x="67"
     inkscape:window-y="27"
     inkscape:window-maximized="1"
     inkscape:current-layer="layer1"
     inkscape:snap-global="false" />
  <g
     inkscape:groupmode="layer"
     id="layer2"
     inkscape:label="artwork"
     sodipodi:insensitive="true">
    <image
       sodipodi:absref="/home/emmiline/Documents/git/webcomics/ep26_Books-Are-Great/lang/da/../gfx_Pepper-and-Carrot_by-David-Revoy_E26P01.png"
       xlink:href="../gfx_Pepper-and-Carrot_by-David-Revoy_E26P01.png"
       width="2481"
       height="3503"
       id="image10"
       x="0"
       y="0" />
  </g>
  <g
     inkscape:groupmode="layer"
     id="layer3"
     inkscape:label="speechbubbles"
     style="display:inline;opacity:1">
    <path
       style="fill:#ffffff;fill-opacity:1;stroke:none;stroke-width:1.40839255"
       d="m 262.22763,1886.1776 c -77.63246,0.4163 -114.13676,-10.1327 -132.38488,-19.4702 -30.278804,-15.4936 -36.200533,-108.6848 24.81063,-127.2534 61.33225,-18.6663 180.93857,-14.5153 230.0274,21.3805 49.08866,35.8958 14.07851,83.1585 2.79144,92.8715 -11.28726,9.7129 -41.25744,32.099 -125.24459,32.4716 z"
       id="path3659-8"
       inkscape:connector-curvature="0"
       sodipodi:nodetypes="cssssc" />
    <path
       style="color:#000000;display:inline;overflow:visible;visibility:visible;fill:#ffffff;fill-opacity:1;fill-rule:nonzero;stroke:none;stroke-width:0.77001458px;marker:none;enable-background:accumulate"
       d="m 274.67689,1855.3732 c 11.17842,15.8247 25.32183,43.4204 25.79652,49.4209 -6.73911,-0.5556 -13.09406,0.387 -18.03883,1.0204 1.81058,10.7946 32.21158,51.6223 41.64451,56.3046 -23.83945,-10.0592 -58.27989,-45.5693 -59.88737,-63.8703 6.68489,-2.1454 10.75049,-2.4727 14.26692,-3.6967 -0.36416,-9.3034 -20.80365,-30.8908 -20.80365,-30.8908 z"
       id="path5066"
       inkscape:connector-curvature="0"
       sodipodi:nodetypes="cccccccc" />
    <path
       style="color:#000000;display:inline;overflow:visible;visibility:visible;fill:#ffffff;fill-opacity:1;fill-rule:nonzero;stroke:none;stroke-width:1.13899374px;marker:none;enable-background:accumulate"
       d="m 1765.7095,1946.3081 c -40.9605,-49.7059 -39.5198,-154.5338 -27.8166,-176.9014 18.3016,-41.8224 62.1497,-49.2864 117.7392,-49.2864 55.5893,0 450.1651,-25.3961 507.2173,26.7951 57.0522,52.1912 39.093,149.3892 -10.6448,210.2788 -49.738,60.8897 -325.8799,48.4632 -325.8799,48.4632 0,0 -197.7113,4.0256 -260.6152,-59.3493 z"
       id="path3992"
       inkscape:connector-curvature="0"
       sodipodi:nodetypes="ccscccc" />
    <path
       style="color:#000000;display:inline;overflow:visible;visibility:visible;fill:#ffffff;fill-opacity:1;fill-rule:nonzero;stroke:none;stroke-width:1px;marker:none;enable-background:accumulate"
       d="m 1984.9695,2211.7966 c 97.5172,-13.4683 140.8945,-73.5032 173.5649,-113.8088 15.274,-18.8437 -32.2063,-50.3843 -32.2063,-50.3843 l -20.4844,64.3961 c 4.4776,5.3732 -31.2523,71.0033 -120.8742,99.797 z"
       id="path4000"
       inkscape:connector-curvature="0"
       sodipodi:nodetypes="csccc" />
    <path
       style="color:#000000;display:inline;overflow:visible;visibility:visible;fill:#ffffff;fill-opacity:1;fill-rule:nonzero;stroke:none;stroke-width:0.88317698px;marker:none;enable-background:accumulate"
       d="m 1958.2253,2016.4476 c 19.9665,-20.9749 34.7927,-61.3676 181.8463,-47.1643 78.7699,7.608 168.3268,7.0196 159.0398,80.4316 -9.2869,73.412 -139.6852,63.9669 -166.3855,64.8305 -26.7001,0.8636 -152.6527,0.011 -175.7302,-25.806 -14.4461,-16.1611 -18.6965,-52.8042 1.2296,-72.2918 z"
       id="path4546-6"
       inkscape:connector-curvature="0"
       sodipodi:nodetypes="cssssc" />
    <path
       style="color:#000000;display:inline;overflow:visible;visibility:visible;opacity:1;vector-effect:none;fill:#ffffff;fill-opacity:1;fill-rule:nonzero;stroke:none;stroke-width:0.99591786;stroke-linecap:butt;stroke-linejoin:miter;stroke-miterlimit:4;stroke-dasharray:none;stroke-dashoffset:0;stroke-opacity:1;marker:none;paint-order:stroke fill markers;enable-background:accumulate"
       d="m 886.59917,2685.4262 c -42.61182,-37.9587 -38.04634,-111.978 -25.87142,-129.0593 12.17475,-17.0813 28.91504,-42.7034 86.74551,-42.7034 57.83024,0 477.38374,-11.5201 536.73584,28.3365 59.3521,39.8565 50.99,106.3408 -0.7527,152.8401 -51.7431,46.4993 -339.6645,33.2895 -339.6645,33.2895 -0.2719,0.264 -201.39919,15.0618 -257.19273,-42.7034 z"
       id="path3992-0"
       inkscape:connector-curvature="0"
       sodipodi:nodetypes="ccscscc" />
    <path
       style="color:#000000;display:inline;overflow:visible;visibility:visible;fill:#ffffff;fill-opacity:1;fill-rule:nonzero;stroke:none;stroke-width:1.1471467px;marker:none;enable-background:accumulate"
       d="m 1107.7917,2663.674 c -41.0805,41.3971 -74.3212,126.4523 -32.6058,262.3106 -64.481,-107.4324 -40.7404,-218.5665 -31.5488,-251.0486 9.1915,-32.4819 64.1546,-11.262 64.1546,-11.262 z"
       id="path4008"
       inkscape:connector-curvature="0" />
    <path
       style="color:#000000;display:inline;overflow:visible;visibility:visible;fill:#ffffff;fill-opacity:1;fill-rule:nonzero;stroke:none;stroke-width:1.1471467px;marker:none;enable-background:accumulate"
       d="m 1891.9827,2656.832 c -40.4116,58.3597 -53.3089,167.7072 24.2468,263.2149 -108.4132,-99.3198 -82.2954,-214.0613 -72.6196,-244.9782 2.0322,-33.6961 48.3728,-18.2367 48.3728,-18.2367 z"
       id="path4008-0"
       inkscape:connector-curvature="0"
       sodipodi:nodetypes="cccc" />
    <path
       style="color:#000000;display:inline;overflow:visible;visibility:visible;opacity:1;fill:#ffffff;fill-opacity:1;fill-rule:nonzero;stroke:none;stroke-width:1.14590478px;marker:none;enable-background:accumulate"
       d="m 1837.9698,2733.3444 c -80.6195,-8.6104 -94.0501,-25.0389 -113.2788,-64.6572 -19.2286,-39.6184 16.7466,-150.6204 33.5751,-159.6402 10.716,-3.4437 136.5219,-1.2631 206.2323,7.8434 69.7103,9.1067 151.7149,3.1206 174.6108,65.1014 19.8409,53.7103 -24.2147,134.7009 -116.3995,147.3081 -92.185,12.6073 -184.7399,4.0445 -184.7399,4.0445 z"
       id="path3970"
       inkscape:connector-curvature="0"
       sodipodi:nodetypes="csccssc" />
  </g>
  <g
     inkscape:groupmode="layer"
     id="layer1"
     inkscape:label="txt">
    <text
       xml:space="preserve"
       style="font-style:normal;font-variant:normal;font-weight:normal;font-stretch:normal;line-height:0%;font-family:Lavi;-inkscape-font-specification:Lavi;text-align:center;letter-spacing:0px;word-spacing:0px;text-anchor:middle;fill:#000000;fill-opacity:1;stroke:none"
       x="253.58946"
       y="1788.8776"
       id="text4246"><tspan
         sodipodi:role="line"
         style="font-weight:bold;font-size:45px;line-height:1.25"
         x="253.58946"
         y="1788.8776"
         id="tspan44">Bøger er</tspan><tspan
         sodipodi:role="line"
         style="font-weight:bold;font-size:45px;line-height:1.25"
         x="253.58946"
         y="1845.1276"
         id="tspan43">fantastiske!</tspan></text>
    <text
       xml:space="preserve"
       style="font-style:normal;font-variant:normal;font-weight:normal;font-stretch:normal;line-height:0%;font-family:Lavi;-inkscape-font-specification:Lavi;text-align:center;letter-spacing:0px;word-spacing:0px;text-anchor:middle;fill:#000000;fill-opacity:1;stroke:none"
       x="2120.9941"
       y="2043.5022"
       id="text4246-3-5-9"><tspan
         sodipodi:role="line"
         style="font-size:45px;line-height:1.25"
         x="2120.9941"
         y="2043.5022"
         id="tspan75">Den er et rent</tspan><tspan
         sodipodi:role="line"
         style="font-size:45px;line-height:1.25"
         x="2120.9941"
         y="2099.7522"
         id="tspan72">vindunder!</tspan></text>
    <text
       xml:space="preserve"
       style="font-style:normal;font-variant:normal;font-weight:normal;font-stretch:normal;line-height:0%;font-family:Lavi;-inkscape-font-specification:Lavi;text-align:center;letter-spacing:0px;word-spacing:0px;text-anchor:middle;fill:#000000;fill-opacity:1;stroke:none"
       x="2062.4443"
       y="1784.9519"
       id="text4246-3-3"><tspan
         sodipodi:role="line"
         style="font-size:45px;line-height:1.25"
         x="2062.4443"
         y="1784.9519"
         id="tspan67">Denne sjældne bog</tspan><tspan
         sodipodi:role="line"
         style="font-size:45px;line-height:1.25"
         x="2062.4443"
         y="1841.2019"
         id="tspan60">indeholder noter fra en erfaren</tspan><tspan
         sodipodi:role="line"
         style="font-size:45px;line-height:1.25"
         x="2062.4443"
         y="1897.4519"
         id="tspan54">eventyrer og beskriver alt</tspan><tspan
         sodipodi:role="line"
         style="font-size:45px;line-height:1.25"
         x="2062.4443"
         y="1953.7019"
         id="tspan68">om dette borgtårn.</tspan></text>
    <text
       xml:space="preserve"
       style="font-style:normal;font-variant:normal;font-weight:normal;font-stretch:normal;line-height:0%;font-family:Lavi;-inkscape-font-specification:Lavi;text-align:center;letter-spacing:0px;word-spacing:0px;text-anchor:middle;fill:#000000;fill-opacity:1;stroke:none"
       x="1181.4302"
       y="2588.7097"
       id="text4246-3-3-1"><tspan
         sodipodi:role="line"
         style="font-size:45px;line-height:1.25"
         x="1181.4302"
         y="2588.7097"
         id="tspan138">For eksempel kaster det onde</tspan><tspan
         sodipodi:role="line"
         style="font-size:45px;line-height:1.25"
         x="1181.4302"
         y="2644.9597"
         id="tspan85">øje på hoveddøren ildkugler</tspan><tspan
         sodipodi:role="line"
         style="font-size:45px;line-height:1.25"
         x="1181.4302"
         y="2701.2097"
         id="tspan87">mod ubudne gæster.</tspan></text>
    <text
       xml:space="preserve"
       style="font-style:normal;font-variant:normal;font-weight:normal;font-stretch:normal;line-height:0%;font-family:Lavi;-inkscape-font-specification:Lavi;text-align:center;letter-spacing:0px;word-spacing:0px;text-anchor:middle;fill:#000000;fill-opacity:1;stroke:none"
       x="1934.9341"
       y="2584.8408"
       id="text4246-3-3-1-2"><tspan
         sodipodi:role="line"
         style="font-size:45px;line-height:1.25"
         x="1934.9341"
         y="2584.8408"
         id="tspan1230">Men hvis man går</tspan><tspan
         sodipodi:role="line"
         style="font-size:45px;line-height:1.25"
         x="1934.9341"
         y="2641.0908"
         id="tspan103">derhen fra siden,</tspan><tspan
         sodipodi:role="line"
         style="font-size:45px;line-height:1.25"
         x="1934.9341"
         y="2697.3408"
         id="tspan105">ude af syne...</tspan></text>
    <flowRoot
       xml:space="preserve"
       id="flowRoot45"
       style="fill:black;fill-opacity:1;stroke:none;font-family:sans-serif;font-style:normal;font-weight:normal;font-size:96px;line-height:1.25;letter-spacing:0px;word-spacing:0px"><flowRegion
         id="flowRegion47"><rect
           id="rect49"
           width="146.37109"
           height="156.53575"
           x="922.95111"
           y="1949.84" /></flowRegion><flowPara
         id="flowPara51" /></flowRoot>  </g>
</svg>
