<?xml version="1.0" encoding="UTF-8" standalone="no"?>
<!-- Created with Inkscape (http://www.inkscape.org/) -->

<svg
   xmlns:dc="http://purl.org/dc/elements/1.1/"
   xmlns:cc="http://creativecommons.org/ns#"
   xmlns:rdf="http://www.w3.org/1999/02/22-rdf-syntax-ns#"
   xmlns:svg="http://www.w3.org/2000/svg"
   xmlns="http://www.w3.org/2000/svg"
   xmlns:xlink="http://www.w3.org/1999/xlink"
   xmlns:sodipodi="http://sodipodi.sourceforge.net/DTD/sodipodi-0.dtd"
   xmlns:inkscape="http://www.inkscape.org/namespaces/inkscape"
   id="svg2"
   version="1.1"
   inkscape:version="0.91 r"
   width="2481"
   height="3503"
   sodipodi:docname="Pepper-and-Carrot_by-David-Revoy_E01P01.svg"
   enable-background="new">
  <metadata
     id="metadata8">
    <rdf:RDF>
      <cc:Work
         rdf:about="">
        <dc:format>image/svg+xml</dc:format>
        <dc:type
           rdf:resource="http://purl.org/dc/dcmitype/StillImage" />
        <dc:title />
      </cc:Work>
    </rdf:RDF>
  </metadata>
  <defs
     id="defs6">
    <filter
       inkscape:collect="always"
       id="filter4386">
      <feBlend
         inkscape:collect="always"
         mode="screen"
         in2="BackgroundImage"
         id="feBlend4388" />
    </filter>
  </defs>
  <sodipodi:namedview
     pagecolor="#ffffff"
     bordercolor="#666666"
     borderopacity="1"
     objecttolerance="10"
     gridtolerance="10"
     guidetolerance="10"
     inkscape:pageopacity="0"
     inkscape:pageshadow="2"
     inkscape:window-width="1920"
     inkscape:window-height="1017"
     id="namedview4"
     showgrid="false"
     inkscape:zoom="0.25606623"
     inkscape:cx="1240.5"
     inkscape:cy="1751.5"
     inkscape:window-x="-8"
     inkscape:window-y="-8"
     inkscape:window-maximized="1"
     inkscape:current-layer="layer3"
     inkscape:snap-global="false">
    <inkscape:grid
       type="xygrid"
       id="grid4282" />
  </sodipodi:namedview>
  <g
     inkscape:groupmode="layer"
     id="layer1"
     inkscape:label="artwork"
     style="display:inline"
     sodipodi:insensitive="true">
    <image
       sodipodi:absref="/home/deevad/peppercarrot/webcomics/New/lang/ja/../gfx_Pepper-and-Carrot_by-David-Revoy_E01P01.png"
       xlink:href="../gfx_Pepper-and-Carrot_by-David-Revoy_E01P01.png"
       width="2481"
       height="3503"
       id="image3084"
       x="0"
       y="0" />
  </g>
  <g
     inkscape:groupmode="layer"
     id="layer2"
     inkscape:label="speechbubble"
     style="opacity:0.70232556;display:inline">
    <path
       style="fill:#dfffd4;fill-opacity:1;stroke:none"
       d="m 1116.1503,287.5831 c 0,-40.51444 25.0236,-96.51958 147.7584,-98.90271 122.7348,-2.38323 165.6324,50.04716 166.824,92.94463 1.1916,42.89757 -58.3884,88.17837 -151.3332,84.60352 -92.9448,-3.57475 -160.866,-17.87394 -163.2492,-78.64544 z"
       id="path3071"
       inkscape:connector-curvature="0"
       sodipodi:nodetypes="csssc" />
    <path
       style="color:#000000;display:inline;overflow:visible;visibility:visible;fill:#dfffd4;fill-opacity:1;fill-rule:nonzero;stroke:none;stroke-width:1px;marker:none;enable-background:accumulate"
       d="m 1302.0399,343.58824 c 0,0 16.2155,4.76636 29.7286,17.87394 13.5129,13.10757 67.565,39.32272 55.4033,103.66907 20.2695,-71.49595 -20.2695,-95.32786 -28.3774,-107.24382 -8.1078,-11.91606 -22.9721,-32.17323 -22.9721,-32.17323 z"
       id="path3073"
       inkscape:connector-curvature="0"
       sodipodi:nodetypes="cscscc" />
    <path
       style="color:#000000;display:inline;overflow:visible;visibility:visible;fill:#dfffd4;fill-opacity:1;fill-rule:nonzero;stroke:none;stroke-width:1px;marker:none;enable-background:accumulate"
       d="m 1211.1804,1459.8184 c -1.3704,-64.4059 97.2941,-146.6263 165.8111,-138.4042 68.517,8.222 138.4044,65.7763 150.7374,108.2567 12.3331,42.4806 54.8136,121.9601 -149.367,138.4043 -71.2577,4.1109 -172.6629,-43.8509 -167.1815,-108.2568 z"
       id="path3097"
       inkscape:connector-curvature="0"
       sodipodi:nodetypes="csscc" />
    <path
       style="color:#000000;display:inline;overflow:visible;visibility:visible;fill:#dfffd4;fill-opacity:1;fill-rule:nonzero;stroke:none;stroke-width:1px;marker:none;enable-background:accumulate"
       d="m 1472.9153,1520.1132 c 15.0738,38.3695 24.6661,42.4806 49.3323,43.8509 9.5924,-1.3703 20.555,6.8517 17.8144,21.9254 16.4441,-23.2957 -6.813,-31.5254 -17.7758,-37.0068 -10.9627,-5.4814 -16.5524,-6.1473 -22.0337,-33.554 -5.4814,-27.4067 -27.3372,4.7845 -27.3372,4.7845 z"
       id="path3105"
       inkscape:connector-curvature="0"
       sodipodi:nodetypes="cccssc" />
  </g>
  <g
     inkscape:groupmode="layer"
     id="layer3"
     inkscape:label="txt"
     style="display:inline">
    <flowRoot
       xml:space="preserve"
       id="flowRoot3063-8"
       style="color:#000000;font-style:normal;font-variant:normal;font-weight:normal;font-stretch:normal;font-size:72px;line-height:125%;font-family:Arial;-inkscape-font-specification:Arial;letter-spacing:0px;word-spacing:0px;display:inline;overflow:visible;visibility:visible;fill:#3c4036;fill-opacity:1;fill-rule:nonzero;stroke:none;marker:none;enable-background:accumulate"
       transform="matrix(0.62578859,0,0,0.65468406,1036.0912,-54.84324)"><flowRegion
         id="flowRegion3065-8"><rect
           id="rect3067-6"
           width="569.74268"
           height="228.46191"
           x="92.642677"
           y="425.30325"
           style="color:#000000;font-size:72px;display:inline;overflow:visible;visibility:visible;fill:#3c4036;fill-opacity:1;fill-rule:nonzero;stroke:none;marker:none;enable-background:accumulate" /></flowRegion><flowPara
         style="color:#000000;font-style:normal;font-variant:normal;font-weight:500;font-stretch:normal;font-size:64px;font-family:'Rounded M+ 1c';-inkscape-font-specification:'Rounded M+ 1c Medium';text-align:center;text-anchor:middle;display:inline;overflow:visible;visibility:visible;fill:#3c4036;fill-opacity:1;fill-rule:nonzero;stroke:none;marker:none;enable-background:accumulate"
         id="flowPara3188">...これで</flowPara><flowPara
         style="color:#000000;font-style:normal;font-variant:normal;font-weight:500;font-stretch:normal;font-size:64px;font-family:'Rounded M+ 1c';-inkscape-font-specification:'Rounded M+ 1c Medium';text-align:center;text-anchor:middle;display:inline;overflow:visible;visibility:visible;fill:#3c4036;fill-opacity:1;fill-rule:nonzero;stroke:none;marker:none;enable-background:accumulate"
         id="flowPara3429">出来上がり</flowPara></flowRoot>    <flowRoot
       xml:space="preserve"
       id="flowRoot3063-8-6"
       style="color:#000000;font-style:normal;font-variant:normal;font-weight:normal;font-stretch:normal;font-size:72px;line-height:125%;font-family:Arial;-inkscape-font-specification:Arial;letter-spacing:0px;word-spacing:0px;display:inline;overflow:visible;visibility:visible;fill:#3c4036;fill-opacity:1;fill-rule:nonzero;stroke:none;marker:none;enable-background:accumulate"
       transform="matrix(0.62578859,0,0,0.65468406,1153.3904,1096.2278)"><flowRegion
         id="flowRegion3065-8-1"><rect
           id="rect3067-6-3"
           width="526.9325"
           height="288.6394"
           x="92.642677"
           y="425.30325"
           style="color:#000000;font-size:72px;display:inline;overflow:visible;visibility:visible;fill:#3c4036;fill-opacity:1;fill-rule:nonzero;stroke:none;marker:none;enable-background:accumulate" /></flowRegion><flowPara
         style="color:#000000;font-style:normal;font-variant:normal;font-weight:500;font-stretch:normal;font-size:64px;font-family:'Rounded M+ 1c';-inkscape-font-specification:'Rounded M+ 1c Medium';text-align:center;text-anchor:middle;display:inline;overflow:visible;visibility:visible;fill:#3c4036;fill-opacity:1;fill-rule:nonzero;stroke:none;marker:none;enable-background:accumulate"
         id="flowPara3224">...うーん</flowPara><flowPara
         style="color:#000000;font-style:normal;font-variant:normal;font-weight:500;font-stretch:normal;font-size:64px;font-family:'Rounded M+ 1c';-inkscape-font-specification:'Rounded M+ 1c Medium';text-align:center;text-anchor:middle;display:inline;overflow:visible;visibility:visible;fill:#3c4036;fill-opacity:1;fill-rule:nonzero;stroke:none;marker:none;enable-background:accumulate"
         id="flowPara3436">足りなかった</flowPara><flowPara
         style="color:#000000;font-style:normal;font-variant:normal;font-weight:500;font-stretch:normal;font-size:64px;font-family:'Rounded M+ 1c';-inkscape-font-specification:'Rounded M+ 1c Medium';text-align:center;text-anchor:middle;display:inline;overflow:visible;visibility:visible;fill:#3c4036;fill-opacity:1;fill-rule:nonzero;stroke:none;marker:none;enable-background:accumulate"
         id="flowPara3438">かも</flowPara></flowRoot>    <flowRoot
       xml:space="preserve"
       id="flowRoot4133"
       style="font-style:normal;font-variant:normal;font-weight:500;font-stretch:normal;font-size:12.00005722px;line-height:125%;font-family:'Rounded M+ 1c';-inkscape-font-specification:'Rounded M+ 1c, Medium';text-align:start;letter-spacing:0.00204969px;word-spacing:0px;writing-mode:lr-tb;text-anchor:start;display:inline;fill:#d0a273;fill-opacity:1;stroke:#d0a273;stroke-width:1;stroke-opacity:1"
       transform="matrix(2.5383209,-2.080857,0.65725432,4.9138898,-2499.752,-2330.5738)"><flowRegion
         id="flowRegion4135"
         style="stroke-width:1"><rect
           id="rect4137"
           width="122.07606"
           height="106.53911"
           x="1125.3193"
           y="1078.5308"
           style="font-style:normal;font-variant:normal;font-weight:500;font-stretch:normal;font-size:12.00005722px;line-height:125%;font-family:'Rounded M+ 1c';-inkscape-font-specification:'Rounded M+ 1c, Medium';text-align:start;letter-spacing:0.00204969px;writing-mode:lr-tb;text-anchor:start;fill:#d0a273;fill-opacity:1;stroke:#d0a273;stroke-width:1;stroke-opacity:1" /></flowRegion><flowPara
         id="flowPara4139"
         style="font-style:normal;font-variant:normal;font-weight:500;font-stretch:normal;font-size:12.00005722px;line-height:125%;font-family:'Rounded M+ 1c';-inkscape-font-specification:'Rounded M+ 1c, Medium';text-align:start;letter-spacing:0.00204969px;word-spacing:0.00204969px;writing-mode:lr-tb;text-anchor:start;fill:#d0a273;fill-opacity:1;stroke:#d0a273;stroke-width:1.06872857;stroke-miterlimit:4;stroke-dasharray:none;stroke-opacity:1">ぱら</flowPara></flowRoot>    <flowRoot
       xml:space="preserve"
       id="flowRoot4133-6"
       style="font-style:normal;font-variant:normal;font-weight:500;font-stretch:normal;font-size:12.00002193px;line-height:125%;font-family:'Rounded M+ 1c';-inkscape-font-specification:'Rounded M+ 1c, Medium';text-align:start;letter-spacing:0.00204969px;word-spacing:0px;writing-mode:lr-tb;text-anchor:start;display:inline;fill:#d0a273;fill-opacity:1;stroke:#d0a273;stroke-width:1.16579425;stroke-opacity:1"
       transform="matrix(2.0707435,-1.7739018,0.50514841,4.4852514,-1739.4028,-2241.3646)"><flowRegion
         id="flowRegion4135-2"
         style="stroke-width:1.16579425"><rect
           id="rect4137-1"
           width="122.07606"
           height="106.53911"
           x="1125.3193"
           y="1078.5308"
           style="font-style:normal;font-variant:normal;font-weight:500;font-stretch:normal;font-size:12.00002193px;line-height:125%;font-family:'Rounded M+ 1c';-inkscape-font-specification:'Rounded M+ 1c, Medium';text-align:start;letter-spacing:0.00204969px;writing-mode:lr-tb;text-anchor:start;fill:#d0a273;fill-opacity:1;stroke:#d0a273;stroke-width:1.16579425;stroke-opacity:1" /></flowRegion><flowPara
         id="flowPara4139-2"
         style="font-style:normal;font-variant:normal;font-weight:500;font-stretch:normal;font-size:12.00002193px;line-height:125%;font-family:'Rounded M+ 1c';-inkscape-font-specification:'Rounded M+ 1c, Medium';text-align:start;letter-spacing:0.00204969px;word-spacing:0.00204969px;writing-mode:lr-tb;text-anchor:start;fill:#d0a273;fill-opacity:1;stroke:#d0a273;stroke-width:1.24591756;stroke-miterlimit:4;stroke-dasharray:none;stroke-opacity:1">ぱら</flowPara></flowRoot>    <flowRoot
       xml:space="preserve"
       id="flowRoot4133-6-9"
       style="font-style:normal;font-variant:normal;font-weight:normal;font-stretch:normal;font-size:12px;line-height:125%;font-family:Arial;-inkscape-font-specification:Arial;letter-spacing:0.00204969px;word-spacing:0px;display:inline;fill:#daa761;fill-opacity:1;stroke:#daa761;stroke-width:1.01278496;stroke-opacity:1"
       transform="matrix(2.669076,0.36876233,-1.2224488,4.8865817,-275.77342,-2725.975)"><flowRegion
         id="flowRegion4135-2-9"
         style="stroke-width:1.01278496"><rect
           id="rect4137-1-7"
           width="51.856533"
           height="24.039366"
           x="1125.3193"
           y="1078.5308"
           style="letter-spacing:0.00204969px;fill:#daa761;fill-opacity:1;stroke:#daa761;stroke-width:1.01278496;stroke-opacity:1" /></flowRegion><flowPara
         id="flowPara4139-2-8"
         style="font-style:normal;font-variant:normal;font-weight:500;font-stretch:normal;font-size:12.00005627px;line-height:125%;font-family:'Rounded M+ 1c';-inkscape-font-specification:'Rounded M+ 1c, Medium';text-align:start;letter-spacing:0.00204969px;word-spacing:0.00204969px;writing-mode:lr-tb;text-anchor:start;fill:#daa761;fill-opacity:1;stroke:#daa761;stroke-width:1.0823921;stroke-miterlimit:4;stroke-dasharray:none;stroke-opacity:1">どばどば</flowPara></flowRoot>    <flowRoot
       xml:space="preserve"
       id="flowRoot4133-6-9-4"
       style="font-style:normal;font-variant:normal;font-weight:normal;font-stretch:normal;font-size:12px;line-height:125%;font-family:Arial;-inkscape-font-specification:Arial;letter-spacing:0.00204969px;word-spacing:0px;display:inline;fill:#daa761;fill-opacity:1;stroke:#daa761;stroke-width:1.09552455;stroke-opacity:1"
       transform="matrix(2.6541691,-0.95281395,2.0122678,3.6225699,-4251.1115,177.55558)"><flowRegion
         id="flowRegion4135-2-9-3"
         style="stroke-width:1.09552455"><rect
           id="rect4137-1-7-1"
           width="51.856533"
           height="24.039366"
           x="1125.3193"
           y="1078.5308"
           style="letter-spacing:0.00204969px;fill:#daa761;fill-opacity:1;stroke:#daa761;stroke-width:1.09552455;stroke-opacity:1" /></flowRegion><flowPara
         id="flowPara4139-2-8-6"
         style="font-style:normal;font-variant:normal;font-weight:500;font-stretch:normal;font-size:12.00010395px;line-height:125%;font-family:'Rounded M+ 1c';-inkscape-font-specification:'Rounded M+ 1c, Medium';text-align:start;letter-spacing:0.00204969px;word-spacing:0.00204969px;writing-mode:lr-tb;text-anchor:start;fill:#daa761;fill-opacity:1;stroke:#daa761;stroke-width:1.17081833;stroke-miterlimit:4;stroke-dasharray:none;stroke-opacity:1">ざぶん</flowPara></flowRoot>  </g>
</svg>
