<?xml version="1.0" encoding="UTF-8" standalone="no"?>
<!-- Created with Inkscape (http://www.inkscape.org/) -->

<svg
   xmlns:dc="http://purl.org/dc/elements/1.1/"
   xmlns:cc="http://creativecommons.org/ns#"
   xmlns:rdf="http://www.w3.org/1999/02/22-rdf-syntax-ns#"
   xmlns:svg="http://www.w3.org/2000/svg"
   xmlns="http://www.w3.org/2000/svg"
   xmlns:xlink="http://www.w3.org/1999/xlink"
   xmlns:sodipodi="http://sodipodi.sourceforge.net/DTD/sodipodi-0.dtd"
   xmlns:inkscape="http://www.inkscape.org/namespaces/inkscape"
   id="svg2"
   version="1.1"
   inkscape:version="0.92.4 (5da689c313, 2019-01-14)"
   width="2481"
   height="3503"
   sodipodi:docname="E18P07.svg">
  <sodipodi:namedview
     pagecolor="#ffffff"
     bordercolor="#666666"
     inkscape:pageopacity="0"
     inkscape:pageshadow="2"
     inkscape:window-width="1600"
     inkscape:window-height="900"
     id="namedview70"
     showgrid="false"
     inkscape:zoom="0.4"
     inkscape:cx="1284.4231"
     inkscape:cy="2918.6204"
     inkscape:current-layer="layer5"
     inkscape:window-x="0"
     inkscape:window-y="0"
     inkscape:window-maximized="0" />
  <metadata
     id="metadata8">
    <rdf:RDF>
      <cc:Work
         rdf:about="">
        <dc:format>image/svg+xml</dc:format>
        <dc:type
           rdf:resource="http://purl.org/dc/dcmitype/StillImage" />
        <dc:title />
      </cc:Work>
    </rdf:RDF>
  </metadata>
  <defs
     id="defs6">
    <filter
       style="color-interpolation-filters:sRGB"
       inkscape:label="Drop Shadow"
       id="filter5522">
      <feFlood
         flood-opacity="1"
         flood-color="rgb(0,0,0)"
         result="flood"
         id="feFlood5524" />
      <feComposite
         in="flood"
         in2="SourceGraphic"
         operator="in"
         result="composite1"
         id="feComposite5526" />
      <feGaussianBlur
         in="composite1"
         stdDeviation="1"
         result="blur"
         id="feGaussianBlur5528" />
      <feOffset
         dx="2.5"
         dy="2.5"
         result="offset"
         id="feOffset5530" />
      <feComposite
         in="SourceGraphic"
         in2="offset"
         operator="over"
         result="composite2"
         id="feComposite5532" />
    </filter>
    <filter
       style="color-interpolation-filters:sRGB"
       inkscape:label="Drop Shadow"
       id="filter5534">
      <feFlood
         flood-opacity="1"
         flood-color="rgb(0,0,0)"
         result="flood"
         id="feFlood5536" />
      <feComposite
         in="flood"
         in2="SourceGraphic"
         operator="in"
         result="composite1"
         id="feComposite5538" />
      <feGaussianBlur
         in="composite1"
         stdDeviation="1"
         result="blur"
         id="feGaussianBlur5540" />
      <feOffset
         dx="2.5"
         dy="2.5"
         result="offset"
         id="feOffset5542" />
      <feComposite
         in="SourceGraphic"
         in2="offset"
         operator="over"
         result="composite2"
         id="feComposite5544" />
    </filter>
    <filter
       style="color-interpolation-filters:sRGB"
       inkscape:label="Drop Shadow"
       id="filter5558">
      <feFlood
         flood-opacity="1"
         flood-color="rgb(0,0,0)"
         result="flood"
         id="feFlood5560" />
      <feComposite
         in="flood"
         in2="SourceGraphic"
         operator="in"
         result="composite1"
         id="feComposite5562" />
      <feGaussianBlur
         in="composite1"
         stdDeviation="1"
         result="blur"
         id="feGaussianBlur5564" />
      <feOffset
         dx="2.5"
         dy="2.5"
         result="offset"
         id="feOffset5566" />
      <feComposite
         in="SourceGraphic"
         in2="offset"
         operator="over"
         result="composite2"
         id="feComposite5568" />
    </filter>
    <filter
       style="color-interpolation-filters:sRGB"
       inkscape:label="Drop Shadow"
       id="filter5546">
      <feFlood
         flood-opacity="1"
         flood-color="rgb(0,0,0)"
         result="flood"
         id="feFlood5548" />
      <feComposite
         in="flood"
         in2="SourceGraphic"
         operator="in"
         result="composite1"
         id="feComposite5550" />
      <feGaussianBlur
         in="composite1"
         stdDeviation="1"
         result="blur"
         id="feGaussianBlur5552" />
      <feOffset
         dx="2.5"
         dy="2.5"
         result="offset"
         id="feOffset5554" />
      <feComposite
         in="SourceGraphic"
         in2="offset"
         operator="over"
         result="composite2"
         id="feComposite5556" />
    </filter>
    <filter
       style="color-interpolation-filters:sRGB"
       inkscape:label="Drop Shadow"
       id="filter5546-3">
      <feFlood
         flood-opacity="1"
         flood-color="rgb(0,0,0)"
         result="flood"
         id="feFlood5548-6" />
      <feComposite
         in="flood"
         in2="SourceGraphic"
         operator="in"
         result="composite1"
         id="feComposite5550-7" />
      <feGaussianBlur
         in="composite1"
         stdDeviation="1"
         result="blur"
         id="feGaussianBlur5552-5" />
      <feOffset
         dx="2.5"
         dy="2.5"
         result="offset"
         id="feOffset5554-3" />
      <feComposite
         in="SourceGraphic"
         in2="offset"
         operator="over"
         result="composite2"
         id="feComposite5556-5" />
    </filter>
    <filter
       inkscape:collect="always"
       style="color-interpolation-filters:sRGB"
       id="filter4666"
       x="-0.012092819"
       width="1.0241857"
       y="-0.056169167"
       height="1.1123383">
      <feGaussianBlur
         inkscape:collect="always"
         stdDeviation="0.72856737"
         id="feGaussianBlur4668" />
    </filter>
  </defs>
  <sodipodi:namedview
     pagecolor="#ffffff"
     bordercolor="#666666"
     borderopacity="1"
     objecttolerance="10"
     gridtolerance="10"
     guidetolerance="10"
     inkscape:pageopacity="0"
     inkscape:pageshadow="2"
     inkscape:window-width="1920"
     inkscape:window-height="1025"
     id="namedview4"
     showgrid="false"
     inkscape:zoom="0.51948071"
     inkscape:cx="944.60897"
     inkscape:cy="677.9042"
     inkscape:window-x="0"
     inkscape:window-y="26"
     inkscape:window-maximized="1"
     inkscape:current-layer="layer7" />
  <g
     inkscape:groupmode="layer"
     id="layer2"
     inkscape:label="artwork"
     sodipodi:insensitive="true">
    <image
       sodipodi:absref="D:\Pepper&amp;Carrot\ep18_The-Encounter_lang-pack\lang\ro\../gfx_Pepper-and-Carrot_by-David-Revoy_E18P07.png"
       xlink:href="../gfx_Pepper-and-Carrot_by-David-Revoy_E18P07.png"
       width="2481"
       height="3503"
       id="image10"
       x="0"
       y="0" />
  </g>
  <g
     inkscape:groupmode="layer"
     id="layer4"
     inkscape:label="translatornotes"
     sodipodi:insensitive="true">
    <path
       style="color:#000000;clip-rule:nonzero;display:inline;overflow:visible;visibility:visible;opacity:0.481;isolation:auto;mix-blend-mode:normal;color-interpolation:sRGB;color-interpolation-filters:linearRGB;solid-color:#000000;solid-opacity:1;fill:#ffe680;fill-opacity:1;fill-rule:nonzero;stroke:#565656;stroke-width:1.20000005;stroke-linecap:butt;stroke-linejoin:miter;stroke-miterlimit:4;stroke-dasharray:none;stroke-dashoffset:0;stroke-opacity:1;marker:none;color-rendering:auto;image-rendering:auto;shape-rendering:auto;text-rendering:auto;enable-background:accumulate"
       d="m 2768.2152,3040.9958 0,-189.0352 -203.8301,0 0,90.9805 -10,0 0,-15.6308 -30.9824,26.9824 30.9824,26.9804 0,-16.6171 10,0 0,76.3398 203.8301,0 z"
       id="rect4191-6"
       inkscape:connector-curvature="0" />
    <flowRoot
       xml:space="preserve"
       id="flowRoot4212-7"
       style="font-style:normal;font-variant:normal;font-weight:normal;font-stretch:normal;line-height:0.01%;font-family:Lavi;-inkscape-font-specification:'Lavi, Normal';text-align:center;letter-spacing:0px;word-spacing:0px;writing-mode:lr-tb;text-anchor:middle;display:inline;opacity:0.481;fill:#000000;fill-opacity:1;stroke:none;stroke-width:1px;stroke-linecap:butt;stroke-linejoin:miter;stroke-opacity:1"
       transform="translate(2789.9207,1842.6578)"><flowRegion
         id="flowRegion4214-5"><rect
           id="rect4216-3"
           width="291.95547"
           height="247.52747"
           x="-275.14545"
           y="1061.6674" /></flowRegion><flowPara
         id="flowPara4218-5"
         style="font-size:25.3241539px;line-height:1.25">&quot;Hippiah&quot;</flowPara><flowPara
         id="flowPara4204"
         style="font-size:25.3241539px;line-height:1.25">subtle on the</flowPara><flowPara
         id="flowPara4206"
         style="font-size:25.3241539px;line-height:1.25">box</flowPara></flowRoot>    <path
       inkscape:connector-curvature="0"
       id="path3446"
       d="m 2768.2152,3391.1798 0,-189.0352 -203.8301,0 0,90.9805 -10,0 0,-15.6308 -30.9824,26.9824 30.9824,26.9804 0,-16.6171 10,0 0,76.3398 203.8301,0 z"
       style="color:#000000;clip-rule:nonzero;display:inline;overflow:visible;visibility:visible;opacity:0.481;isolation:auto;mix-blend-mode:normal;color-interpolation:sRGB;color-interpolation-filters:linearRGB;solid-color:#000000;solid-opacity:1;fill:#ffe680;fill-opacity:1;fill-rule:nonzero;stroke:#565656;stroke-width:1.20000005;stroke-linecap:butt;stroke-linejoin:miter;stroke-miterlimit:4;stroke-dasharray:none;stroke-dashoffset:0;stroke-opacity:1;marker:none;color-rendering:auto;image-rendering:auto;shape-rendering:auto;text-rendering:auto;enable-background:accumulate" />
    <flowRoot
       transform="translate(2795.2978,2176.7105)"
       style="font-style:normal;font-variant:normal;font-weight:normal;font-stretch:normal;line-height:0.01%;font-family:Lavi;-inkscape-font-specification:'Lavi, Normal';text-align:center;letter-spacing:0px;word-spacing:0px;writing-mode:lr-tb;text-anchor:middle;display:inline;opacity:0.481;fill:#000000;fill-opacity:1;stroke:none;stroke-width:1px;stroke-linecap:butt;stroke-linejoin:miter;stroke-opacity:1"
       id="flowRoot3448"
       xml:space="preserve"><flowRegion
         id="flowRegion3450"><rect
           y="1061.6674"
           x="-275.14545"
           height="247.52747"
           width="291.95547"
           id="rect3452" /></flowRegion><flowPara
         id="flowPara3465"
         style="font-size:25.3241539px;line-height:1.25">Don't</flowPara><flowPara
         id="flowPara3469"
         style="font-size:25.3241539px;line-height:1.25">translate the</flowPara><flowPara
         id="flowPara3471"
         style="font-size:25.3241539px;line-height:1.25">names of the</flowPara><flowPara
         id="flowPara3473"
         style="font-size:25.3241539px;line-height:1.25">scenarios</flowPara></flowRoot>  </g>
  <g
     inkscape:groupmode="layer"
     id="layer3"
     inkscape:label="speechbubbles">
    <path
       style="color:#000000;display:inline;overflow:visible;visibility:visible;fill:#f2f8d1;fill-opacity:1;fill-rule:nonzero;stroke:none;stroke-width:1px;marker:none;enable-background:accumulate"
       d="m 634.91716,613.24588 c -50.03429,-0.88323 -79.35143,-14.62549 -102.1394,-50.14482 -28.55579,-44.5096 -28.00587,-55.99172 -28.00587,-55.99172 l -34.96729,12.1252 c 0,0 47.97126,141.84647 165.11256,94.01134 z"
       id="path3072-0"
       inkscape:connector-curvature="0"
       inkscape:transform-center-x="132.43855"
       inkscape:transform-center-y="-21.121333"
       sodipodi:nodetypes="csccc" />
    <path
       style="color:#000000;display:inline;overflow:visible;visibility:visible;fill:#f2f8d1;fill-opacity:1;fill-rule:nonzero;stroke:none;stroke-width:1px;marker:none;enable-background:accumulate"
       d="m 123.15736,271.51163 c 0,-64.04433 26.47304,-115.57586 110.15624,-121.58018 83.68328,-6.00409 326.08804,3.52601 362.75822,24.54057 36.67022,21.01465 51.63928,62.50997 50.73208,104.61396 -1.58937,73.75829 -93.94707,96.49788 -177.63027,93.49583 -83.68329,-3.00216 -211.71728,5.97643 -256.84983,-9.03402 -45.13254,-15.01046 -85.40536,-41.00082 -89.16644,-92.03616 z"
       id="path3986"
       inkscape:connector-curvature="0"
       sodipodi:nodetypes="csssssc" />
    <path
       style="color:#000000;display:inline;overflow:visible;visibility:visible;fill:#f2f8d1;fill-opacity:1;fill-rule:nonzero;stroke:none;stroke-width:0.92460281px;marker:none;enable-background:accumulate"
       d="m 170.26969,440.51428 c -4.42876,-23.82892 35.39744,-111.07084 211.98187,-109.09219 176.58459,1.97866 217.0128,90.63893 217.6418,122.8336 0.62882,32.19467 -39.33388,85.37532 -64.71785,95.46981 -25.38399,10.09449 -91.77338,34.759 -135.35532,31.80091 -43.58144,-2.95828 -105.92842,6.74634 -176.43444,-44.0022 -67.21122,-48.3769 -49.82464,-90.82445 -53.11606,-97.00993 z"
       id="path3365"
       inkscape:connector-curvature="0"
       sodipodi:nodetypes="csssssc" />
    <path
       style="fill:#ffffff;stroke:none"
       d="m 1732.6954,1507.174 c -19.0541,27.1493 -29.8294,23.5428 -42.0127,18.3603 -12.1833,-5.1825 -23.0098,-11.3009 -29.5098,-7.6674 -6.4999,3.6336 -3.3235,12.5963 -10.9977,16.0353 -7.1591,3.208 -8.4663,-5.4976 -5.4728,-15.2104 2.8799,-9.3445 -69.5618,23.6951 -69.5618,23.6951 0,0 31.5385,22.8244 42.5107,26.7194 10.9724,3.8953 14.9776,5.3784 19.4933,5.6603 4.5159,0.2819 13.0657,-3.728 18.0189,-10.1154 4.9533,-6.3875 8.535,-12.8666 11.0882,-18.8724 2.553,-6.0059 13.1213,-1.1122 22.7148,0.7622 9.5933,1.8745 30.0288,-5.1273 36.8274,-16.6081 6.7988,-11.4807 6.9015,-22.7589 6.9015,-22.7589 z"
       id="path3023"
       inkscape:connector-curvature="0"
       sodipodi:nodetypes="csssscssssssc" />
    <path
       style="fill:#ffffff;stroke:none"
       d="m 1222.2824,1509.4425 c -1.9163,-34.0312 32.4425,-119.2248 200.0427,-112.8168 167.6004,6.408 220.0565,43.841 224.9679,104.3315 7.7698,95.6941 -80.4046,121.2668 -207.0151,128.3547 -130.5214,7.3071 -220.0212,-58.3805 -217.9955,-119.8694 z"
       id="path3280-8"
       inkscape:connector-curvature="0"
       sodipodi:nodetypes="csssc" />
    <g
       id="g3474">
      <path
         sodipodi:nodetypes="zcccccccccccccccccccz"
         inkscape:connector-curvature="0"
         id="path4280"
         d="m 953.78843,3044.481 c 8.48666,-4.7061 20.56789,-9.4767 23.11897,-35.8151 4.6588,-23.3041 23.2841,-12.0319 35.3224,-23.7521 22.0379,-12.9692 29.0834,-52.5216 8.0813,-70.0626 -11.1744,-9.637 -36.07195,-35.0349 -23.84609,-53.1998 12.73239,-16.7301 34.46789,-37.1043 41.52909,-52.3358 5.3734,-20.415 -6.989,-45.9762 -24.1074,-62.1236 -9.2985,-12.0889 -18.03099,-21.416 -24.40429,-36.4975 -2.25445,-22.3288 10.82749,-35.4568 23.54019,-52.2942 5.8338,-25.2315 -10.3809,-54.3987 -28.42479,-67.8239 -14.8418,-15.7025 -32.80856,-4.0404 -16.14781,6.8517 13.11131,8.1382 38.4942,42.0297 28.76691,57.7699 -12.13165,10.3143 -26.91523,31.4745 -22.57563,54.6507 1.58172,25.5595 17.09693,32.5086 26.99692,44.4211 11.2134,14.3348 27.8676,30.2783 20.1813,53.6681 -10.5957,22.0299 -30.57809,24.2186 -37.87279,51.6722 -9.25314,31.0837 13.1598,48.4917 29.08259,66.2198 14.1035,14.4944 5.9846,51.8103 -11.4537,52.222 -17.32579,4.3053 -33.29979,12.7458 -33.98439,38.1546 -1.40689,24.7203 -27.05374,16.1684 -44.11597,62.8249 0,0 21.82652,-29.8443 30.31319,-34.5504 z"
         style="color:#000000;clip-rule:nonzero;display:inline;overflow:visible;visibility:visible;opacity:1;isolation:auto;mix-blend-mode:normal;color-interpolation:sRGB;color-interpolation-filters:linearRGB;solid-color:#000000;solid-opacity:1;fill:#ffffff;fill-opacity:1;fill-rule:nonzero;stroke:none;stroke-width:2.80699992;stroke-linecap:round;stroke-linejoin:round;stroke-miterlimit:4;stroke-dasharray:none;stroke-dashoffset:0;stroke-opacity:1;marker:none;color-rendering:auto;image-rendering:auto;shape-rendering:auto;text-rendering:auto;enable-background:accumulate" />
      <path
         inkscape:connector-curvature="0"
         id="path4299"
         d="m 1022.8614,2637.3385 c 6.109,11.1842 -0.455,23.2637 -5.709,32.2739 -2.472,4.0395 -7.7099,12.9549 0.3571,8.331 9.9584,-6.0276 11.5331,-21.2781 10.1954,-33.3165 -0.3688,-3.4712 -1.0033,-7.8574 -4.8435,-7.2884 z"
         style="color:#000000;clip-rule:nonzero;display:inline;overflow:visible;visibility:visible;opacity:1;isolation:auto;mix-blend-mode:normal;color-interpolation:sRGB;color-interpolation-filters:linearRGB;solid-color:#000000;solid-opacity:1;fill:#ffffff;fill-opacity:1;fill-rule:nonzero;stroke:none;stroke-width:2.80699992;stroke-linecap:round;stroke-linejoin:round;stroke-miterlimit:4;stroke-dasharray:none;stroke-dashoffset:0;stroke-opacity:1;marker:none;color-rendering:auto;image-rendering:auto;shape-rendering:auto;text-rendering:auto;enable-background:accumulate" />
      <path
         inkscape:connector-curvature="0"
         id="path4301"
         d="m 955.62198,2698.5858 c -2.21886,9.4552 1.17345,19.4817 3.62014,28.5277 4.04858,6.6231 8.94329,14.0374 15.91579,16.2948 6.7472,-6.0248 -9.68761,-10.0779 -9.18939,-17.6129 -5.26101,-7.8873 -6.07693,-18.5763 -8.65174,-26.9925 -0.56491,-0.072 -1.12991,-0.1448 -1.6948,-0.2171 z"
         style="color:#000000;clip-rule:nonzero;display:inline;overflow:visible;visibility:visible;opacity:1;isolation:auto;mix-blend-mode:normal;color-interpolation:sRGB;color-interpolation-filters:linearRGB;solid-color:#000000;solid-opacity:1;fill:#ffffff;fill-opacity:1;fill-rule:nonzero;stroke:none;stroke-width:2.80699992;stroke-linecap:round;stroke-linejoin:round;stroke-miterlimit:4;stroke-dasharray:none;stroke-dashoffset:0;stroke-opacity:1;marker:none;color-rendering:auto;image-rendering:auto;shape-rendering:auto;text-rendering:auto;enable-background:accumulate" />
      <path
         inkscape:connector-curvature="0"
         id="path4303"
         d="m 1044.9498,2775.8199 c 5.8403,13.1663 4.6303,27.9931 5.3613,42.022 9.0739,-1.283 4.7883,-16.4015 4.3067,-23.9903 -1.2934,-6.1662 -2.4371,-19.7877 -8.9466,-19.0381 l -0.7214,1.0064 0,0 z"
         style="color:#000000;clip-rule:nonzero;display:inline;overflow:visible;visibility:visible;opacity:1;isolation:auto;mix-blend-mode:normal;color-interpolation:sRGB;color-interpolation-filters:linearRGB;solid-color:#000000;solid-opacity:1;fill:#ffffff;fill-opacity:1;fill-rule:nonzero;stroke:none;stroke-width:2.80699992;stroke-linecap:round;stroke-linejoin:round;stroke-miterlimit:4;stroke-dasharray:none;stroke-dashoffset:0;stroke-opacity:1;marker:none;color-rendering:auto;image-rendering:auto;shape-rendering:auto;text-rendering:auto;enable-background:accumulate" />
      <path
         inkscape:connector-curvature="0"
         id="path4305"
         d="m 992.31141,2826.9265 c -6.9024,4.4528 -12.0251,12.8633 -13.6539,21.8691 2.7231,9.517 6.7229,-9.8927 11.3082,-12.8886 1.4563,-2.5643 3.2234,-5.6544 2.3457,-8.9805 z"
         style="color:#000000;clip-rule:nonzero;display:inline;overflow:visible;visibility:visible;opacity:1;isolation:auto;mix-blend-mode:normal;color-interpolation:sRGB;color-interpolation-filters:linearRGB;solid-color:#000000;solid-opacity:1;fill:#ffffff;fill-opacity:1;fill-rule:nonzero;stroke:none;stroke-width:2.80699992;stroke-linecap:round;stroke-linejoin:round;stroke-miterlimit:4;stroke-dasharray:none;stroke-dashoffset:0;stroke-opacity:1;marker:none;color-rendering:auto;image-rendering:auto;shape-rendering:auto;text-rendering:auto;enable-background:accumulate" />
      <path
         sodipodi:nodetypes="cccc"
         inkscape:connector-curvature="0"
         id="path4307"
         d="m 982.57321,2755.3643 c -1.8158,-4.8548 -6.262,-1.2015 -7.363,-6.4325 -6.43755,0.5058 -1.66544,4.1893 1.101,5.231 3.2466,2.9719 4.7551,3.1556 6.262,1.2015 z"
         style="color:#000000;clip-rule:nonzero;display:inline;overflow:visible;visibility:visible;opacity:1;isolation:auto;mix-blend-mode:normal;color-interpolation:sRGB;color-interpolation-filters:linearRGB;solid-color:#000000;solid-opacity:1;fill:#ffffff;fill-opacity:1;fill-rule:nonzero;stroke:none;stroke-width:2.80699992;stroke-linecap:round;stroke-linejoin:round;stroke-miterlimit:4;stroke-dasharray:none;stroke-dashoffset:0;stroke-opacity:1;marker:none;color-rendering:auto;image-rendering:auto;shape-rendering:auto;text-rendering:auto;enable-background:accumulate" />
      <path
         sodipodi:nodetypes="ccccc"
         inkscape:connector-curvature="0"
         id="path4309"
         d="m 964.34427,2620.9089 c 4.17993,4.7808 -0.59307,-2.1183 9.26405,7.308 2.77339,3.5508 4.53979,11.5325 7.99519,7.9248 -1.6889,-8.8606 -4.4098,-12.7038 -11.09744,-16.9842 -4.82344,-2.3647 -8.19762,-3.6214 -6.1618,1.7514 z"
         style="color:#000000;clip-rule:nonzero;display:inline;overflow:visible;visibility:visible;opacity:1;isolation:auto;mix-blend-mode:normal;color-interpolation:sRGB;color-interpolation-filters:linearRGB;solid-color:#000000;solid-opacity:1;fill:#ffffff;fill-opacity:1;fill-rule:nonzero;stroke:none;stroke-width:2.80699992;stroke-linecap:round;stroke-linejoin:round;stroke-miterlimit:4;stroke-dasharray:none;stroke-dashoffset:0;stroke-opacity:1;marker:none;color-rendering:auto;image-rendering:auto;shape-rendering:auto;text-rendering:auto;enable-background:accumulate" />
      <path
         inkscape:connector-curvature="0"
         id="path4311"
         d="m 1039.4527,2964.1379 c -0.5409,15.2986 -13.0338,23.2853 -22.0487,31.8066 -2.0992,3.518 8.8439,-0.5172 11.175,-2.5548 8.1472,-5.2467 15.6031,-16.179 12.3387,-27.837 -0.4883,-0.4715 -0.9767,-0.9432 -1.465,-1.4148 z"
         style="color:#000000;clip-rule:nonzero;display:inline;overflow:visible;visibility:visible;opacity:1;isolation:auto;mix-blend-mode:normal;color-interpolation:sRGB;color-interpolation-filters:linearRGB;solid-color:#000000;solid-opacity:1;fill:#ffffff;fill-opacity:1;fill-rule:nonzero;stroke:none;stroke-width:2.80699992;stroke-linecap:round;stroke-linejoin:round;stroke-miterlimit:4;stroke-dasharray:none;stroke-dashoffset:0;stroke-opacity:1;marker:none;color-rendering:auto;image-rendering:auto;shape-rendering:auto;text-rendering:auto;enable-background:accumulate" />
      <path
         inkscape:connector-curvature="0"
         id="path4313"
         d="m 977.49661,2976.7352 c -5.40903,-1.6537 -12.12643,9.4129 -8.63092,12.5071 1.08104,-6.3799 11.14222,-5.7448 8.63092,-12.5071 z"
         style="color:#000000;clip-rule:nonzero;display:inline;overflow:visible;visibility:visible;opacity:1;isolation:auto;mix-blend-mode:normal;color-interpolation:sRGB;color-interpolation-filters:linearRGB;solid-color:#000000;solid-opacity:1;fill:#ffffff;fill-opacity:1;fill-rule:nonzero;stroke:none;stroke-width:2.80699992;stroke-linecap:round;stroke-linejoin:round;stroke-miterlimit:4;stroke-dasharray:none;stroke-dashoffset:0;stroke-opacity:1;marker:none;color-rendering:auto;image-rendering:auto;shape-rendering:auto;text-rendering:auto;enable-background:accumulate" />
      <path
         inkscape:connector-curvature="0"
         id="path4315"
         d="m 1040.8009,2925.8077 c -0.1371,-8.5043 -6.0052,-15.8988 -11.7091,-20.8974 -6.9753,-1.1353 3.2847,8.1125 3.8442,11.7317 2.0095,3.3031 3.7184,9.1955 7.8649,9.1657 z"
         style="color:#000000;clip-rule:nonzero;display:inline;overflow:visible;visibility:visible;opacity:1;isolation:auto;mix-blend-mode:normal;color-interpolation:sRGB;color-interpolation-filters:linearRGB;solid-color:#000000;solid-opacity:1;fill:#ffffff;fill-opacity:1;fill-rule:nonzero;stroke:none;stroke-width:2.80699992;stroke-linecap:round;stroke-linejoin:round;stroke-miterlimit:4;stroke-dasharray:none;stroke-dashoffset:0;stroke-opacity:1;marker:none;color-rendering:auto;image-rendering:auto;shape-rendering:auto;text-rendering:auto;enable-background:accumulate" />
      <path
         inkscape:connector-curvature="0"
         id="path4317"
         d="m 1041.7528,2908.9857 c -0.8976,-4.5727 -10.3389,-13.636 -11.6416,-10.7889 4.0412,2.0185 6.8964,19.3473 11.6416,10.7889 z"
         style="color:#000000;clip-rule:nonzero;display:inline;overflow:visible;visibility:visible;opacity:1;isolation:auto;mix-blend-mode:normal;color-interpolation:sRGB;color-interpolation-filters:linearRGB;solid-color:#000000;solid-opacity:1;fill:#ffffff;fill-opacity:1;fill-rule:nonzero;stroke:none;stroke-width:2.80699992;stroke-linecap:round;stroke-linejoin:round;stroke-miterlimit:4;stroke-dasharray:none;stroke-dashoffset:0;stroke-opacity:1;marker:none;color-rendering:auto;image-rendering:auto;shape-rendering:auto;text-rendering:auto;enable-background:accumulate" />
    </g>
    <g
       id="g3487"
       transform="matrix(1.0311685,0,0,1,-33.629633,0)">
      <g
         style="display:inline;opacity:1;fill:#ffffff;fill-opacity:1"
         transform="matrix(1.1175556,0.1528418,-0.22733454,1.1392281,200.31774,-1231.9554)"
         id="g5381">
        <path
           sodipodi:nodetypes="csccccccccsccccssccccccsssssscssscc"
           style="color:#000000;display:inline;overflow:visible;visibility:visible;fill:#ffffff;fill-opacity:1;fill-rule:nonzero;stroke:none;stroke-width:1px;marker:none;enable-background:accumulate"
           d="m 1225.2771,3157.962 c -4.7051,-6.6655 -4.7051,-15.2915 -4.7051,-16.8598 0,-1.5684 0.3921,-7.4497 0.3921,-7.4497 l -3.1367,-1.1763 2.7446,-5.0971 -3.1367,0.3921 c 0,0 7.4497,-9.0181 9.018,-11.7627 1.5684,-2.7446 4.313,-9.018 4.313,-9.018 0,0 14.5073,-1.9605 17.644,-3.1368 3.1367,-1.1762 12.5468,-11.3705 12.5468,-11.3705 0,0 11.3706,5.4892 15.6836,6.2734 4.3129,0.7842 24.3095,1.9604 27.8383,0 3.5288,-1.9605 7.0576,-4.7051 7.0576,-4.7051 0,0 9.018,-0.7841 11.3705,-1.9604 2.3526,-1.1763 6.6655,-3.9209 6.6655,-3.9209 0,0 7.4497,0.7842 10.5864,0.3921 3.1367,-0.3921 17.644,0 19.2124,0 1.5683,0 12.5468,6.6655 12.5468,6.6655 l 7.0576,6.6655 c 0,0 5.8813,-0.3921 8.626,-1.1763 2.7446,-0.7841 5.0971,3.1367 5.0971,3.1367 0,0 10.5864,23.9175 12.1548,28.6225 1.5683,4.7051 2.3525,14.1152 2.3525,14.1152 0,0 -4.313,7.4497 -6.6655,10.5864 -2.3525,3.1367 -9.018,10.5864 -12.5468,13.331 -3.5288,2.7446 -7.8418,7.0576 -12.1548,4.313 -4.313,-2.7446 -8.6259,-2.3525 -10.1943,-0.3921 -1.5684,1.9604 -11.8039,13.5779 -15.7248,12.0095 -3.9209,-1.5684 -10.9988,-3.9226 -14.9197,-7.4514 -3.9209,-3.5288 -17.5824,6.8125 -20.327,4.4599 -2.7446,-2.3525 -6.6655,-6.6655 -9.4102,-6.6655 -2.7446,0 -35.68,9.8023 -39.6009,8.2339 -3.9209,-1.5684 -24.7016,-14.5073 -27.0541,-16.0756 -2.3526,-1.5684 -8.2339,-10.9785 -8.2339,-10.9785 z"
           id="path5263"
           inkscape:connector-curvature="0" />
        <path
           sodipodi:nodetypes="cccccccccc"
           style="color:#000000;font-style:normal;font-variant:normal;font-weight:normal;font-stretch:normal;font-size:medium;line-height:normal;font-family:Sans;-inkscape-font-specification:Sans;text-indent:0;text-align:start;text-decoration:none;text-decoration-line:none;letter-spacing:normal;word-spacing:normal;text-transform:none;direction:ltr;block-progression:tb;writing-mode:lr-tb;baseline-shift:baseline;text-anchor:start;display:inline;overflow:visible;visibility:visible;fill:#ffffff;fill-opacity:1;fill-rule:nonzero;stroke:none;stroke-width:1px;marker:none;enable-background:accumulate"
           d="m 1236.8125,3095.4062 c -0.053,0.01 -0.1046,0.019 -0.1563,0.031 l -9.875,1.375 c -0.5664,0.074 -1.0819,0.3653 -1.4374,0.8125 l -12.9688,16.3438 c -1.8333,2.3125 1.6355,5.0625 3.4688,2.75 l 12.375,-15.6876 9.111,-3.4944 c 2.7893,-0.3937 2.2948,-2.297 -0.5173,-2.1306 z"
           id="path5271"
           inkscape:connector-curvature="0" />
        <path
           sodipodi:nodetypes="cccccccccccc"
           style="color:#000000;font-style:normal;font-variant:normal;font-weight:normal;font-stretch:normal;font-size:medium;line-height:normal;font-family:Sans;-inkscape-font-specification:Sans;text-indent:0;text-align:start;text-decoration:none;text-decoration-line:none;letter-spacing:normal;word-spacing:normal;text-transform:none;direction:ltr;block-progression:tb;writing-mode:lr-tb;baseline-shift:baseline;text-anchor:start;display:inline;overflow:visible;visibility:visible;fill:#ffffff;fill-opacity:1;fill-rule:nonzero;stroke:none;stroke-width:1px;marker:none;enable-background:accumulate"
           d="m 1252.1562,3077.3125 c -0.649,0.047 -1.244,0.3788 -1.625,0.9063 l -7.8124,10.5312 -11.3438,-5.0625 c -0.7671,-0.3468 -1.6649,-0.2255 -2.3125,0.3125 l -14.6563,12.2812 c -2.4947,1.8493 0.5439,5.4954 2.8126,3.375 l 13.5937,-11.4062 11.7187,5.25 c 0.9445,0.412 2.0484,0.1133 2.6563,-0.7188 l 8.037,-13.4205 c 1.1526,-1.5067 0.8237,-2.1851 -1.0683,-2.0482 z"
           id="path5273"
           inkscape:connector-curvature="0" />
        <path
           sodipodi:nodetypes="cccccccccccc"
           style="color:#000000;font-style:normal;font-variant:normal;font-weight:normal;font-stretch:normal;font-size:medium;line-height:normal;font-family:Sans;-inkscape-font-specification:Sans;text-indent:0;text-align:start;text-decoration:none;text-decoration-line:none;letter-spacing:normal;word-spacing:normal;text-transform:none;direction:ltr;block-progression:tb;writing-mode:lr-tb;baseline-shift:baseline;text-anchor:start;display:inline;overflow:visible;visibility:visible;fill:#ffffff;fill-opacity:1;fill-rule:nonzero;stroke:none;stroke-width:1px;marker:none;enable-background:accumulate"
           d="m 1267.9375,3079.7188 c -0.351,0.013 -0.6939,0.109 -1,0.2812 l -10.2187,5.4375 c -2.8742,1.2804 -0.605,5.544 2.0624,3.875 l 8.8126,-4.6563 6.3437,6.3438 c 0.3294,0.3327 0.7563,0.5516 1.2187,0.625 l 3.1345,-1.3807 c 3.0849,0.6795 3.0481,-2.4327 -0.1032,-2.6505 l -1.6875,-0.25 -6.9688,-6.9688 c -0.4199,-0.4264 -0.9953,-0.6633 -1.5937,-0.6562 z"
           id="path5275"
           inkscape:connector-curvature="0" />
        <path
           sodipodi:nodetypes="cccccccccc"
           style="color:#000000;font-style:normal;font-variant:normal;font-weight:normal;font-stretch:normal;font-size:medium;line-height:normal;font-family:Sans;-inkscape-font-specification:Sans;text-indent:0;text-align:start;text-decoration:none;text-decoration-line:none;letter-spacing:normal;word-spacing:normal;text-transform:none;direction:ltr;block-progression:tb;writing-mode:lr-tb;baseline-shift:baseline;text-anchor:start;display:inline;overflow:visible;visibility:visible;fill:#ffffff;fill-opacity:1;fill-rule:nonzero;stroke:none;stroke-width:1px;marker:none;enable-background:accumulate"
           d="m 1265.2812,3072.9062 c -2.5126,0.2333 -2.7193,3.8238 -0.25,4.3438 l 14.375,3.8438 6.8551,8.543 c 1.3125,2.6249 3.0824,1.4256 1.7699,-1.1993 l -5.125,-10.2187 c -0.2798,-0.5704 -0.7925,-0.992 -1.4062,-1.1563 L 1266.1562,3073 c -0.2824,-0.09 -0.58,-0.1219 -0.875,-0.094 z"
           id="path5277"
           inkscape:connector-curvature="0" />
        <path
           sodipodi:nodetypes="cccccc"
           style="color:#000000;font-style:normal;font-variant:normal;font-weight:normal;font-stretch:normal;font-size:medium;line-height:normal;font-family:Sans;-inkscape-font-specification:Sans;text-indent:0;text-align:start;text-decoration:none;text-decoration-line:none;letter-spacing:normal;word-spacing:normal;text-transform:none;direction:ltr;block-progression:tb;writing-mode:lr-tb;baseline-shift:baseline;text-anchor:start;display:inline;overflow:visible;visibility:visible;fill:#ffffff;fill-opacity:1;fill-rule:nonzero;stroke:none;stroke-width:1px;marker:none;enable-background:accumulate"
           d="m 1343.875,3078.6875 c -0.2717,0.024 -0.5366,0.098 -0.7812,0.2187 l -4.4376,2.0626 c -3.0843,1.0553 -1.8531,3.8515 0.9426,2.175 l 5.3387,-0.2376 c 2.3246,-0.9763 1.4472,-4.46 -1.0625,-4.2187 z"
           id="path5279"
           inkscape:connector-curvature="0" />
        <path
           sodipodi:nodetypes="sscccccs"
           style="color:#000000;font-style:normal;font-variant:normal;font-weight:normal;font-stretch:normal;font-size:medium;line-height:normal;font-family:Sans;-inkscape-font-specification:Sans;text-indent:0;text-align:start;text-decoration:none;text-decoration-line:none;letter-spacing:normal;word-spacing:normal;text-transform:none;direction:ltr;block-progression:tb;writing-mode:lr-tb;baseline-shift:baseline;text-anchor:start;display:inline;overflow:visible;visibility:visible;fill:#ffffff;fill-opacity:1;fill-rule:nonzero;stroke:none;stroke-width:1px;marker:none;enable-background:accumulate"
           d="m 1353.5625,3079.375 c -2.9375,0 -3.1534,5.1954 -0.2229,5.0779 l 16.7542,-0.6717 9.7927,7.1201 c 2.1875,1.9588 4.2702,-0.4741 2.0823,-2.4325 l -9.5626,-8.5313 c -0.4035,-0.362 -0.9266,-0.5624 -1.4687,-0.5625 z"
           id="path5281"
           inkscape:connector-curvature="0" />
        <path
           sodipodi:nodetypes="cccccccccc"
           style="color:#000000;font-style:normal;font-variant:normal;font-weight:normal;font-stretch:normal;font-size:medium;line-height:normal;font-family:Sans;-inkscape-font-specification:Sans;text-indent:0;text-align:start;text-decoration:none;text-decoration-line:none;letter-spacing:normal;word-spacing:normal;text-transform:none;direction:ltr;block-progression:tb;writing-mode:lr-tb;baseline-shift:baseline;text-anchor:start;display:inline;overflow:visible;visibility:visible;fill:#ffffff;fill-opacity:1;fill-rule:nonzero;stroke:none;stroke-width:1px;marker:none;enable-background:accumulate"
           d="m 1365,3069.8438 c -2.9378,0.062 -2.8438,4.4693 0.094,4.4062 l 10,0.3125 6.2206,4.1383 c 1.998,2.1997 3.8644,0.1343 1.8106,-2.0133 l -5.4688,-5.8125 c -0.3995,-0.4225 -0.95,-0.6697 -1.5312,-0.6875 l -10.9062,-0.3437 c -0.073,0 -0.1459,0 -0.2188,0 z"
           id="path5283"
           inkscape:connector-curvature="0" />
        <path
           sodipodi:nodetypes="cccccccccc"
           style="color:#000000;font-style:normal;font-variant:normal;font-weight:normal;font-stretch:normal;font-size:medium;line-height:normal;font-family:Sans;-inkscape-font-specification:Sans;text-indent:0;text-align:start;text-decoration:none;text-decoration-line:none;letter-spacing:normal;word-spacing:normal;text-transform:none;direction:ltr;block-progression:tb;writing-mode:lr-tb;baseline-shift:baseline;text-anchor:start;display:inline;overflow:visible;visibility:visible;fill:#ffffff;fill-opacity:1;fill-rule:nonzero;stroke:none;stroke-width:1px;marker:none;enable-background:accumulate"
           d="m 1397.4375,3095.0625 c -2.6759,0.091 -2.5495,2.1775 0.099,2.5732 l 15.1514,4.3018 2.125,12.0937 c 0.5208,2.8958 4.8645,2.1146 4.3437,-0.7812 l -2.4062,-13.625 c -0.1656,-0.9179 -0.8919,-1.6317 -1.8125,-1.7812 l -17.0625,-2.75 c -0.1444,-0.025 -0.291,-0.035 -0.4375,-0.031 z"
           id="path5285"
           inkscape:connector-curvature="0" />
        <path
           sodipodi:nodetypes="ccccccccc"
           style="color:#000000;font-style:normal;font-variant:normal;font-weight:normal;font-stretch:normal;font-size:medium;line-height:normal;font-family:Sans;-inkscape-font-specification:Sans;text-indent:0;text-align:start;text-decoration:none;text-decoration-line:none;letter-spacing:normal;word-spacing:normal;text-transform:none;direction:ltr;block-progression:tb;writing-mode:lr-tb;baseline-shift:baseline;text-anchor:start;display:inline;overflow:visible;visibility:visible;fill:#ffffff;fill-opacity:1;fill-rule:nonzero;stroke:none;stroke-width:1px;marker:none;enable-background:accumulate"
           d="m 1397.875,3101.1875 c -2.3206,-0.025 -3.0946,3.0941 -1.0312,4.1563 l 3.5937,1.9062 5.875,22.9688 c 0.7292,2.8542 3.3019,2.1492 2.5727,-0.705 l -4.4477,-24.2638 c -0.1578,-0.5903 -0.554,-1.0884 -1.0937,-1.375 l -4.4063,-2.4062 c -0.3247,-0.1821 -0.6902,-0.2789 -1.0625,-0.2813 z"
           id="path5287"
           inkscape:connector-curvature="0" />
        <path
           sodipodi:nodetypes="ccccccccc"
           style="color:#000000;font-style:normal;font-variant:normal;font-weight:normal;font-stretch:normal;font-size:medium;line-height:normal;font-family:Sans;-inkscape-font-specification:Sans;text-indent:0;text-align:start;text-decoration:none;text-decoration-line:none;letter-spacing:normal;word-spacing:normal;text-transform:none;direction:ltr;block-progression:tb;writing-mode:lr-tb;baseline-shift:baseline;text-anchor:start;display:inline;overflow:visible;visibility:visible;fill:#ffffff;fill-opacity:1;fill-rule:nonzero;stroke:none;stroke-width:1px;marker:none;enable-background:accumulate"
           d="m 1412.125,3144.4688 c -0.9591,0.041 -1.7811,0.6982 -2.0312,1.625 l -2.9688,10.1874 -3.875,5.5313 c -1.8826,2.4274 0.2658,3.9104 1.9173,1.3203 l 5.7702,-4.5703 c 0.1398,-0.1999 0.2454,-0.4217 0.3125,-0.6563 l 3.0625,-10.5937 c 0.4441,-1.4482 -0.6739,-2.9015 -2.1875,-2.8437 z"
           id="path5289"
           inkscape:connector-curvature="0" />
        <path
           sodipodi:nodetypes="ccccccccc"
           style="color:#000000;font-style:normal;font-variant:normal;font-weight:normal;font-stretch:normal;font-size:medium;line-height:normal;font-family:Sans;-inkscape-font-specification:Sans;text-indent:0;text-align:start;text-decoration:none;text-decoration-line:none;letter-spacing:normal;word-spacing:normal;text-transform:none;direction:ltr;block-progression:tb;writing-mode:lr-tb;baseline-shift:baseline;text-anchor:start;display:inline;overflow:visible;visibility:visible;fill:#ffffff;fill-opacity:1;fill-rule:nonzero;stroke:none;stroke-width:1px;marker:none;enable-background:accumulate"
           d="m 1417.4062,3142.0938 c -1.0392,0.1213 -1.8492,0.9575 -1.9374,2 l -1,9.5624 -3.2813,7.9063 c -1.2238,2.7484 0.9066,3.9744 1.9903,1.1678 l 5.4784,-7.6678 c 0.083,-0.1995 0.1351,-0.4101 0.1563,-0.625 l 1.0313,-9.875 c 0.1844,-1.4201 -1.0153,-2.6351 -2.4376,-2.4687 z"
           id="path5291"
           inkscape:connector-curvature="0" />
        <path
           sodipodi:nodetypes="ccccccccc"
           style="color:#000000;font-style:normal;font-variant:normal;font-weight:normal;font-stretch:normal;font-size:medium;line-height:normal;font-family:Sans;-inkscape-font-specification:Sans;text-indent:0;text-align:start;text-decoration:none;text-decoration-line:none;letter-spacing:normal;word-spacing:normal;text-transform:none;direction:ltr;block-progression:tb;writing-mode:lr-tb;baseline-shift:baseline;text-anchor:start;display:inline;overflow:visible;visibility:visible;fill:#ffffff;fill-opacity:1;fill-rule:nonzero;stroke:none;stroke-width:1px;marker:none;enable-background:accumulate"
           d="m 1392.258,3172.3975 c -0.351,0.013 -1,0.2813 -1,0.2813 l -7.125,3.875 -7.3437,0.6562 c -3.1313,0.063 -2.7214,4.8457 0.375,4.375 l 7.8437,-0.6875 c 0.3059,-0.021 0.6039,-0.1066 0.875,-0.25 l 8.0065,-5.119 c 2.1196,-1.0821 0.7445,-3.2657 -1.6315,-3.131 z"
           id="path5293"
           inkscape:connector-curvature="0" />
        <path
           sodipodi:nodetypes="cccccccccccc"
           style="color:#000000;font-style:normal;font-variant:normal;font-weight:normal;font-stretch:normal;font-size:medium;line-height:normal;font-family:Sans;-inkscape-font-specification:Sans;text-indent:0;text-align:start;text-decoration:none;text-decoration-line:none;letter-spacing:normal;word-spacing:normal;text-transform:none;direction:ltr;block-progression:tb;writing-mode:lr-tb;baseline-shift:baseline;text-anchor:start;display:inline;overflow:visible;visibility:visible;fill:#ffffff;fill-opacity:1;fill-rule:nonzero;stroke:none;stroke-width:1px;marker:none;enable-background:accumulate"
           d="m 1280.7221,3188.5748 c -0.4982,-0.2647 -1.0898,0.1011 -1.6873,0.2377 l -9.4568,5.0098 -11.166,-4.9199 -7.8481,-7.3221 c -0.8757,-2.5874 -2.2771,-0.2485 -1.4013,2.3389 l 5.8014,8.0075 c 0.108,0.3279 0.5511,0.4423 0.829,0.6681 l 12.6908,5.6184 c 0.5337,0.4324 1.3256,0.06 2.0722,-0.1113 3.6662,-1.0699 3.4682,-3.4305 9.9622,-6.6196 2.0978,-0.4518 1.9543,-1.9874 0.2039,-2.9075 z"
           id="path5295"
           inkscape:connector-curvature="0" />
        <path
           sodipodi:nodetypes="cccccccccccc"
           style="color:#000000;font-style:normal;font-variant:normal;font-weight:normal;font-stretch:normal;font-size:medium;line-height:normal;font-family:Sans;-inkscape-font-specification:Sans;text-indent:0;text-align:start;text-decoration:none;text-decoration-line:none;letter-spacing:normal;word-spacing:normal;text-transform:none;direction:ltr;block-progression:tb;writing-mode:lr-tb;baseline-shift:baseline;text-anchor:start;display:inline;overflow:visible;visibility:visible;fill:#ffffff;fill-opacity:1;fill-rule:nonzero;stroke:none;stroke-width:1px;marker:none;enable-background:accumulate"
           d="m 1299.0938,3181.6562 c -1.9894,0.1923 -2.7125,2.7233 -1.125,3.9376 l 11.9374,9.5312 c 0.4208,0.3468 0.9553,0.525 1.5,0.5 l 5.4688,-0.3438 c 0.5905,-0.034 1.1423,-0.3044 1.5312,-0.75 l 2.375,-2.7187 c 1.9375,-2.2083 -0.191,-3.9463 -2.1285,-1.7381 l -2.9652,0.8631 -3.6875,0.2187 -11.2812,-9 c -0.4528,-0.3777 -1.0382,-0.5578 -1.625,-0.5 z"
           id="path5297"
           inkscape:connector-curvature="0" />
        <path
           style="color:#000000;font-style:normal;font-variant:normal;font-weight:normal;font-stretch:normal;font-size:medium;line-height:normal;font-family:Sans;-inkscape-font-specification:Sans;text-indent:0;text-align:start;text-decoration:none;text-decoration-line:none;letter-spacing:normal;word-spacing:normal;text-transform:none;direction:ltr;block-progression:tb;writing-mode:lr-tb;baseline-shift:baseline;text-anchor:start;display:inline;overflow:visible;visibility:visible;fill:#ffffff;fill-opacity:1;fill-rule:nonzero;stroke:none;stroke-width:1px;marker:none;enable-background:accumulate"
           d="m 1229.0625,3164.9375 a 2.20022,2.20022 0 0 0 -1.3125,3.9375 l 3.4062,2.75 a 2.201074,2.201074 0 1 0 2.75,-3.4375 l -3.4062,-2.75 a 2.20022,2.20022 0 0 0 -1.4375,-0.5 z"
           id="path5301"
           inkscape:connector-curvature="0" />
      </g>
      <path
         inkscape:connector-curvature="0"
         id="path4295"
         d="m 1044.2402,2585.0971 c -4.4784,8.3374 -15.4293,8.788 -21.4746,15.2859 5.7949,6.8978 14.8495,-2.0477 20.5137,-5.6272 2.9757,-2.0944 5.2706,-7.1056 0.9609,-9.6587 z"
         style="color:#000000;clip-rule:nonzero;display:inline;overflow:visible;visibility:visible;opacity:1;isolation:auto;mix-blend-mode:normal;color-interpolation:sRGB;color-interpolation-filters:linearRGB;solid-color:#000000;solid-opacity:1;fill:#ffffff;fill-opacity:1;fill-rule:nonzero;stroke:none;stroke-width:2.80699992;stroke-linecap:round;stroke-linejoin:round;stroke-miterlimit:4;stroke-dasharray:none;stroke-dashoffset:0;stroke-opacity:1;marker:none;color-rendering:auto;image-rendering:auto;shape-rendering:auto;text-rendering:auto;enable-background:accumulate" />
      <path
         inkscape:connector-curvature="0"
         id="path4297"
         d="m 838.01363,2551.4901 c -3.91523,-6.7821 -5.95361,-15.045 -3.86702,-22.5868 2.65752,-5.6153 5.33509,-2.5587 4.02293,2.0566 0.10065,6.6089 1.23208,13.1512 1.85409,19.7253 -0.67001,0.2683 -1.34,0.5365 -2.01,0.8049 z"
         style="color:#000000;clip-rule:nonzero;display:inline;overflow:visible;visibility:visible;opacity:1;isolation:auto;mix-blend-mode:normal;color-interpolation:sRGB;color-interpolation-filters:linearRGB;solid-color:#000000;solid-opacity:1;fill:#ffffff;fill-opacity:1;fill-rule:nonzero;stroke:none;stroke-width:2.80699992;stroke-linecap:round;stroke-linejoin:round;stroke-miterlimit:4;stroke-dasharray:none;stroke-dashoffset:0;stroke-opacity:1;marker:none;color-rendering:auto;image-rendering:auto;shape-rendering:auto;text-rendering:auto;enable-background:accumulate" />
    </g>
  </g>
  <g
     inkscape:groupmode="layer"
     id="layer1"
     inkscape:label="txt">
    <g
       inkscape:groupmode="layer"
       id="layer5"
       inkscape:label="frame01">
      <text
         xml:space="preserve"
         style="font-style:normal;font-variant:normal;font-weight:normal;font-stretch:normal;line-height:0%;font-family:Lavi;-inkscape-font-specification:Lavi;text-align:center;letter-spacing:0px;word-spacing:0px;text-anchor:middle;fill:#b17d62;fill-opacity:1;stroke:none"
         x="385.33896"
         y="216.39122"
         id="text4246"><tspan
           sodipodi:role="line"
           style="font-size:45px;line-height:1.25;fill:#b17d62;fill-opacity:1"
           x="392.37021"
           y="216.39122"
           id="tspan3579">Am presimțirea că </tspan><tspan
           sodipodi:role="line"
           style="font-size:45px;line-height:1.25;fill:#b17d62;fill-opacity:1"
           x="385.33896"
           y="272.82681"
           id="tspan134">noi doi o să ne înțelegem</tspan><tspan
           sodipodi:role="line"
           style="font-size:45px;line-height:1.25;fill:#b17d62;fill-opacity:1"
           x="392.37021"
           y="329.26242"
           id="tspan136">de minune! </tspan></text>
      <text
         xml:space="preserve"
         style="font-style:normal;font-variant:normal;font-weight:normal;font-stretch:normal;line-height:0%;font-family:Lavi;-inkscape-font-specification:Lavi;text-align:center;letter-spacing:0px;word-spacing:0px;text-anchor:middle;fill:#b17d62;fill-opacity:1;stroke:none"
         x="377.7504"
         y="430.81082"
         id="text4246-3"><tspan
           sodipodi:role="line"
           style="font-size:45px;line-height:1.25;fill:#b17d62;fill-opacity:1"
           x="384.78165"
           y="430.81082"
           id="tspan3608">...și știu deja cum </tspan><tspan
           sodipodi:role="line"
           style="font-size:45px;line-height:1.25;fill:#b17d62;fill-opacity:1"
           x="384.78165"
           y="487.24643"
           id="tspan147">o să te numesc! </tspan></text>
    </g>
    <g
       inkscape:groupmode="layer"
       id="layer6"
       inkscape:label="frame04">
      <text
         xml:space="preserve"
         style="font-style:normal;font-variant:normal;font-weight:normal;font-stretch:normal;line-height:0%;font-family:Lavi;-inkscape-font-specification:Lavi;text-align:center;letter-spacing:0px;word-spacing:0px;text-anchor:middle;fill:#000000;fill-opacity:1;stroke:none"
         x="1439.0492"
         y="1460.3228"
         id="text4246-7-7"><tspan
           sodipodi:role="line"
           style="font-size:45px;line-height:1.25"
           x="1439.0492"
           y="1460.3228"
           id="tspan4432">Șii?</tspan><tspan
           sodipodi:role="line"
           style="font-size:45px;line-height:1.25"
           x="1439.0492"
           y="1516.7583"
           id="tspan3572">Ce amintire îți</tspan><tspan
           sodipodi:role="line"
           style="font-size:45px;line-height:1.25"
           x="1439.0492"
           y="1573.194"
           id="tspan151">trezește?!</tspan></text>
      <path
         style="fill:#ffaaaa;fill-opacity:1;fill-rule:evenodd;stroke:none;stroke-width:1px;stroke-linecap:butt;stroke-linejoin:miter;stroke-opacity:1"
         d="m 1347.3841,1465.713 c -6.1661,-0.6043 -12.2829,-1.2282 -17.6459,-4.4763 -5.3631,-3.2479 -10.4479,-6.9343 -12.6483,-11.7348 -2.2004,-4.8005 -1.9587,-9.1873 0.4979,-12.6343 4.3915,-6.1618 11.0643,-7.0426 18.4647,-2.5465 0.5073,-8.0462 5.5262,-11.8792 11.8886,-11.5028 4.0087,0.2372 7.6504,1.8768 9.9663,6.0403 2.3159,4.1636 3.2827,10.0903 1.8717,16.6196 -1.411,6.5293 -9.2407,15.5895 -12.395,20.2348 z"
         id="path4714"
         inkscape:connector-curvature="0"
         sodipodi:nodetypes="cssscsssc" />
      <path
         style="fill:#ffaaaa;fill-opacity:1;fill-rule:evenodd;stroke:none"
         d="m 1610.5111,1544.3536 c -2.9657,-2.9376 -5.8981,-5.865 -7.418,-9.9012 -1.5199,-4.0359 -2.7247,-8.1927 -1.9986,-11.7354 0.726,-3.5426 2.5588,-5.8267 5.1756,-6.6625 4.6777,-1.4942 8.4844,0.85 10.5761,6.4269 3.3949,-4.1626 7.492,-4.1243 10.6483,-1.2275 1.9886,1.8251 3.2409,4.2579 2.8227,7.5027 -0.4183,3.2449 -2.2231,6.8782 -5.4966,9.8333 -3.2736,2.955 -10.8643,4.5712 -14.3095,5.7637 z"
         id="path4714-3"
         inkscape:connector-curvature="0"
         sodipodi:nodetypes="cssscsssc" />
    </g>
    <g
       inkscape:groupmode="layer"
       id="layer7"
       inkscape:label="frame05">
      <text
         xml:space="preserve"
         style="color:#000000;font-style:normal;font-variant:normal;font-weight:normal;font-stretch:normal;line-height:0%;font-family:Arial;-inkscape-font-specification:Arial;letter-spacing:0px;word-spacing:0px;display:inline;overflow:visible;visibility:visible;opacity:1;fill:#000000;fill-opacity:1;fill-rule:nonzero;stroke:#000000;stroke-width:2.80699992;stroke-miterlimit:4;stroke-dasharray:none;stroke-opacity:1;marker:none;enable-background:accumulate"
         x="1997.8467"
         y="2377.1411"
         id="text4190-8"
         transform="matrix(0.94248685,0.04084103,-0.39405881,1.0439469,0,0)"><tspan
           sodipodi:role="line"
           id="tspan4192-5"
           x="2000.0305"
           y="2377.1411"
           style="font-style:normal;font-variant:normal;font-weight:normal;font-stretch:normal;font-size:54.99290848px;line-height:1.25;font-family:Lavi;-inkscape-font-specification:Lavi;text-align:center;letter-spacing:4.36773443px;text-anchor:middle;fill:#000000;fill-opacity:1;stroke:#000000;stroke-width:2.80699992;stroke-miterlimit:4;stroke-dasharray:none;stroke-opacity:1">Groo?</tspan></text>
      <text
         xml:space="preserve"
         style="font-style:normal;font-variant:normal;font-weight:normal;font-stretch:normal;line-height:0%;font-family:Lavi;-inkscape-font-specification:Lavi;text-align:center;letter-spacing:0px;word-spacing:0px;text-anchor:middle;opacity:0.8;fill:#756b4a;fill-opacity:1;stroke:none;stroke-width:1.60000002;stroke-miterlimit:4;stroke-dasharray:none;filter:url(#filter4666)"
         x="2176.2036"
         y="1681.5674"
         id="text4246-7-2"
         transform="matrix(0.86912926,0.02259503,-0.19378922,0.97539956,248.93856,1282.0072)"><tspan
           sodipodi:role="line"
           style="font-style:normal;font-variant:normal;font-weight:normal;font-stretch:normal;font-size:34.05346298px;line-height:1.25;font-family:Fondamento;-inkscape-font-specification:Fondamento;fill:#756b4a;fill-opacity:1;stroke:#756b4a;stroke-width:1.2107898;stroke-miterlimit:4;stroke-dasharray:none;stroke-opacity:1"
           x="2176.2036"
           y="1681.5674"
           id="tspan4342-8">HIPPIAH</tspan></text>
    </g>
    <g
       inkscape:groupmode="layer"
       id="layer8"
       inkscape:label="fin">
      <text
         xml:space="preserve"
         style="font-style:normal;font-variant:normal;font-weight:normal;font-stretch:normal;line-height:0%;font-family:Lavi;-inkscape-font-specification:Lavi;text-align:center;letter-spacing:0px;word-spacing:0px;text-anchor:middle;opacity:1;fill:#ffffff;fill-opacity:1;stroke:#ffffff;stroke-width:3.82200003;stroke-miterlimit:4;stroke-dasharray:none;stroke-opacity:1;filter:url(#filter5534)"
         x="2028.7821"
         y="2443.6147"
         id="text4213"
         transform="matrix(0.75304346,0,-0.11971288,1.3279446,3.0389056e-5,-12.841722)"><tspan
           sodipodi:role="line"
           id="tspan4215"
           x="2028.7821"
           y="2443.6147"
           style="font-size:63.55184174px;line-height:1.25;fill:#ffffff;stroke:#ffffff;stroke-width:3.82200003;stroke-miterlimit:4;stroke-dasharray:none">- SFÂRȘIT -</tspan></text>
      <text
         xml:space="preserve"
         style="font-style:normal;font-variant:normal;font-weight:normal;font-stretch:normal;line-height:0%;font-family:Lavi;-inkscape-font-specification:Lavi;text-align:center;letter-spacing:0px;word-spacing:0px;text-anchor:middle;fill:#ffffff;fill-opacity:1;stroke:#ffffff;filter:url(#filter5522)"
         x="1240.0964"
         y="3274.6868"
         id="text4246-42"><tspan
           sodipodi:role="line"
           style="font-size:36.73472214px;line-height:1.25;fill:#ffffff;stroke:#ffffff"
           x="1240.0964"
           y="3274.6868"
           id="tspan4252-9">08/2016 - www.peppercarrot.com - Artă &amp; Scenariu: David Revoy - Traducere: Alex Gryson</tspan></text>
      <text
         xml:space="preserve"
         style="color:#000000;font-style:normal;font-variant:normal;font-weight:normal;font-stretch:normal;line-height:0%;font-family:Lavi;-inkscape-font-specification:Lavi;text-indent:0;text-align:center;text-decoration:none;text-decoration-line:none;letter-spacing:0px;word-spacing:0px;text-transform:none;writing-mode:lr-tb;direction:ltr;baseline-shift:baseline;text-anchor:middle;display:inline;overflow:visible;visibility:visible;opacity:0.85500004;fill:#ffffff;fill-opacity:1;fill-rule:nonzero;stroke:#ffffff;filter:url(#filter5546-3);enable-background:accumulate"
         x="1242.8344"
         y="3313.4661"
         id="text4246-42-4-6"><tspan
           sodipodi:role="line"
           style="color:#000000;font-style:normal;font-variant:normal;font-weight:normal;font-stretch:normal;font-size:27.5px;line-height:125%;font-family:Lavi;-inkscape-font-specification:Lavi;text-indent:0;text-align:center;text-decoration:none;text-decoration-line:none;letter-spacing:0px;word-spacing:0px;text-transform:none;writing-mode:lr-tb;direction:ltr;baseline-shift:baseline;text-anchor:middle;display:inline;overflow:visible;visibility:visible;fill:#ffffff;fill-opacity:1;fill-rule:nonzero;stroke:#ffffff;enable-background:accumulate"
           x="1242.8344"
           y="3313.4661"
           id="tspan4252-9-9-2">Scenarii inspirate de două scenarii propuse de Craig Maloney: &quot;You found me, I Choose You&quot; și &quot;Visit from Hippiah&quot;.</tspan></text>
      <text
         xml:space="preserve"
         style="color:#000000;font-style:normal;font-variant:normal;font-weight:normal;font-stretch:normal;line-height:0%;font-family:Lavi;-inkscape-font-specification:Lavi;text-indent:0;text-align:center;text-decoration:none;text-decoration-line:none;letter-spacing:0px;word-spacing:0px;text-transform:none;writing-mode:lr-tb;direction:ltr;baseline-shift:baseline;text-anchor:middle;display:inline;overflow:visible;visibility:visible;opacity:0.85500004;fill:#ffffff;fill-opacity:1;fill-rule:nonzero;stroke:#ffffff;filter:url(#filter5546);enable-background:accumulate"
         x="1242.353"
         y="3350.7795"
         id="text4246-42-4"><tspan
           sodipodi:role="line"
           style="color:#000000;font-style:normal;font-variant:normal;font-weight:normal;font-stretch:normal;font-size:27.5px;line-height:125%;font-family:Lavi;-inkscape-font-specification:Lavi;text-indent:0;text-align:center;text-decoration:none;text-decoration-line:none;letter-spacing:0px;word-spacing:0px;text-transform:none;writing-mode:lr-tb;direction:ltr;baseline-shift:baseline;text-anchor:middle;display:inline;overflow:visible;visibility:visible;fill:#ffffff;fill-opacity:1;fill-rule:nonzero;stroke:#ffffff;enable-background:accumulate"
           x="1242.353"
           y="3350.7795"
           id="tspan4252-9-9">Bazat pe universul Hereva creat de David Revoy cu asistență de la Craig Maloney. Corecturi de Willem Sonke, Moini, Hali, CGand și Alex Gryson.</tspan></text>
      <text
         xml:space="preserve"
         style="font-style:normal;font-variant:normal;font-weight:normal;font-stretch:normal;line-height:0%;font-family:Arial;-inkscape-font-specification:Arial;text-align:center;letter-spacing:0px;word-spacing:0px;text-anchor:middle;display:inline;opacity:0.85500004;fill:#ffffff;fill-opacity:1;stroke:#ffffff;filter:url(#filter5558)"
         x="1240.6473"
         y="3388.5505"
         id="text4229"><tspan
           sodipodi:role="line"
           x="1240.6473"
           y="3388.5505"
           style="font-style:normal;font-variant:normal;font-weight:normal;font-stretch:normal;font-size:27.5px;line-height:1.25;font-family:Lavi;-inkscape-font-specification:Lavi;fill:#ffffff;stroke:#ffffff"
           id="tspan4169">Licență: Creative Commons Attribution 4.0, Software: Krita 3.0, Inkscape 0.91 on Manjaro XFCE</tspan></text>
    </g>
  </g>
</svg>
