<?xml version="1.0" encoding="UTF-8" standalone="no"?>
<svg
   xmlns:dc="http://purl.org/dc/elements/1.1/"
   xmlns:cc="http://creativecommons.org/ns#"
   xmlns:rdf="http://www.w3.org/1999/02/22-rdf-syntax-ns#"
   xmlns:svg="http://www.w3.org/2000/svg"
   xmlns="http://www.w3.org/2000/svg"
   xmlns:xlink="http://www.w3.org/1999/xlink"
   xmlns:sodipodi="http://sodipodi.sourceforge.net/DTD/sodipodi-0.dtd"
   xmlns:inkscape="http://www.inkscape.org/namespaces/inkscape"
   id="svg2"
   version="1.1"
   inkscape:version="0.92.2 (5c3e80d, 2017-08-06)"
   width="2481"
   height="3503"
   sodipodi:docname="E33P07.svg">
  <metadata
     id="metadata8">
    <rdf:RDF>
      <cc:Work
         rdf:about="">
        <dc:format>image/svg+xml</dc:format>
        <dc:type
           rdf:resource="http://purl.org/dc/dcmitype/StillImage" />
        <dc:title />
      </cc:Work>
    </rdf:RDF>
  </metadata>
  <defs
     id="defs6">
    <filter
       x="-0.14"
       width="1.22"
       height="1.38"
       inkscape:label="magic-numbers_orange"
       id="filter4375-4-1-1-1-9-5-8-8-3-3-3-6-1-6"
       style="color-interpolation-filters:sRGB">
      <feFlood
         radius="5.0999999999999996"
         result="flood"
         flood-color="rgb(216,88,33)"
         flood-opacity="1"
         id="feFlood4377-7-9-0-8-1-7-3-1-6-61-6-2-0-2" />
      <feComposite
         baseFrequency="0.053999999999999999 0.053999999999999999"
         result="composite1"
         operator="in"
         in="flood"
         in2="SourceGraphic"
         id="feComposite4379-3-8-8-2-77-4-1-0-7-2-7-6-6-6" />
      <feMorphology
         result="result3"
         radius="0.96959439099754563"
         operator="dilate"
         id="feMorphology4393-1-0-49-8-9-3-0-1-5-9-5-1-3-1" />
      <feComposite
         numOctaves="4"
         result="fbSourceGraphic"
         operator="over"
         in="SourceGraphic"
         in2="result3"
         id="feComposite4385-9-5-7-0-8-8-7-5-3-3-3-8-2-8" />
      <feColorMatrix
         id="feColorMatrix4544-9-5-1-5-7-0-7"
         values="0 0 0 -1 0 0 0 0 -1 0 0 0 0 -1 0 0 0 0 1 0"
         in="fbSourceGraphic"
         result="fbSourceGraphicAlpha" />
      <feTurbulence
         result="turbulence"
         baseFrequency="0.062 0.054054054054054057"
         seed="172"
         numOctaves="4.4123222748815163"
         type="fractalNoise"
         id="feTurbulence4546-3-6-9-6-9-6-9" />
      <feDisplacementMap
         result="fbSourceGraphic"
         xChannelSelector="R"
         yChannelSelector="G"
         scale="11.642079"
         in="fbSourceGraphic"
         in2="turbulence"
         id="feDisplacementMap4548-8-2-4-2-2-1-20" />
      <feColorMatrix
         scale="10.800000000000001"
         id="feColorMatrix4670-7-9-7-9-0-5-2"
         values="0 0 0 -1 0 0 0 0 -1 0 0 0 0 -1 0 0 0 0 1 0"
         in="fbSourceGraphic"
         result="fbSourceGraphicAlpha" />
      <feComposite
         result="composite1"
         operator="in"
         in="flood"
         in2="fbSourceGraphic"
         id="feComposite4674-8-2-4-1-2-5-3" />
      <feGaussianBlur
         result="blur"
         stdDeviation="0.01"
         in="composite1"
         id="feGaussianBlur4676-3-7-50-2-3-4-7" />
      <feOffset
         result="offset"
         dy="5.2374444725016502"
         dx="-0.42771311737301687"
         id="feOffset4678-6-0-3-7-7-7-5" />
      <feComposite
         result="composite2"
         operator="over"
         in="fbSourceGraphic"
         in2="offset"
         id="feComposite4680-4-9-6-0-5-6-9" />
      <feGaussianBlur
         stdDeviation="0.01"
         id="feGaussianBlur58-9-9-5-2" />
      <feOffset
         dx="0"
         dy="0"
         id="feOffset60-3-2-6-2" />
    </filter>
    <filter
       style="color-interpolation-filters:sRGB"
       id="filter4375-4-1-1-1-9-5-8-8-3-3-7-4-1"
       inkscape:label="magic-numbers_cyan"
       height="1.38"
       width="1.22"
       x="-0.14">
      <feFlood
         id="feFlood4377-7-9-0-8-1-7-3-1-6-61-3-5-4"
         flood-opacity="1"
         flood-color="rgb(15,126,119)"
         result="flood"
         radius="5.0999999999999996" />
      <feComposite
         id="feComposite4379-3-8-8-2-77-4-1-0-7-2-6-2-9"
         in2="SourceGraphic"
         in="flood"
         operator="in"
         result="composite1"
         baseFrequency="0.053999999999999999 0.053999999999999999" />
      <feMorphology
         id="feMorphology4393-1-0-49-8-9-3-0-1-5-9-1-5-2"
         operator="dilate"
         radius="0.96959439099754563"
         result="result3" />
      <feComposite
         id="feComposite4385-9-5-7-0-8-8-7-5-3-3-2-4-0"
         in2="result3"
         in="SourceGraphic"
         operator="over"
         result="fbSourceGraphic"
         numOctaves="4" />
      <feColorMatrix
         result="fbSourceGraphicAlpha"
         in="fbSourceGraphic"
         values="0 0 0 -1 0 0 0 0 -1 0 0 0 0 -1 0 0 0 0 1 0"
         id="feColorMatrix4544-9-5-1-9-7-6" />
      <feTurbulence
         id="feTurbulence4546-3-6-9-3-4-8"
         type="fractalNoise"
         numOctaves="4.4123222748815163"
         seed="172"
         baseFrequency="0.062 0.054054054054054057"
         result="turbulence" />
      <feDisplacementMap
         id="feDisplacementMap4548-8-2-4-1-4-9"
         in2="turbulence"
         in="fbSourceGraphic"
         scale="11.642079"
         yChannelSelector="G"
         xChannelSelector="R"
         result="fbSourceGraphic" />
      <feColorMatrix
         result="fbSourceGraphicAlpha"
         in="fbSourceGraphic"
         values="0 0 0 -1 0 0 0 0 -1 0 0 0 0 -1 0 0 0 0 1 0"
         id="feColorMatrix4670-7-9-7-9-3-2"
         scale="10.800000000000001" />
      <feComposite
         id="feComposite4674-8-2-4-4-0-6"
         in2="fbSourceGraphic"
         in="flood"
         operator="in"
         result="composite1" />
      <feGaussianBlur
         id="feGaussianBlur4676-3-7-50-7-7-6"
         in="composite1"
         stdDeviation="1.5865199271065846"
         result="blur" />
      <feOffset
         id="feOffset4678-6-0-3-8-8-4"
         dx="-0.42771311737301687"
         dy="5.2374444725016502"
         result="offset" />
      <feComposite
         id="feComposite4680-4-9-6-4-6-9"
         in2="offset"
         in="fbSourceGraphic"
         operator="over"
         result="composite2" />
      <feGaussianBlur
         id="feGaussianBlur58-5-8-5"
         stdDeviation="0.01" />
      <feOffset
         id="feOffset60-0-8-0"
         dy="0"
         dx="0" />
    </filter>
  </defs>
  <sodipodi:namedview
     pagecolor="#ffffff"
     bordercolor="#666666"
     borderopacity="1"
     objecttolerance="10"
     gridtolerance="10"
     guidetolerance="10"
     inkscape:pageopacity="0"
     inkscape:pageshadow="2"
     inkscape:window-width="1248"
     inkscape:window-height="1015"
     id="namedview4"
     showgrid="false"
     inkscape:zoom="0.43016842"
     inkscape:cx="1301.6429"
     inkscape:cy="762.80172"
     inkscape:window-x="664"
     inkscape:window-y="-3"
     inkscape:window-maximized="0"
     inkscape:current-layer="layer1"
     inkscape:document-rotation="0"
     inkscape:snap-global="false" />
  <g
     inkscape:groupmode="layer"
     id="layer2"
     inkscape:label="artwork"
     sodipodi:insensitive="true">
    <image
       sodipodi:absref="C:\Users\Kari\Documents\Pepper and Carrot\Episode 33\fi\../lang/en/./../gfx_Pepper-and-Carrot_by-David-Revoy_E33P07.png"
       xlink:href="../gfx_Pepper-and-Carrot_by-David-Revoy_E33P07.png"
       y="0"
       x="0"
       id="image10"
       height="3503"
       width="2481" />
  </g>
  <g
     inkscape:groupmode="layer"
     id="layer3"
     inkscape:label="speechbubbles">
    <path
       sodipodi:nodetypes="ccssssssc"
       inkscape:connector-curvature="0"
       id="path3278-1"
       d="m 934.43341,1024.3592 c -35.63387,0.3543 -71.10711,5.5262 -106.70799,6.9891 -28.32169,2.2768 -56.87489,9.9167 -82.33606,28.2999 -18.69541,12.9788 -36.38368,31.1381 -47.58238,56.7499 -14.04916,31.8873 -17.81717,73.7668 -7.58535,109.1897 8.92107,31.5625 25.30001,57.2269 42.48566,80.0584 11.88739,15.6607 25.96048,29.0428 41.98054,33.4679 15.5015,4.9633 31.19107,8.5196 46.81369,12.5384 64.91566,15.3421 130.93663,19.0297 196.48778,14.5437 28.3912,-2.5163 56.6285,-7.4466 84.9409,-11.1835 27.1527,-3.9734 54.7121,-7.0148 80.7354,-19.481 11.506,-5.3692 22.6984,-12.3947 32.6955,-22.2448 18.8222,-17.957 35.024,-42.6987 44.04,-72.7865 9.347,-32.1758 9.9998,-70.0237 0.3072,-102.4027 -9.5245,-30.4328 -26.6169,-55.0151 -46.1513,-72.4834 -20.7745,-18.1611 -44.8932,-26.9838 -68.925,-29.338 -42.8143,-7.7272 -85.9658,-10.0128 -129.0435,-10.6155 -27.38385,-0.7369 -54.76994,-1.0035 -82.15509,-1.3016 z"
       style="opacity:1;fill:#ffffff;stroke:none;stroke-width:1.03979802" />
    <path
       sodipodi:nodetypes="cccsscc"
       inkscape:connector-curvature="0"
       id="path3970-36-4-2-3"
       d="m 1850.1205,2629.2437 c -24.539,1.0059 -49.0264,2.8805 -73.475,4.8898 -40.9081,3.6744 -82.247,7.0898 -121.6913,17.2847 -17.3702,4.3289 -33.1204,12.7613 -45.686,23.5151 -11.7819,10.2785 -20.8429,23.2671 -22.617,37.5429 -3.7047,24.6708 9.2551,50.6298 33.3316,65.6403 27.2407,18.9736 62.3415,27.5489 96.6534,33.2696 41.6416,6.9794 84.0565,10.3321 126.4512,12.085 49.1089,1.1945 99.153,-1.4697 145.9847,-14.5816 25.5819,-7.6085 50.4042,-20.4059 64.2364,-40.3177 16.3057,-23.4259 15.8613,-54.5124 -2.7091,-76.9898 -16.5041,-21.1494 -43.461,-35.191 -71.6517,-43.6237 -31.2456,-9.4034 -64.25,-13.9471 -97.1327,-17.3425 -10.5288,-0.8952 -21.1077,-1.411 -31.6945,-1.3721 z"
       style="color:#000000;display:inline;overflow:visible;visibility:visible;fill:#ffffff;fill-opacity:1;fill-rule:nonzero;stroke:none;stroke-width:1.13375676px;marker:none;enable-background:accumulate" />
    <path
       sodipodi:nodetypes="ccscc"
       inkscape:connector-curvature="0"
       id="path4440-3"
       d="m 1641.2419,2763.4115 c -108.6283,-52.869 -136.7629,50.9509 -219.7865,3.3934 64.8225,28.9401 124.6197,-90.8503 208.5357,-36.2563 33.5739,21.8425 26.7527,-34.846 26.7527,-34.846 z"
       style="color:#000000;display:inline;overflow:visible;visibility:visible;fill:#ffffff;fill-opacity:1;fill-rule:nonzero;stroke:none;stroke-width:1px;marker:none;enable-background:accumulate" />
    <path
       inkscape:connector-curvature="0"
       id="path1355"
       d="m 1814.4771,1704.6495 c 0.4448,-11.7403 5.7803,-33.2638 13.7838,-37.1773 8.0034,-3.9133 30.2352,-3.9133 34.6816,-1.9563 4.4462,1.9563 11.5605,16.3054 13.3391,22.1757 1.7786,5.87 6.6694,26.741 -1.334,35.2202 -8.0034,8.4791 -16.0069,15.0013 -24.4549,14.349 -8.4482,-0.6523 -25.3444,-5.2181 -29.346,-13.0443 -4.0019,-7.8268 -6.6696,-19.567 -6.6696,-19.567 z"
       style="fill:#ffffff;fill-rule:evenodd;stroke:none;stroke-width:1px;stroke-linecap:butt;stroke-linejoin:miter;stroke-opacity:1" />
    <path
       sodipodi:nodetypes="zssssz"
       inkscape:connector-curvature="0"
       id="path4040-4-5-3-6"
       d="m 214.04236,1891.0092 c 18.52405,-13.457 150.65071,-26.3446 188.1542,8.2519 31.30365,28.8772 29.29508,85.4493 0.62541,106.7119 -29.20801,21.6607 -140.51559,14.0102 -183.53635,3.6371 -40.51199,-9.7679 -39.77899,-33.3786 -38.67399,-74.5334 0.45101,-16.7961 14.90677,-30.6115 33.43073,-44.0675 z"
       style="color:#000000;display:inline;overflow:visible;visibility:visible;fill:#ffffff;fill-opacity:1;fill-rule:nonzero;stroke:none;stroke-width:0.999997px;marker:none;enable-background:accumulate" />
    <path
       sodipodi:nodetypes="ccscc"
       inkscape:connector-curvature="0"
       id="path4248"
       d="m 2188.3092,1563.8723 c 34.6776,75.0182 -2.1391,152.7694 -20.7926,179.1784 15.7673,-13.367 86.6043,-98.9813 59.3653,-176.0012 -19.1833,-54.242 -28.9658,-19.1371 -28.9658,-19.1371 z"
       style="fill:#ffffff;fill-rule:evenodd;stroke:none;stroke-width:0.999999px;stroke-linecap:butt;stroke-linejoin:miter;stroke-opacity:1" />
    <path
       sodipodi:nodetypes="zssssz"
       inkscape:connector-curvature="0"
       id="path4040-4-5-3"
       d="m 464.40225,1991.75 c -43.98184,0.4303 -88.43136,2.1946 -131.21106,12.8906 -16.59137,4.5215 -29.82917,15.66 -43.98209,24.5932 -9.2007,5.7349 -18.41067,11.8474 -25.20561,20.275 -5.35598,6.2581 -8.52343,13.9137 -10.50081,21.7282 -4.88559,18.4744 -2.8617,39.2745 8.42007,55.2849 10.45317,14.9844 27.27317,25.0269 45.15975,29.6966 26.48216,7.93 54.27599,10.0195 81.66678,13.1926 57.39426,5.5491 115.48506,7.2396 172.85259,0.4919 17.31526,-2.422 35.14158,-5.8712 49.96045,-15.3349 17.29791,-11.7606 27.56569,-31.3797 30.24229,-51.3429 3.04888,-21.1035 -3.08989,-43.4524 -17.39095,-59.8128 -14.45192,-17.4575 -34.95019,-29.463 -56.65991,-36.6949 -15.40523,-5.2355 -31.36365,-8.8851 -47.44421,-11.5706 -18.48047,-2.7773 -37.22379,-3.5695 -55.90729,-3.3969 z"
       style="color:#000000;display:inline;overflow:visible;visibility:visible;fill:#ffffff;fill-opacity:1;fill-rule:nonzero;stroke:none;stroke-width:1.01830125px;marker:none;enable-background:accumulate" />
    <path
       sodipodi:nodetypes="ccszc"
       inkscape:connector-curvature="0"
       id="path4064-3"
       d="m 350.69972,1902.0737 c 41.26622,-10.6222 105.42769,-33.765 58.36397,-103.5756 17.39224,9.6109 81.79336,86.4471 -32.06947,127.1196 -33.03955,11.8021 -26.40006,-1.4387 -31.37798,-6.8202 -4.97793,-5.3817 5.08348,-16.7238 5.08348,-16.7238 z"
       style="color:#000000;display:inline;overflow:visible;visibility:visible;opacity:1;fill:#ffffff;fill-opacity:1;fill-rule:nonzero;stroke:none;stroke-width:0.999997px;marker:none;enable-background:accumulate" />
    <path
       sodipodi:nodetypes="ccccccsscc"
       inkscape:connector-curvature="0"
       id="path1081"
       d="m 974.50752,1309.2692 c -35.82187,19.2298 -42.44405,25.0497 -51.67218,35.2517 -9.22809,10.2021 -10.71719,34.223 0.007,47.9588 10.72379,13.7357 7.97474,36.1368 -5.93755,41.9385 -13.91228,5.8017 -68.6801,26.3291 -30.10548,69.6789 -31.80797,-48.4001 27.22562,-50.2412 37.26612,-53.8355 20.96554,-7.326 32.38767,-21.6624 25.23114,-50.6365 -7.15657,-28.9741 -13.26827,-47.0437 37.16901,-61.4862 50.43712,-14.4425 -11.9577,-28.8697 -11.9577,-28.8697 z"
       style="fill:#ffffff;fill-rule:evenodd;stroke:none;stroke-width:0.999996px;stroke-linecap:butt;stroke-linejoin:miter;stroke-opacity:1" />
    <path
       sodipodi:nodetypes="ccscscc"
       inkscape:connector-curvature="0"
       id="path3992-0"
       d="m 1944.2637,988.58183 c -49.7481,0.39758 -100.0726,-1.54802 -149.0902,7.95064 -12.5306,2.37959 -24.8634,6.50033 -35.1957,13.69473 -18.1454,12.004 -32.2522,28.8019 -42.4843,47.1216 -19.6267,36.1662 -22.7401,80.201 -6.9525,118.1071 14.3832,31.5882 46.0078,55.1265 81.5134,63.0622 56.0637,14.7682 114.8074,16.4148 172.6887,16.2001 39.8965,-0.1923 79.7983,-1.0611 119.6919,-0.1673 46.0613,0.3428 92.0481,-2.9107 137.8439,-7.2539 23.2117,-2.0284 46.6553,-3.3886 69.3567,-8.6393 16.1823,-4.106 31.4903,-12.1891 42.2022,-24.4196 22.4266,-23.9614 31.8364,-56.3189 32.64,-87.6328 0.6395,-25.3847 -5.5093,-51.401 -20.6622,-72.7402 -19.6116,-28.1123 -52.9197,-47.6127 -88.6692,-51.3049 -38.1395,-5.57335 -76.7437,-7.25155 -115.1875,-10.02251 -52.5832,-3.28186 -105.3101,-3.78218 -157.9932,-3.93878 -13.234,-0.0194 -26.468,-0.0237 -39.702,-0.0171 z"
       style="color:#000000;display:inline;overflow:visible;visibility:visible;opacity:1;vector-effect:none;fill:#ffffff;fill-opacity:1;fill-rule:nonzero;stroke:none;stroke-width:1.0975039;stroke-linecap:butt;stroke-linejoin:miter;stroke-miterlimit:4;stroke-dasharray:none;stroke-dashoffset:0;stroke-opacity:1;marker:none;paint-order:stroke fill markers;enable-background:accumulate" />
    <path
       sodipodi:nodetypes="csssc"
       inkscape:connector-curvature="0"
       id="path3280-8-0-3"
       d="m 2153.5463,1217.5249 c -101.3097,2.4158 -202.3132,10.0948 -303.3351,16.7692 -15.3953,1.2079 -30.8161,5.2783 -43.2503,13.5175 -17.3257,10.8403 -29.4368,27.3043 -35.2525,45.0985 -9.4384,25.2206 -11.681,52.6269 -5.4532,78.6455 6.3077,22.7459 22.7877,42.8763 44.3591,56.5597 26.4238,17.8364 58.6826,27.9877 91.3732,32.804 33.0562,5.2357 66.6016,7.5587 100.09,9.4542 32.757,0.9743 65.5607,1.012 98.3125,-0.102 21.1272,-1.0443 41.9962,-4.5615 62.4082,-9.3359 24.8223,-5.0021 50.0866,-8.5761 75.5605,-9.5478 28.9593,-2.2415 58.3672,-7.3419 83.8209,-20.153 36.7686,-18.9361 61.1895,-55.5208 60.3988,-92.9741 -0.8471,-29.9639 -18.1102,-58.6194 -43.8654,-78.05 -25.0862,-19.0638 -56.9488,-29.9437 -89.1923,-35.7581 -31.5141,-5.7793 -63.8566,-7.0802 -95.9744,-6.9277 z"
       style="fill:#ffffff;stroke:none;stroke-width:1.07499611" />
    <path
       sodipodi:nodetypes="csssc"
       inkscape:connector-curvature="0"
       id="path3280-8-3"
       d="m 2038.4692,1508.2907 c -1.455,-18.5967 24.6313,-65.1514 151.8793,-61.6496 127.248,3.5018 167.0746,23.9568 170.8036,57.0125 5.8989,52.2927 -61.0461,66.2669 -157.1731,70.1404 -99.0966,3.9927 -167.0477,-31.9025 -165.5098,-65.5033 z"
       style="display:inline;fill:#ffffff;stroke:none;stroke-width:1.15058351" />
    <path
       sodipodi:nodetypes="zssssz"
       inkscape:connector-curvature="0"
       id="path4040-4-5-3-6-9"
       d="M 665.01953 2329.8574 C 632.86755 2330.7825 600.24052 2331.3395 569.03125 2339.9941 C 545.47886 2347.025 526.00387 2364.8466 514.70766 2386.4215 C 508.41521 2398.1509 507.47912 2411.7926 507.80261 2424.8498 C 508.34923 2438.3614 508.90865 2452.1411 513.49735 2465.006 C 518.14998 2479.0047 527.65823 2491.3001 540.12487 2499.207 C 551.26377 2506.5226 564.15966 2510.5942 577.15576 2513.1 C 591.43553 2516.3146 605.80573 2519.203 620.35716 2520.8836 C 639.50789 2523.0982 658.77197 2524.4019 678.04593 2524.7863 C 708.31178 2525.1924 739.33007 2522.1736 767.32604 2509.9317 C 785.80761 2501.8301 803.17171 2489.8945 814.91211 2473.2422 C 823.85608 2460.1083 828.25163 2443.8028 826.31055 2427.9648 C 824.6773 2409.654 817.76755 2392.0659 807.93552 2376.6424 C 794.12921 2356.8633 772.10522 2343.4958 748.5584 2338.8927 C 723.52023 2332.8043 697.71635 2330.3738 671.99751 2329.8478 C 669.67159 2329.8162 667.34553 2329.8529 665.01953 2329.8574 z "
       style="color:#000000;display:inline;overflow:visible;visibility:visible;fill:#ffffff;fill-opacity:1;fill-rule:nonzero;stroke:none;stroke-width:0.999999px;marker:none;enable-background:accumulate" />
    <path
       inkscape:transform-center-y="-44.934884"
       inkscape:transform-center-x="2.8585098"
       inkscape:connector-curvature="0"
       id="path4496-9"
       d="m 703.25853,2604.1619 c 5.74791,-18.2394 15.11069,-23.7603 -2.63313,-35.0414 -23.03586,-18.9893 -49.6494,-13.1342 -53.36056,-71.625 3.60381,-16.905 6.37301,-34.8451 22.50989,-40.1615 10.4995,-2.3974 21.75171,4.8293 22.24702,16.1202 0.34778,5.946 -3.23944,11.606 -7.58281,15.6001 -6.82528,8.7682 -8.75807,20.6527 -5.8829,30.4945 7.45665,22.1143 23.5538,29.0237 41.10442,37.1506 9.41557,9.8401 11.78207,17.5562 5.80293,30.6148 -26.3563,44.5568 16.67184,58.2897 35.27406,70.5123 -19.70092,-4.8478 -67.11382,-28.0517 -57.47892,-53.6646 z"
       style="color:#000000;display:inline;overflow:visible;visibility:visible;fill:#ffffff;fill-opacity:1;fill-rule:nonzero;stroke:none;stroke-width:1px;marker:none;enable-background:accumulate"
       sodipodi:nodetypes="ccccccccccc" />
    <path
       sodipodi:nodetypes="cccsscc"
       inkscape:connector-curvature="0"
       id="path3970-36-4"
       d="m 1462.0297,2511.2556 c -102.435,-1.4482 -145.6962,-18.5233 -170.9598,-44.0236 -25.2636,-25.5011 -4.2801,-66.671 40.1051,-81.2488 44.3852,-14.578 104.4368,-16.0552 173.948,-14.1261 125.6027,3.4884 212.5996,14.4781 222.4342,54.0223 9.7651,39.2626 1.9267,60.0931 -90.4011,78.7911 -86.9156,10.7602 -175.1264,6.5851 -175.1264,6.5851 z"
       style="color:#000000;display:inline;overflow:visible;visibility:visible;fill:#ffffff;fill-opacity:1;fill-rule:nonzero;stroke:none;stroke-width:1.23743px;marker:none;enable-background:accumulate" />
    <path
       style="color:#000000;display:inline;overflow:visible;visibility:visible;fill:#ffffff;fill-opacity:1;fill-rule:nonzero;stroke:none;stroke-width:1.29728866px;marker:none;enable-background:accumulate"
       d="m 1678.8133,2482.8694 c -34.6386,1.1705 -69.2837,2.3885 -103.8831,4.3406 -28.8047,1.5964 -57.5443,4.0038 -86.296,6.2222 -16.6219,1.1847 -33.0134,4.7437 -48.5524,10.2165 -14.8056,5.3706 -28.9374,12.7386 -40.5808,22.7171 -16.5696,15.2593 -22.981,38.9335 -16.3967,59.4934 3.6065,10.4989 10.1772,20.0549 18.2141,28.2168 12.4673,12.5325 28.9623,21.2745 46.4286,26.7279 28.4262,9.5519 58.2295,14.9248 87.6091,21.3948 34.1052,6.6793 69.1718,8.0703 103.9567,7.1697 27.9359,-0.4522 55.8748,-1.5455 83.713,-3.747 33.2348,-2.9898 66.4678,-8.0778 98.0954,-18.0658 21.0534,-6.8676 41.5758,-16.379 57.7063,-30.7086 12.2061,-11.9129 17.1178,-28.5749 17.4331,-44.5392 0.2213,-14.5806 -4.9133,-29.4648 -15.7355,-40.406 -13.8332,-14.5502 -33.2623,-23.586 -53.0231,-29.6489 -29.4849,-8.8882 -60.5899,-11.4675 -91.1974,-15.2959 -19.0633,-2.2658 -38.2332,-4.3076 -57.4913,-4.0876 z"
       id="path3970-36-4-2"
       inkscape:connector-curvature="0"
       sodipodi:nodetypes="cccsscc" />
    <path
       inkscape:connector-curvature="0"
       id="path3072-5-5"
       d="m 1869.3292,1763.0277 c -14.8181,-0.6595 -18.7264,-9.2129 -18.2181,-35.4706 0.5083,-26.2571 -6.2661,-24.362 -6.2661,-24.362 l -6.9729,16.6564 c 0,0 1.6221,55.3263 31.4571,43.1762 z"
       style="color:#000000;display:inline;overflow:visible;visibility:visible;fill:#ffffff;fill-opacity:1;fill-rule:nonzero;stroke:none;stroke-width:1px;marker:none;enable-background:accumulate"
       sodipodi:nodetypes="csccc" />
    <path
       sodipodi:nodetypes="cscsc"
       inkscape:connector-curvature="0"
       id="path912"
       d="m 908.19707,140.73428 c -23.27565,0.55056 -46.99555,0.87351 -69.41715,7.88874 -23.4538,7.34338 -44.8221,22.73166 -57.32193,44.11788 -13.00868,23.28208 -9.52548,54.15162 7.28144,74.63258 14.5161,17.54579 35.34829,29.06129 57.2524,34.58214 22.01365,5.74466 44.6452,9.69907 67.45675,9.61655 13.92648,0.043 27.83179,-1.54052 41.43298,-4.50964 17.72195,-3.50772 35.43285,-7.30564 52.68184,-12.72464 16.3677,-5.48131 32.4562,-13.56643 44.1239,-26.59384 11.079,-12.60043 16.2795,-30.23087 13.3196,-46.7977 -1.8137,-12.38081 -7.702,-24.45207 -17.5791,-32.36276 -25.7954,-23.48509 -58.75009,-38.45485 -92.95511,-44.58852 -15.25272,-2.7632 -30.8032,-3.399 -46.27562,-3.26079 z"
       style="fill:#ffffff;fill-rule:evenodd;stroke:none;stroke-width:0.977214px;stroke-linecap:butt;stroke-linejoin:miter;stroke-opacity:1" />
    <path
       d="m 796.38806,253.26629 c 0.0845,2.25192 3.22337,4.74593 5.59632,5.05268 0,0 2.54222,0.45596 4.60197,-0.0294 0.37769,0.0596 6.63382,-1.0982 6.49266,-8.21406 l -1.65193,-8.61638 c 0.8799,-0.15078 3.72125,-1.41287 4.59537,-1.88482 2.3984,-1.29588 3.40148,-3.09481 4.30471,-4.43007 0.99554,-1.99533 1.57431,-3.35461 1.49404,-5.49299 -0.20284,-5.40684 -5.56053,-9.6374 -11.96606,-9.44893 -0.92327,0.027 -1.81711,0.14337 -2.67218,0.34364 l -1.40556,-6.91288 c 4.18255,-4.19405 8.3894,-9.32211 9.69316,-13.94593 1.21966,-6.09324 0.37438,-10.16016 -3.52844,-11.79857 -3.5483,-0.58638 -7.67202,3.59985 -9.96921,9.539 -1.51792,3.17978 0.78995,9.10039 1.81806,11.52923 -6.68582,5.78015 -13.39541,9.98158 -13.74544,19.66914 0.28405,7.56986 7.78449,13.49206 16.75142,13.22833 0.85685,-0.0249 2.27271,-0.0503 3.87625,-0.27383 l 1.08192,8.62187 c 0,0 0.52789,6.31387 -5.14256,7.33829 -2.25047,0.4063 -4.41852,0.8642 -3.83799,-0.41876 1.73468,-0.82673 3.74257,-2.12294 3.66654,-4.15005 -0.0947,-2.52304 -2.4222,-4.50235 -5.1974,-4.42088 -2.7763,0.0816 -4.95043,2.1931 -4.85567,4.71688 z m 8.74333,-38.9876 1.31155,6.45899 c -4.6851,1.37342 -7.98364,5.19713 -7.81852,9.59637 0.1868,4.97811 7.3278,7.09238 7.09231,5.9165 -2.7876,-0.92016 -3.84883,-2.01554 -3.94967,-4.70289 -0.11403,-3.03841 2.25091,-5.66275 5.55369,-6.48738 l 3.11976,15.37696 c -0.56636,0.14694 -1.17858,0.27596 -1.84324,0.38361 -9.67167,0.12035 -14.37777,-4.08648 -14.66181,-11.65558 -0.15887,-4.2402 5.57542,-9.30577 11.19542,-14.88578 z m 6.04423,25.9464 -3.11013,-15.31735 c 0.3857,-0.0614 0.7833,-0.1022 1.18863,-0.11285 4.26961,-0.12605 7.84143,2.69482 7.97671,6.29862 0.0233,2.90225 0.0216,7.22552 -6.05512,9.13233 z m -6.60186,-32.24768 c -1.92855,-4.90906 -0.4462,-7.42733 0.50502,-9.35807 2.24834,-4.55803 4.3132,-6.25199 6.42367,-7.77212 2.8504,0.84884 1.829,7.52972 1.40618,7.54153 -1.1787,3.9583 -5.81842,7.21394 -8.33494,9.58867 z"
       inkscape:connector-curvature="0"
       style="clip-rule:evenodd;display:inline;fill:#000000;fill-rule:evenodd;stroke:none;stroke-width:0.138542"
       id="path11-7" />
    <path
       d="m 867.44282,251.78696 -1.0588,-0.0939 -2.7066,30.53809 c -0.6054,-0.3952 -1.6456,-0.70076 -2.6197,-0.78713 -3.4733,-0.30785 -7.57906,2.18835 -7.84556,5.19554 -0.1838,2.07546 1.71276,3.31074 3.66126,3.48342 4.0237,0.35663 7.9989,-2.10847 8.3891,-6.51344 l 1.8846,-21.26227 c 4.3186,1.36458 7.3192,5.55784 6.8838,10.47105 -0.3003,3.3884 -2.3527,6.79216 -3.4567,8.6581 l 1.1012,0.0975 c 2.3222,-3.08121 4.1586,-6.46151 4.4738,-10.01936 0.3529,-3.98136 -2.2343,-7.54033 -4.6193,-10.01419 -2.3846,-2.47374 -4.4475,-5.68748 -4.0872,-9.75356 z"
       style="font-style:normal;font-variant:normal;font-weight:normal;font-stretch:normal;font-size:45px;line-height:1.2;font-family:Lavi;-inkscape-font-specification:Lavi;text-align:center;letter-spacing:0px;word-spacing:0px;text-anchor:middle;fill:#000000;fill-opacity:1;stroke:#000000;stroke-width:0.5;stroke-miterlimit:4;stroke-dasharray:none;stroke-opacity:1"
       id="path44-7-5-6" />
    <path
       id="path46-3-5"
       style="font-style:normal;font-variant:normal;font-weight:normal;font-stretch:normal;font-size:45px;line-height:1.2;font-family:Lavi;-inkscape-font-specification:Lavi;text-align:center;letter-spacing:0px;word-spacing:0px;text-anchor:middle;fill:#000000;fill-opacity:1;stroke:#000000;stroke-width:0.5;stroke-miterlimit:4;stroke-dasharray:none;stroke-opacity:1"
       d="m 944.83322,290.08712 1.43255,-25.29947 -20.61273,2.21295 -1.36752,24.14772 c -0.50308,-0.39137 -1.36039,-0.71262 -2.15949,-0.8255 -2.84902,-0.40241 -6.16135,1.81205 -6.32103,4.63193 -0.11014,1.94614 1.46659,3.16967 3.06469,3.3954 3.30066,0.46622 6.50653,-1.72324 6.74039,-5.85377 l 1.12471,-19.85835 17.79266,-1.89059 -1.01879,17.9916 c -0.50316,-0.39133 -1.36039,-0.71261 -2.15964,-0.82546 -2.84887,-0.40241 -6.16129,1.81204 -6.32089,4.63191 -0.11014,1.94611 1.46643,3.16969 3.06463,3.39544 3.30058,0.46619 6.50642,-1.72325 6.74046,-5.85381 z" />
    <path
       d="m 863.25007,180.81942 1.43255,-25.29947 -20.61273,2.21295 -1.36752,24.14772 c -0.50308,-0.39137 -1.36039,-0.71262 -2.15949,-0.8255 -2.84902,-0.40241 -6.16135,1.81205 -6.32103,4.63193 -0.11014,1.94614 1.46659,3.16967 3.06469,3.3954 3.30066,0.46622 6.50653,-1.72324 6.74039,-5.85377 l 1.12471,-19.85835 17.79266,-1.89059 -1.01879,17.9916 c -0.50316,-0.39133 -1.36039,-0.71261 -2.15964,-0.82546 -2.84887,-0.40241 -6.16129,1.81204 -6.32089,4.63191 -0.11014,1.94611 1.46643,3.16969 3.06463,3.39544 3.30058,0.46619 6.50642,-1.72325 6.74046,-5.85381 z"
       style="font-style:normal;font-variant:normal;font-weight:normal;font-stretch:normal;font-size:45px;line-height:1.2;font-family:Lavi;-inkscape-font-specification:Lavi;text-align:center;letter-spacing:0px;word-spacing:0px;text-anchor:middle;fill:#000000;fill-opacity:1;stroke:#000000;stroke-width:0.5;stroke-miterlimit:4;stroke-dasharray:none;stroke-opacity:1"
       id="path46-3" />
    <path
       id="path44-7-5"
       style="font-style:normal;font-variant:normal;font-weight:normal;font-stretch:normal;font-size:45px;line-height:1.2;font-family:Lavi;-inkscape-font-specification:Lavi;text-align:center;letter-spacing:0px;word-spacing:0px;text-anchor:middle;fill:#000000;fill-opacity:1;stroke:#000000;stroke-width:0.5;stroke-miterlimit:4;stroke-dasharray:none;stroke-opacity:1"
       d="m 977.69881,154.87962 -1.0588,-0.0939 -2.7066,30.53809 c -0.6054,-0.3952 -1.6456,-0.70076 -2.6197,-0.78713 -3.4733,-0.30785 -7.5791,2.18835 -7.8456,5.19554 -0.1838,2.07546 1.7128,3.31074 3.6613,3.48342 4.0237,0.35663 7.9989,-2.10847 8.3891,-6.51344 l 1.8846,-21.26227 c 4.3186,1.36458 7.3192,5.55784 6.8838,10.47105 -0.3003,3.3884 -2.3527,6.79216 -3.4567,8.6581 l 1.1012,0.0975 c 2.3222,-3.08121 4.1586,-6.46151 4.4738,-10.01936 0.3529,-3.98136 -2.2343,-7.54033 -4.6193,-10.01419 -2.3846,-2.47374 -4.4475,-5.68748 -4.0872,-9.75356 z" />
    <path
       id="path46"
       style="font-style:normal;font-variant:normal;font-weight:normal;font-stretch:normal;font-size:45px;line-height:1.2;font-family:Lavi;-inkscape-font-specification:Lavi;text-align:center;letter-spacing:0px;word-spacing:0px;text-anchor:middle;fill:#000000;fill-opacity:1;stroke:#000000;stroke-width:0.5;stroke-miterlimit:4;stroke-dasharray:none;stroke-opacity:1"
       d="m 1043.226,240.93061 6.7692,-26.06469 -21.9412,-1.99287 -6.4611,24.87807 c -0.4426,-0.51273 -1.269,-1.02631 -2.0782,-1.31058 -2.8849,-1.0135 -6.7984,0.60328 -7.5529,3.50845 -0.5207,2.00499 0.8673,3.60883 2.4855,4.17736 3.3423,1.17417 7.1395,-0.43876 8.2447,-4.69422 l 5.3135,-20.45896 18.9353,1.74064 -4.8139,18.53579 c -0.4427,-0.51274 -1.269,-1.0263 -2.0783,-1.31058 -2.8847,-1.01349 -6.7983,0.60328 -7.5527,3.50845 -0.5207,2.00499 0.867,3.60883 2.4854,4.17738 3.3421,1.17415 7.1394,-0.43878 8.2447,-4.69424 z" />
    <path
       id="path44"
       style="font-style:normal;font-variant:normal;font-weight:normal;font-stretch:normal;font-size:45px;line-height:1.2;font-family:Lavi;-inkscape-font-specification:Lavi;text-align:center;letter-spacing:0px;word-spacing:0px;text-anchor:middle;fill:#000000;fill-opacity:1;stroke:#000000;stroke-width:0.5;stroke-miterlimit:4;stroke-dasharray:none;stroke-opacity:1"
       d="m 913.37793,149.3325 -1.12498,0.006 0.18516,32.44447 c -0.67705,-0.35614 -1.80332,-0.57472 -2.83829,-0.56881 -3.68994,0.0211 -7.76768,3.05937 -7.74944,6.25432 0.0126,2.20497 2.13396,3.31788 4.20394,3.30606 4.27493,-0.0244 8.21791,-3.01694 8.1912,-7.69687 l -0.12891,-22.5892 c 4.68583,1.00828 8.2644,5.12792 8.29419,10.34784 0.0205,3.59994 -1.80286,7.39041 -2.78103,9.46603 l 1.16998,-0.007 c 2.14019,-3.47727 3.73886,-7.22145 3.71728,-11.00139 -0.0241,-4.22992 -3.10412,-7.72241 -5.86268,-10.09171 -2.75858,-2.36929 -5.25176,-5.55012 -5.27642,-9.87005 z" />
    <path
       sodipodi:nodetypes="cscsscsccc"
       inkscape:connector-curvature="0"
       id="path4394-0"
       d="m 1113.2744,299.96481 c 0,0 3.063,-27.90595 -7.6203,-31.63419 -10.683,-3.7287 -32.8407,17.06726 -32.8407,17.06726 0,0 -4.2328,-35.76702 -33.0758,-39.94975 -28.8426,-4.18265 -50.06515,23.26878 -30.3165,23.73344 19.7488,0.46469 56.2297,-14.41714 53.5208,44.24271 30.2691,-35.37 30.9702,-30.37823 35.0639,-28.35596 4.0941,2.02189 7.6203,31.63418 8.1122,40.77952 20.8668,-26.16134 35.3887,-43.19442 63.4331,2.60979 -8.928,-28.53739 -32.8004,-52.752 -56.2767,-28.49282 z"
       style="display:inline;fill:#ffffff;fill-rule:evenodd;stroke:none;stroke-width:0.999994px;stroke-linecap:butt;stroke-linejoin:miter;stroke-opacity:1" />
  </g>
  <g
     inkscape:groupmode="layer"
     id="layer1"
     inkscape:label="txt">
    <text
       inkscape:label="pepperA"
       id="text4246-3-5-0"
       y="238.8701"
       x="909.37677"
       style="font-style:normal;font-variant:normal;font-weight:normal;font-stretch:normal;line-height:0%;font-family:Lavi;-inkscape-font-specification:Lavi;text-align:center;letter-spacing:0px;word-spacing:0px;text-anchor:middle;fill:#000000;fill-opacity:1;stroke:none"
       xml:space="preserve"><tspan
         id="tspan854"
         y="238.8701"
         x="916.40802"
         style="font-size:45px;line-height:1.2"
         sodipodi:role="line"> Tadaaa ! </tspan></text>
    <text
       inkscape:label="pepperB"
       xml:space="preserve"
       style="font-style:normal;font-variant:normal;font-weight:normal;font-stretch:normal;font-size:18.21629906px;line-height:0%;font-family:Lavi;-inkscape-font-specification:Lavi;text-align:center;letter-spacing:0px;word-spacing:0px;text-anchor:middle;fill:#000000;fill-opacity:1;stroke:none;stroke-width:1"
       x="299.1268"
       y="1969.3291"
       id="text4178-1"><tspan
         id="tspan4239-3"
         sodipodi:role="line"
         style="font-size:61.74840164px;line-height:1.25;stroke-width:1"
         x="299.1268"
         y="1969.3291">Tämä</tspan></text>
    <text
       inkscape:label="pepperC"
       xml:space="preserve"
       style="font-style:normal;font-variant:normal;font-weight:normal;font-stretch:normal;font-size:47.49520111px;line-height:0%;font-family:Lavi;-inkscape-font-specification:Lavi;text-align:center;letter-spacing:0px;word-spacing:0px;text-anchor:middle;fill:#000000;fill-opacity:1;stroke:none;stroke-width:1"
       x="447.29425"
       y="2064.4534"
       id="text4178"><tspan
         id="tspan4245-6"
         sodipodi:role="line"
         style="font-size:47.49520111px;line-height:1.25;stroke-width:1"
         x="455.64301"
         y="2064.4534">... on se </tspan><tspan
         sodipodi:role="line"
         style="font-size:47.49520111px;line-height:1.25;stroke-width:1"
         x="447.29425"
         y="2123.8223"
         id="tspan155">mestariteokseni!</tspan></text>
    <text
       inkscape:label="pepperD"
       id="text4246-3-2"
       y="1099.167"
       x="970.17487"
       style="font-style:normal;font-variant:normal;font-weight:normal;font-stretch:normal;line-height:0%;font-family:Lavi;-inkscape-font-specification:Lavi;text-align:center;letter-spacing:0px;word-spacing:0px;text-anchor:middle;fill:#000000;fill-opacity:1;stroke:none"
       xml:space="preserve"><tspan
         y="1099.167"
         x="970.17487"
         style="font-size:45px;line-height:1.25"
         sodipodi:role="line"
         id="tspan262">	Se on mutkikas loitsu,</tspan><tspan
         y="1155.417"
         x="970.17487"
         style="font-size:45px;line-height:1.25"
         sodipodi:role="line"
         id="tspan109">joka muuttaa todellisuutta</tspan><tspan
         y="1173.9506"
         x="970.17487"
         style="font-size:45px;line-height:1.25"
         sodipodi:role="line"
         id="tspan115" /><tspan
         y="1211.667"
         x="970.17487"
         style="font-size:45px;line-height:1.25"
         sodipodi:role="line"
         id="tspan266">ja näyttää kunkin</tspan><tspan
         y="1267.917"
         x="970.17487"
         style="font-size:45px;line-height:1.25"
         sodipodi:role="line"
         id="tspan113">sotilaan jäljellä olevat</tspan><tspan
         y="1324.167"
         x="970.17487"
         style="font-size:45px;line-height:1.25"
         sodipodi:role="line"
         id="tspan117">elinvoimapisteet.</tspan><tspan
         y="1342.7006"
         x="970.17487"
         style="font-size:45px;line-height:1.25"
         sodipodi:role="line"
         id="tspan260" /></text>
    <text
       inkscape:label="scoreA"
       xml:space="preserve"
       style="font-style:normal;font-variant:normal;font-weight:normal;font-stretch:normal;line-height:0%;font-family:Lavi;-inkscape-font-specification:Lavi;letter-spacing:3.03024px;word-spacing:0px;opacity:0.801401;fill:#fff4b7;fill-opacity:1;stroke:#aa7640;stroke-width:0.647169;stroke-miterlimit:4;stroke-dasharray:none;stroke-opacity:1;filter:url(#filter4375-4-1-1-1-9-5-8-8-3-3-3-6-1-6)"
       x="787.65729"
       y="1584.5073"
       id="text4580-6-0-0-3-3-8"
       transform="matrix(2.0001217,0.03992834,-0.03002348,1.9644063,-221.92656,-1785.196)"><tspan
         sodipodi:role="line"
         id="tspan4582-1-1-0-6-9-9"
         x="787.65729"
         y="1584.5073"
         style="font-style:normal;font-variant:normal;font-weight:bold;font-stretch:normal;font-size:64.9472px;line-height:1.25;font-family:Drukah;-inkscape-font-specification:'Drukah Bold';fill:#fff4b7;fill-opacity:1;stroke:#aa7640;stroke-width:0.647169;stroke-miterlimit:4;stroke-dasharray:none;stroke-opacity:1">33</tspan></text>
    <text
       inkscape:label="pepperE"
       xml:space="preserve"
       style="font-style:normal;font-variant:normal;font-weight:normal;font-stretch:normal;line-height:0%;font-family:Lavi;-inkscape-font-specification:Lavi;text-align:center;letter-spacing:0px;word-spacing:0px;text-anchor:middle;fill:#000000;fill-opacity:1;stroke:none"
       x="2025.9485"
       y="1096.7416"
       id="text4246-3-2-2"><tspan
         id="tspan260-0"
         sodipodi:role="line"
         style="font-size:45px;line-height:1.25"
         x="2025.9485"
         y="1096.7416">Kun elinvoimapisteet menevät</tspan><tspan
         sodipodi:role="line"
         style="font-size:45px;line-height:1.25"
         x="2025.9485"
         y="1152.9916"
         id="tspan338">nollaan, sinun pitää poistua</tspan><tspan
         sodipodi:role="line"
         style="font-size:45px;line-height:1.25"
         x="2025.9485"
         y="1209.2416"
         id="tspan128">taistelukentältä.</tspan></text>
    <text
       inkscape:label="pepperF"
       id="text4246-3-2-2-9"
       y="1301.2434"
       x="2076.2854"
       style="font-style:normal;font-variant:normal;font-weight:normal;font-stretch:normal;line-height:0%;font-family:Lavi;-inkscape-font-specification:Lavi;text-align:center;letter-spacing:0px;word-spacing:0px;text-anchor:middle;fill:#000000;fill-opacity:1;stroke:none"
       xml:space="preserve"><tspan
         y="1301.2434"
         x="2076.2854"
         style="font-size:45px;line-height:1.25"
         sodipodi:role="line"
         id="tspan371">Se armeija, joka saa</tspan><tspan
         y="1357.4934"
         x="2076.2854"
         style="font-size:45px;line-height:1.25"
         sodipodi:role="line"
         id="tspan137">poistettua kaikki vastapuolen</tspan><tspan
         y="1413.7434"
         x="2076.2854"
         style="font-size:45px;line-height:1.25"
         sodipodi:role="line"
         id="tspan139">sotilaat, voittaa!</tspan></text>
    <text
       inkscape:label="pepperG"
       xml:space="preserve"
       style="font-style:normal;font-variant:normal;font-weight:normal;font-stretch:normal;line-height:0%;font-family:Lavi;-inkscape-font-specification:Lavi;text-align:center;letter-spacing:0px;word-spacing:0px;text-anchor:middle;fill:#000000;fill-opacity:1;stroke:none"
       x="2205.7058"
       y="1525.3315"
       id="text4246-3-2-2-9-6"><tspan
         id="tspan371-1"
         sodipodi:role="line"
         style="font-size:45px;line-height:1.25"
         x="2205.7058"
         y="1525.3315">Yksinkertaista.</tspan></text>
    <text
       inkscape:label="scoreB"
       xml:space="preserve"
       style="font-style:normal;font-variant:normal;font-weight:normal;font-stretch:normal;line-height:0%;font-family:Lavi;-inkscape-font-specification:Lavi;letter-spacing:2.67495px;word-spacing:0px;fill:#b5ffe1;fill-opacity:1;stroke:#316983;stroke-width:1.28309;stroke-miterlimit:4;stroke-dasharray:none;stroke-opacity:1;filter:url(#filter4375-4-1-1-1-9-5-8-8-3-3-7-4-1)"
       x="787.65729"
       y="1584.5073"
       id="text4580-6-0-0-3-36-4-4"
       transform="matrix(0.95527462,-0.04371269,-0.01433947,1.0473354,1179.3925,26.934268)"><tspan
         sodipodi:role="line"
         id="tspan4582-1-1-0-6-1-3-8"
         x="787.65729"
         y="1584.5073"
         style="font-style:normal;font-variant:normal;font-weight:bold;font-stretch:normal;font-size:69.5991px;line-height:1.25;font-family:Lavi;-inkscape-font-specification:'Lavi Bold';fill:#b5ffe1;fill-opacity:1;stroke:#316983;stroke-width:1.28309;stroke-miterlimit:4;stroke-dasharray:none;stroke-opacity:1">0</tspan></text>
    <text
       inkscape:label="warrior"
       id="text4246-3-7-7-6-7-2-9-6-1-4"
       y="1747.6428"
       x="1813.559"
       style="font-style:normal;font-variant:normal;font-weight:normal;font-stretch:normal;font-size:11.2438px;line-height:0%;font-family:Lavi;-inkscape-font-specification:Lavi;text-align:center;letter-spacing:0px;word-spacing:0px;text-anchor:middle;fill:#000000;fill-opacity:1;stroke:none;stroke-width:0.999999"
       xml:space="preserve"
       transform="scale(1.0185461,0.98179161)"><tspan
         id="tspan1183-0"
         y="1747.6428"
         x="1813.559"
         style="font-style:normal;font-variant:normal;font-weight:normal;font-stretch:normal;font-size:42.1643px;line-height:1.2;font-family:Lavi;-inkscape-font-specification:Lavi;stroke-width:0.999999"
         sodipodi:role="line">?</tspan></text>
    <text
       inkscape:label="pepperH"
       id="text4178-1-8"
       y="2412.4695"
       x="669.75519"
       style="font-style:normal;font-variant:normal;font-weight:normal;font-stretch:normal;font-size:53.33330154px;line-height:0%;font-family:Lavi;-inkscape-font-specification:Lavi;text-align:center;letter-spacing:0px;word-spacing:0px;text-anchor:middle;fill:#000000;fill-opacity:1;stroke:none;stroke-width:1"
       xml:space="preserve"><tspan
         y="2412.4695"
         x="679.13019"
         style="font-size:53.33330154px;line-height:1.25;stroke-width:1"
         sodipodi:role="line"
         id="tspan4239-3-7">Eikö ole </tspan><tspan
         y="2479.1362"
         x="669.75519"
         style="font-size:53.33330154px;line-height:1.25;stroke-width:1"
         sodipodi:role="line"
         id="tspan450">hienoa?</tspan></text>
    <text
       inkscape:label="pepperI"
       id="text4246-7-6-1-7-6-3-5-6-4"
       y="2452.9026"
       x="1503.0603"
       style="font-style:normal;font-variant:normal;font-weight:normal;font-stretch:normal;line-height:0%;font-family:Lavi;-inkscape-font-specification:Lavi;text-align:center;letter-spacing:0px;word-spacing:0px;text-anchor:middle;display:inline;fill:#000000;fill-opacity:1;stroke:none"
       xml:space="preserve"><tspan
         id="tspan990"
         y="2452.9026"
         x="1503.0603"
         style="font-size:45px;line-height:1.25"
         sodipodi:role="line">Ei enää kuolemia!</tspan></text>
    <text
       inkscape:label="pepperJ"
       xml:space="preserve"
       style="font-style:normal;font-variant:normal;font-weight:normal;font-stretch:normal;line-height:0%;font-family:Lavi;-inkscape-font-specification:Lavi;text-align:center;letter-spacing:0px;word-spacing:0px;text-anchor:middle;display:inline;fill:#000000;fill-opacity:1;stroke:none"
       x="1636.9469"
       y="2566.5688"
       id="text4246-7-6-1-7-6-3-5-6-4-2"><tspan
         sodipodi:role="line"
         style="font-size:45px;line-height:1.25"
         x="1636.9469"
         y="2566.5688"
         id="tspan1350">Ei enää haavoittuneita</tspan><tspan
         sodipodi:role="line"
         style="font-size:45px;line-height:1.25"
         x="1636.9469"
         y="2622.8188"
         id="tspan1354">sotilaita!</tspan></text>
    <text
       inkscape:label="pepperK"
       id="text4246-7-6-1-7-6-3-5-6-4-2-7"
       y="2705.7588"
       x="1827.9139"
       style="font-style:normal;font-variant:normal;font-weight:normal;font-stretch:normal;line-height:0%;font-family:Lavi;-inkscape-font-specification:Lavi;text-align:center;letter-spacing:0px;word-spacing:0px;text-anchor:middle;display:inline;fill:#000000;fill-opacity:1;stroke:none"
       xml:space="preserve"><tspan
         id="tspan940"
         y="2705.7588"
         x="1827.9139"
         style="font-style:normal;font-variant:normal;font-weight:normal;font-stretch:normal;font-size:45px;line-height:1.25;font-family:Lavi;-inkscape-font-specification:Lavi"
         sodipodi:role="line">Tämä mullistaa</tspan><tspan
         id="tspan946"
         y="2762.0088"
         x="1827.9139"
         style="font-style:normal;font-variant:normal;font-weight:normal;font-stretch:normal;font-size:45px;line-height:1.25;font-family:Lavi;-inkscape-font-specification:Lavi"
         sodipodi:role="line">sodankäynnin!</tspan></text>
  </g>
</svg>
