<?xml version="1.0" encoding="UTF-8" standalone="no"?>
<!-- Created With Inkscape (http://www.inkscape.org/) -->

<svg
   xmlns:dc="http://purl.org/dc/elements/1.1/"
   xmlns:cc="http://creativecommons.org/ns#"
   xmlns:rdf="http://www.w3.org/1999/02/22-rdf-syntax-ns#"
   xmlns:svg="http://www.w3.org/2000/svg"
   xmlns="http://www.w3.org/2000/svg"
   xmlns:xlink="http://www.w3.org/1999/xlink"
   xmlns:sodipodi="http://sodipodi.sourceforge.net/DTD/sodipodi-0.dtd"
   xmlns:inkscape="http://www.inkscape.org/namespaces/inkscape"
   id="svg2"
   version="1.1"
   inkscape:version="0.92.4 (5da689c313, 2019-01-14)"
   width="2646.3999"
   height="3736.5334"
   sodipodi:docname="E18P03.svg"
   viewBox="0 0 2481 3503">
  <metadata
     id="metadata8">
    <rdf:RDF>
      <cc:Work
         rdf:about="">
        <dc:format>image/svg+xml</dc:format>
        <dc:type
           rdf:resource="http://purl.org/dc/dcmitype/StillImage" />
        <dc:title />
      </cc:Work>
    </rdf:RDF>
  </metadata>
  <defs
     id="defs6" />
  <sodipodi:namedview
     pagecolor="#ffffff"
     bordercolor="#666666"
     borderopacity="1"
     objecttolerance="10"
     gridtolerance="10"
     guidetolerance="10"
     inkscape:pageopacity="0"
     inkscape:pageshadow="2"
     inkscape:window-width="1201"
     inkscape:window-height="777"
     id="namedview4"
     showgrid="false"
     inkscape:zoom="0.31941596"
     inkscape:cx="1610.3102"
     inkscape:cy="563.62506"
     inkscape:window-x="71"
     inkscape:window-y="-8"
     inkscape:window-maximized="1"
     inkscape:current-layer="layer8" />
  <g
     inkscape:groupmode="layer"
     id="layer2"
     inkscape:label="artwork"
     sodipodi:insensitive="true">
    <image
       sodipodi:absref="../gfx_Pepper-and-Carrot_by-David-Revoy_E18P03.png"
       xlink:href="../gfx_Pepper-and-Carrot_by-David-Revoy_E18P03.png"
       width="2481"
       height="3503"
       id="image10"
       x="0"
       y="0" />
  </g>
  <g
     inkscape:groupmode="layer"
     id="layer4"
     inkscape:label="translatornotes"
     sodipodi:insensitive="true" />
  <g
     inkscape:groupmode="layer"
     id="layer3"
     inkscape:label="speechbubbles">
    <path
       style="fill:#f2f8d1;fill-opacity:1;fill-rule:evenodd;stroke:none;stroke-width:1px;stroke-linecap:butt;stroke-linejoin:miter;stroke-opacity:1"
       d="m 764.85813,196.21438 c 105.86475,58.30006 414.69347,137.43117 489.00157,32.59722 49.5106,30.57977 83.6882,53.74546 126.142,5.65951 75.1554,42.15856 89.6839,23.38305 105.7453,11.47473 38.5539,4.51986 56.3,6.27213 114.3337,33.43301 -60.5296,-17.08447 -75.7335,-19.14275 -110.3876,-17.61403 -46.9449,31.25258 -87.5473,2.56601 -105.3025,-8.45039 -43.4117,50.37627 -69.3679,33.60757 -121.2759,-3.59033 -111.1988,44.23165 -247.9278,70.54692 -495.48334,-21.34733 -8.78409,-16.28656 -2.77323,-32.16239 -2.77323,-32.16239 z"
       id="path4385"
       inkscape:connector-curvature="0"
       sodipodi:nodetypes="cccccccccc" />
    <path
       style="color:#000000;display:inline;overflow:visible;visibility:visible;fill:#f2f8d1;fill-opacity:1;fill-rule:nonzero;stroke:none;stroke-width:1px;marker:none;enable-background:accumulate"
       d="m 330.23471,227.93958 c 0,-39.81524 24.30276,-71.85149 101.12555,-75.58427 76.82286,-3.73264 299.3551,2.19206 333.01907,15.25644 33.66392,13.06444 47.40581,38.86136 46.57296,65.03667 -1.45901,45.85424 -86.24519,59.99104 -163.06798,58.12472 -76.82287,-1.86639 -194.36055,3.71544 -235.79308,-5.61629 -41.43254,-9.33174 -78.40378,-25.48949 -81.85652,-57.21727 z"
       id="path3986"
       inkscape:connector-curvature="0"
       sodipodi:nodetypes="csssssc" />
    <path
       style="color:#000000;display:inline;overflow:visible;visibility:visible;fill:#f2f8d1;fill-opacity:1;fill-rule:nonzero;stroke:none;stroke-width:1px;marker:none;enable-background:accumulate"
       d="m 961.70413,278.01685 c 0,-39.81524 19.52222,-71.85149 81.23337,-75.58427 61.7113,-3.73264 240.4696,2.19206 267.5117,15.25644 27.0419,13.06444 38.0806,38.86136 37.4117,65.03667 -1.172,45.85425 -69.2801,59.99105 -130.9913,58.12473 -61.7112,-1.86639 -156.1283,3.71544 -189.4108,-5.61629 -33.28242,-9.33174 -62.98111,-25.48949 -65.75467,-57.21728 z"
       id="path3986-3"
       inkscape:connector-curvature="0"
       sodipodi:nodetypes="csssssc" />
    <path
       style="color:#000000;display:inline;overflow:visible;visibility:visible;fill:#f2f8d1;fill-opacity:1;fill-rule:nonzero;stroke:none;stroke-width:1px;marker:none;enable-background:accumulate"
       d="m 342.48588,1621.9246 c -24.71539,-4.34 -56.25161,-49.209 -63.74568,-64.4565 21.77418,-3.9427 21.23419,-17.1203 21.23419,-17.1203 -38.47422,6.4938 -77.16203,-67.2008 -63.8235,-69.2482 -13.09993,-13.8953 16.36709,-35.0555 30.02872,-18.9354 -22.55891,11.5802 15.28181,86.958 62.14107,71.318 -1.7791,23.9892 -18.56612,39.2657 -27.6804,41.3802 25.14929,49.2632 32.09083,49.9965 41.8456,57.0622 z"
       id="path5162"
       inkscape:connector-curvature="0"
       sodipodi:nodetypes="cccccccc" />
    <path
       style="color:#000000;display:inline;overflow:visible;visibility:visible;fill:#f2f8d1;fill-opacity:1;fill-rule:nonzero;stroke:none;stroke-width:1.05899799px;marker:none;enable-background:accumulate"
       d="m 200.28153,1347.4012 c -7.34619,16.9399 -48.7798,18.3604 -64.03264,14.9171 30.74621,18.9504 29.67432,30.7247 -12.07038,32.5528 70.00661,34.1537 12.79815,28.9854 1.51418,37.6457 54.96814,11.7701 30.37482,26.4182 20.5886,41.0003 63.18043,0.5009 42.50435,23.8753 45.16729,42.4916 5.35617,-8.7356 30.80187,-35.3305 32.33294,-5.7189 0.11556,-5.5972 41.66886,-51.9945 103.4544,-6.8674 -1.49266,-23.2371 19.64625,-28.0152 39.7188,4.0883 -6.70815,-34.7505 64.49158,-24.6947 102.2042,-13.7898 -19.05645,-21.0517 11.05918,-29.5356 43.10428,-25.343 -4.49308,-11.5426 6.32668,-19.4767 30.76131,-24.1884 -32.46976,-6.9725 -38.45383,-14.1644 21.83524,-21.904 -45.87645,-0.7487 -88.65654,-2.2825 -34.83348,-28.6769 -16.88579,-0.6387 -56.94909,21.3855 -38.27001,-43.0689 -29.03606,20.6342 -60.01487,32.0228 -98.86517,-11.2004 -18.38595,21.5934 -50.27592,32.2786 -64.14963,5.3069 -4.9865,11.4985 -25.66316,15.8229 -43.21612,16.3474 -6.78777,-4.5675 -13.78855,-10.7713 -21.09421,-18.8993 -11.94043,17.0666 -29.80205,28.5926 -64.1496,5.3069 z"
       id="path3549-3-7"
       inkscape:connector-curvature="0"
       sodipodi:nodetypes="cccccccccccccccccccc" />
    <path
       style="color:#000000;display:inline;overflow:visible;visibility:visible;fill:#f2f8d1;fill-opacity:1;fill-rule:nonzero;stroke:none;stroke-width:1px;marker:none;enable-background:accumulate"
       d="m 1234.7515,1447.0481 c 4.1064,18.9755 5.8021,41.3586 4.3648,45.455 -1.4372,4.0964 -24.1183,16.5382 -23.4659,22.8435 0.6524,6.3052 12.9649,15.7466 12.3589,19.7007 -0.606,3.954 -15.6638,15.9454 -14.8094,20.9326 0.8544,4.9873 15.7897,27.2412 15.0414,30.3641 -0.7485,3.1228 -4.6926,20.055 -2.189,37.166 9.0042,-32.3444 15.7135,-35.6328 15.0611,-41.9381 -0.6524,-6.3053 -11.8721,-19.3562 -10.7197,-25.1152 1.1524,-5.7588 15.3791,-17.6078 14.2398,-24.2575 -1.1392,-6.6496 -9.3553,-14.6538 -9.3553,-14.6538 6.163,-1.4836 36.9542,-14.0313 37.0766,-48.2765 0.1225,-34.2453 -37.6033,-22.2208 -37.6033,-22.2208 z"
       id="path5050"
       inkscape:connector-curvature="0" />
    <path
       style="color:#000000;display:inline;overflow:visible;visibility:visible;fill:#f2f8d1;fill-opacity:1;fill-rule:nonzero;stroke:none;stroke-width:0.96687448px;marker:none;enable-background:accumulate"
       d="m 1146.0047,1408.8128 c -2.4538,-12.2911 19.613,-57.291 117.4542,-56.2704 97.8414,1.0206 120.2417,46.7521 120.5902,63.3583 0.3484,16.6062 -21.794,44.0371 -35.8587,49.2439 -14.0646,5.2068 -50.8494,17.9289 -74.9971,16.4031 -24.1475,-1.5259 -58.6924,3.4798 -97.7582,-22.6966 -37.2401,-24.9531 -27.6067,-46.8478 -29.4304,-50.0383 z"
       id="path3365"
       inkscape:connector-curvature="0"
       sodipodi:nodetypes="csssssc" />
    <path
       style="color:#000000;display:inline;overflow:visible;visibility:visible;fill:#f2f8d1;fill-opacity:1;fill-rule:nonzero;stroke:none;stroke-width:1px;marker:none;enable-background:accumulate"
       d="m 1808.0176,1597.5757 c 12.8534,16.1094 29.6793,33.5611 34.0041,37.3181 1.5869,-6.9257 4.1747,-12.6522 6.1138,-17.163 7.496,7.6985 45.2534,48.5097 49.4889,60.5594 2.1569,-29.3959 -34.9364,-83.6296 -48.0788,-95.2447 -3.581,5.3909 -8.4161,12.9117 -10.3708,15.6951 -6.8155,-5.4595 -17.8925,-22.1473 -17.8925,-22.1473 z"
       id="path5066"
       inkscape:connector-curvature="0"
       sodipodi:nodetypes="cccccccc" />
    <path
       style="fill:#f2f8d1;fill-opacity:1;fill-rule:evenodd;stroke:none"
       d="m 1381.3339,1459.9156 c 52.4924,3.8361 131.5267,26.5551 89.0887,-31.2006 82.3724,40.9211 115.2209,48.488 249.2124,-15.7664 -11.1348,89.5274 72.6009,28.8586 135.2626,8.4015 -35.5548,58.7304 41.1948,47.39 91.2259,49.0824 -105.8358,65.1616 -50.2602,85.8851 -8.5573,110.4278 -161.1818,-41.2482 -97.9685,10.9143 -91.2793,39.4385 -89.226,-47.1386 -154.1144,-35.9511 -205.378,7.8878 -26.8115,-23.8408 -35.2274,-73.1155 -134.0664,2.6292 36.3457,-65.3894 -11.2953,-58.526 -88.4265,-26.2923 12.0882,-22.2724 83.9336,-56.141 -37.0821,-52.5849 75.5886,-21.1734 91.44,-49.8554 0,-92.023 z"
       id="path4584"
       inkscape:connector-curvature="0"
       sodipodi:nodetypes="cccccccccccc" />
    <path
       style="fill:#f2f8d1;fill-opacity:1;fill-rule:evenodd;stroke:none;stroke-width:1px;stroke-linecap:butt;stroke-linejoin:miter;stroke-opacity:1"
       d="m 2025.1457,2049.0219 c -21.8345,6.7049 -82.7428,58.8611 -49.5636,12.9731 l -31.0439,12.8188 c -60.1735,-27.8239 -257.04,-10.8316 -322.8909,4.518 l -18.0643,-27.5956 3.6032,23.166 -20.9438,-34.3111 11.7374,46.205 -11.0551,-15.6862 4.643,17.3201 -10.7383,-8.4218 1.8163,14.8251 c -24.9667,13.7655 -39.1621,40.9089 -44.786,68.9129 l -20.1625,-2.5375 18.7297,10.95 c -0.2383,1.7006 -0.4531,3.4002 -0.6303,5.0951 -0.012,0.1159 -0.023,0.2352 -0.034,0.3514 l -21.1925,-4.0002 20.3494,14.9135 c -0.044,0.7966 -0.089,1.5918 -0.1268,2.3957 l -40.5474,-9.34 40.2046,25.3813 c -0.01,28.5077 2.9083,57.7627 4.4188,70.5504 1.0474,8.8666 2.1731,15.1865 8.2919,29.4387 l -37.7647,43.0511 50.0431,-23.4879 c 1.0628,0.524 2.148,1.0472 3.2378,1.5714 l -12.9283,14.641 22.5066,-10.1975 c 2.3032,1.031 4.6566,2.0567 7.0554,3.0766 l -23.3075,32.7984 34.7656,-28.1266 c 83.6809,32.7361 262.5686,65.3224 387.3627,-13.8784 l 44.5236,17.0736 -33.1663,-24.6361 c 2.4365,-1.7026 4.8577,-3.4422 7.2594,-5.2275 l 8.1343,0.7195 -5.3894,-5.463 c 0.5147,-0.9033 1.0284,-1.8081 1.5389,-2.7214 l 27.7135,12.0154 -20.8281,-24.8938 c 13.1273,-18.4077 16.5032,-39.2929 14.8808,-60.4449 l 25.1333,-12.727 c -43.444,6.585 -27.927,-7.9049 -0.6102,-15.356 l -24.5387,1.0307 c 2.3769,-17.1237 -6.4056,-48.5312 -17.9084,-64.9228 l 1.1472,-12.4292 c -20.1351,1.1908 -7.1693,-9.503 -0.2297,-18.8152 -22.1096,8.3788 -19.3981,4.8593 -10.6987,-11.4309 -37.2359,4.6418 19.933,-38.3686 30.0531,-49.1422 z"
       id="path4212"
       inkscape:connector-curvature="0"
       sodipodi:nodetypes="ccccccccccccccccccccccscccccccccccccccccccccccccccc" />
    <path
       style="color:#000000;display:inline;overflow:visible;visibility:visible;fill:#f2f8d1;fill-opacity:1;fill-rule:nonzero;stroke:none;stroke-width:1px;marker:none;enable-background:accumulate"
       d="m 367.79744,2698.9679 c 36.39441,-19.0572 48.4084,-27.6376 48.29889,-70.8322 -0.10955,-43.1945 17.16485,-44.5253 17.16485,-44.5253 l 17.11255,23.0097 c 0,0 -6.67004,92.7921 -82.57629,92.3478 z"
       id="path3072-0"
       inkscape:connector-curvature="0"
       inkscape:transform-center-x="-94.0856"
       inkscape:transform-center-y="-90.317826" />
    <path
       style="color:#000000;display:inline;overflow:visible;visibility:visible;fill:#f2f8d1;fill-opacity:1;fill-rule:nonzero;stroke:none;stroke-width:0.69579524px;marker:none;enable-background:accumulate"
       d="m 329.32174,2581.073 c -19.64575,-26.0009 -15.30312,-90.7957 117.0381,-90.3387 114.77788,0.3964 135.69804,23.9635 139.2019,32.5363 3.50395,8.5727 31.72335,56.4923 -56.41829,76.7122 -88.14174,20.2199 -169.19748,12.5972 -199.82171,-18.9098 z"
       id="path3525"
       inkscape:connector-curvature="0"
       sodipodi:nodetypes="cscsc" />
    <path
       style="color:#000000;display:inline;overflow:visible;visibility:visible;fill:#f2f8d1;fill-opacity:1;fill-rule:nonzero;stroke:none;stroke-width:1px;marker:none;enable-background:accumulate"
       d="m 657.44703,2691.9394 c 41.26377,0.4885 55.8622,-1.7171 74.19559,-46.4321 18.33332,-44.7151 34.62678,-36.5079 34.62678,-36.5079 l 5.75891,33.2804 c 0,0 -45.6706,92.2277 -114.58128,49.6596 z"
       id="path3072"
       inkscape:connector-curvature="0" />
    <path
       style="color:#000000;display:inline;overflow:visible;visibility:visible;fill:#f2f8d1;fill-opacity:1;fill-rule:nonzero;stroke:none;stroke-width:0.81893122px;marker:none;enable-background:accumulate"
       d="m 655.42627,2606.4404 c -4.87412,-26.9564 8.1235,-98.5594 108.0432,-92.6626 99.91963,5.8965 116.16679,39.5921 118.60382,49.7008 2.4371,10.1087 23.5583,67.3911 -54.42775,82.5542 -77.98614,15.1629 -147.8486,-0.8425 -172.21927,-39.5924 z"
       id="path3525-9"
       inkscape:connector-curvature="0" />
    <path
       style="color:#000000;display:inline;overflow:visible;visibility:visible;fill:#f2f8d1;fill-opacity:1;fill-rule:nonzero;stroke:none;stroke-width:1px;marker:none;enable-background:accumulate"
       d="m 1715.8244,2731.9556 c -48.806,-21.3553 -64.7562,-31.8209 -61.5722,-96.2896 3.1844,-64.4687 -20.5229,-63.0947 -20.5229,-63.0947 l -25.1934,37.6594 c 0,0 2.674,137.151 107.2885,121.7249 z"
       id="path3072-6"
       inkscape:connector-curvature="0" />
    <path
       style="color:#000000;display:inline;overflow:visible;visibility:visible;fill:#f2f8d1;fill-opacity:1;fill-rule:nonzero;stroke:none;stroke-width:0.88812876px;marker:none;enable-background:accumulate"
       d="m 1433.5639,2647.6059 c -5.1825,-25.0264 8.6376,-91.5026 114.8796,-86.028 106.2421,5.4743 123.5173,36.7573 126.1085,46.1423 2.5913,9.3848 25.0491,62.5658 -57.8716,76.6431 -82.9207,14.0773 -157.2038,-0.7821 -183.1165,-36.7574 z"
       id="path3525-9-3"
       inkscape:connector-curvature="0" />
    <path
       style="color:#000000;display:inline;overflow:visible;visibility:visible;fill:#f2f8d1;fill-opacity:1;fill-rule:nonzero;stroke:none;stroke-width:1px;marker:none;enable-background:accumulate"
       d="m 2094.8166,2651.8782 c -35.5068,5.8296 -49.1181,5.0708 -84.7214,-45.6289 -35.6032,-50.6998 -46.087,-38.8932 -46.087,-38.8932 l 9.7006,40.2037 c 0,0 80.236,103.5719 121.1078,44.3184 z"
       id="path3072-6-2"
       inkscape:connector-curvature="0" />
    <path
       style="color:#000000;display:inline;overflow:visible;visibility:visible;fill:#f2f8d1;fill-opacity:1;fill-rule:nonzero;stroke:none;stroke-width:0.89752626px;marker:none;enable-background:accumulate"
       d="m 1718.2316,2607.7929 c -7.1551,-29.7459 11.9249,-108.7581 158.6028,-102.2512 146.6778,6.5067 170.5279,43.6891 174.1054,54.8438 3.5775,11.1547 34.5825,74.3646 -79.8977,91.0967 -114.4803,16.7319 -217.0355,-0.9297 -252.8105,-43.6893 z"
       id="path3525-9-3-6"
       inkscape:connector-curvature="0" />
  </g>
  <g
     inkscape:groupmode="layer"
     id="layer1"
     inkscape:label="txt">
    <g
       inkscape:groupmode="layer"
       id="layer5"
       inkscape:label="frame01">
      <text
         xml:space="preserve"
         style="font-style:normal;font-variant:normal;font-weight:normal;font-stretch:normal;line-height:0%;font-family:Lavi;-inkscape-font-specification:Lavi;text-align:center;letter-spacing:0px;word-spacing:0px;text-anchor:middle;fill:#b17d62;fill-opacity:1;stroke:none"
         x="568.03223"
         y="235.33878"
         id="text4246"><tspan
           sodipodi:role="line"
           style="font-size:45px;line-height:1.25;fill:#b17d62;fill-opacity:1"
           x="568.03223"
           y="235.33878"
           id="tspan4252">.i'e sai doi la darcini</tspan></text>
      <text
         xml:space="preserve"
         style="font-style:normal;font-variant:normal;font-weight:normal;font-stretch:normal;line-height:0%;font-family:Lavi;-inkscape-font-specification:Lavi;text-align:center;letter-spacing:0px;word-spacing:0px;text-anchor:middle;fill:#b17d62;fill-opacity:1;stroke:none"
         x="1154.6538"
         y="257.41605"
         id="text4246-6"><tspan
           sodipodi:role="line"
           style="font-size:45px;line-height:1.25;fill:#b17d62;fill-opacity:1"
           x="1154.6538"
           y="257.41605"
           id="tspan4252-7">i zabna</tspan><tspan
           sodipodi:role="line"
           style="font-size:45px;line-height:1.25;fill:#b17d62;fill-opacity:1"
           x="1154.6538"
           y="313.66605"
           id="tspan7185">doi la mansanili</tspan></text>
    </g>
    <g
       inkscape:groupmode="layer"
       id="layer6"
       inkscape:label="frame02"
       style="display:inline">
      <text
         xml:space="preserve"
         style="font-style:normal;font-variant:normal;font-weight:normal;font-stretch:normal;line-height:0%;font-family:Lavi;-inkscape-font-specification:Lavi;text-align:center;letter-spacing:0px;word-spacing:0px;text-anchor:middle;fill:#b17d62;fill-opacity:1;stroke:#b17d62;stroke-width:1.10773635;stroke-opacity:1"
         x="344.34631"
         y="1380.5071"
         id="text4246-6-5"
         transform="scale(0.95778249,1.0440784)"><tspan
           sodipodi:role="line"
           style="font-size:55.59775925px;line-height:1.25;fill:#b17d62;fill-opacity:1;stroke:#b17d62;stroke-width:1.10773635;stroke-opacity:1"
           x="344.34631"
           y="1380.5071"
           id="tspan4252-7-3">i .oi la piper</tspan></text>
    </g>
    <g
       inkscape:groupmode="layer"
       id="layer7"
       inkscape:label="frame03"
       style="display:inline">
      <text
         xml:space="preserve"
         style="font-style:normal;font-variant:normal;font-weight:normal;font-stretch:normal;line-height:0%;font-family:Lavi;-inkscape-font-specification:Lavi;text-align:center;letter-spacing:0px;word-spacing:0px;text-anchor:middle;fill:#b17d62;fill-opacity:1;stroke:none"
         x="1259.3469"
         y="1432.3241"
         id="text4246-6-2"><tspan
           sodipodi:role="line"
           style="font-size:45px;line-height:1.25;fill:#b17d62;fill-opacity:1"
           x="1259.3469"
           y="1432.3241"
           id="tspan4278">i ku'i mi</tspan></text>
    </g>
    <g
       inkscape:groupmode="layer"
       id="layer8"
       inkscape:label="frame04">
      <text
         xml:space="preserve"
         style="font-style:normal;font-variant:normal;font-weight:normal;font-stretch:normal;line-height:0%;font-family:Lavi;-inkscape-font-specification:Lavi;text-align:center;letter-spacing:0px;word-spacing:0px;text-anchor:middle;display:inline;fill:#b17d62;fill-opacity:1;stroke:#b17d62;stroke-width:1;stroke-opacity:1"
         x="1764.691"
         y="1380.5809"
         id="text4246-6-2-1"
         transform="scale(0.94299065,1.0604559)"><tspan
           sodipodi:role="line"
           style="font-size:57.32448959px;line-height:1.25;fill:#b17d62;fill-opacity:1;stroke:#b17d62;stroke-width:1;stroke-opacity:1"
           x="1773.6479"
           y="1380.5809"
           id="tspan4278-2"> </tspan><tspan
           sodipodi:role="line"
           style="font-size:57.32448959px;line-height:1.25;fill:#b17d62;fill-opacity:1;stroke:#b17d62;stroke-width:1;stroke-opacity:1"
           x="1764.691"
           y="1452.2366"
           id="tspan4327">za'u re'u fliba</tspan></text>
      <text
         xml:space="preserve"
         style="font-style:normal;font-variant:normal;font-weight:normal;font-stretch:normal;line-height:0%;font-family:Lavi;-inkscape-font-specification:Lavi;text-align:center;letter-spacing:0px;word-spacing:0px;text-anchor:middle;display:inline;fill:#b17d62;fill-opacity:1;stroke:none"
         x="1783.0167"
         y="2165.093"
         id="text4246-6-2-7"><tspan
           sodipodi:role="line"
           style="font-size:45px;line-height:1.25;fill:#b17d62;fill-opacity:1;stroke:none"
           x="1783.0167"
           y="2165.093"
           id="tspan3714">i ke'u le ckule</tspan><tspan
           sodipodi:role="line"
           style="font-size:45px;line-height:1.25;fill:#b17d62;fill-opacity:1;stroke:none"
           x="1783.0167"
           y="2221.343"
           id="tspan7198">na stuzi le nu zbasu</tspan><tspan
           sodipodi:role="line"
           style="font-size:45px;line-height:1.25;fill:#b17d62;fill-opacity:1;stroke:none"
           x="1783.0167"
           y="2277.593"
           id="tspan7202">lo catra be lo spati</tspan></text>
    </g>
    <g
       inkscape:groupmode="layer"
       id="layer9"
       inkscape:label="frame05">
      <text
         xml:space="preserve"
         style="font-style:normal;font-variant:normal;font-weight:normal;font-stretch:normal;line-height:0%;font-family:Lavi;-inkscape-font-specification:Lavi;text-align:center;letter-spacing:0px;word-spacing:0px;text-anchor:middle;fill:#b17d62;fill-opacity:1;stroke:#b17d62;stroke-width:4.39599991;stroke-miterlimit:4;stroke-dasharray:none;stroke-opacity:1"
         x="815.24005"
         y="2470.063"
         id="text4246-6-5-6"
         transform="matrix(0.96240981,0,-0.13855859,1.0390584,0,0)"><tspan
           sodipodi:role="line"
           style="font-size:49.99659729px;line-height:1.25;fill:#b17d62;fill-opacity:1;stroke:#b17d62;stroke-width:4.39599991;stroke-miterlimit:4;stroke-dasharray:none;stroke-opacity:1"
           x="815.24005"
           y="2470.063"
           id="tspan4252-7-3-1">.u'a'a'a</tspan></text>
      <text
         xml:space="preserve"
         style="font-style:normal;font-variant:normal;font-weight:normal;font-stretch:normal;line-height:0%;font-family:Lavi;-inkscape-font-specification:Lavi;text-align:center;letter-spacing:0px;word-spacing:0px;text-anchor:middle;fill:#b17d62;fill-opacity:1;stroke:#b17d62;stroke-width:4.39599991;stroke-miterlimit:4;stroke-dasharray:none;stroke-opacity:1"
         x="1148.4797"
         y="2500.4102"
         id="text4246-6-5-6-8"
         transform="matrix(0.96240981,0,-0.13855859,1.0390584,0,0)"><tspan
           sodipodi:role="line"
           style="font-size:49.99659729px;line-height:1.25;fill:#b17d62;fill-opacity:1;stroke:#b17d62;stroke-width:4.39599991;stroke-miterlimit:4;stroke-dasharray:none;stroke-opacity:1"
           x="1148.4797"
           y="2500.4102"
           id="tspan4252-7-3-1-7">.u'a'a</tspan></text>
      <text
         xml:space="preserve"
         style="font-style:normal;font-variant:normal;font-weight:normal;font-stretch:normal;line-height:0%;font-family:Lavi;-inkscape-font-specification:Lavi;text-align:center;letter-spacing:0px;word-spacing:0px;text-anchor:middle;fill:#b17d62;fill-opacity:1;stroke:#b17d62;stroke-width:4.39599991;stroke-miterlimit:4;stroke-dasharray:none;stroke-opacity:1"
         x="1973.8583"
         y="2544.5718"
         id="text4246-6-5-6-8-9"
         transform="matrix(0.96240981,0,-0.13855859,1.0390584,0,0)"><tspan
           sodipodi:role="line"
           style="font-size:49.99659729px;line-height:1.25;fill:#b17d62;fill-opacity:1;stroke:#b17d62;stroke-width:4.39599991;stroke-miterlimit:4;stroke-dasharray:none;stroke-opacity:1"
           x="1973.8583"
           y="2544.5718"
           id="tspan4252-7-3-1-7-2">.u'i .u'i</tspan></text>
      <text
         xml:space="preserve"
         style="font-style:normal;font-variant:normal;font-weight:normal;font-stretch:normal;line-height:0%;font-family:Lavi;-inkscape-font-specification:Lavi;text-align:center;letter-spacing:0px;word-spacing:0px;text-anchor:middle;fill:#b17d62;fill-opacity:1;stroke:#b17d62;stroke-width:4.39599991;stroke-miterlimit:4;stroke-dasharray:none;stroke-opacity:1"
         x="2305.4133"
         y="2500.9087"
         id="text4246-6-5-6-0"
         transform="matrix(0.96240981,0,-0.13855859,1.0390584,0,0)"><tspan
           sodipodi:role="line"
           style="font-size:49.99659729px;line-height:1.25;fill:#b17d62;fill-opacity:1;stroke:#b17d62;stroke-width:4.39599991;stroke-miterlimit:4;stroke-dasharray:none;stroke-opacity:1"
           x="2305.4133"
           y="2500.9087"
           id="tspan4252-7-3-1-2">.u'a'a'a'a'a</tspan></text>
    </g>
  </g>
</svg>
