<?xml version="1.0" encoding="UTF-8" standalone="no"?>
<!-- Created with Inkscape (http://www.inkscape.org/) -->

<svg
   xmlns:dc="http://purl.org/dc/elements/1.1/"
   xmlns:cc="http://creativecommons.org/ns#"
   xmlns:rdf="http://www.w3.org/1999/02/22-rdf-syntax-ns#"
   xmlns:svg="http://www.w3.org/2000/svg"
   xmlns="http://www.w3.org/2000/svg"
   xmlns:xlink="http://www.w3.org/1999/xlink"
   xmlns:sodipodi="http://sodipodi.sourceforge.net/DTD/sodipodi-0.dtd"
   xmlns:inkscape="http://www.inkscape.org/namespaces/inkscape"
   id="svg2"
   version="1.1"
   inkscape:version="0.92.4 (5da689c313, 2019-01-14)"
   width="2481"
   height="3503"
   sodipodi:docname="E29P03.svg">
  <metadata
     id="metadata8">
    <rdf:RDF>
      <cc:Work
         rdf:about="">
        <dc:format>image/svg+xml</dc:format>
        <dc:type
           rdf:resource="http://purl.org/dc/dcmitype/StillImage" />
        <dc:title />
      </cc:Work>
    </rdf:RDF>
  </metadata>
  <defs
     id="defs6" />
  <sodipodi:namedview
     pagecolor="#ffffff"
     bordercolor="#666666"
     borderopacity="1"
     objecttolerance="10"
     gridtolerance="10"
     guidetolerance="10"
     inkscape:pageopacity="0"
     inkscape:pageshadow="2"
     inkscape:window-width="1920"
     inkscape:window-height="1027"
     id="namedview4"
     showgrid="false"
     inkscape:zoom="0.36246311"
     inkscape:cx="1283.451"
     inkscape:cy="1848.72"
     inkscape:window-x="1920"
     inkscape:window-y="26"
     inkscape:window-maximized="1"
     inkscape:current-layer="layer3"
     inkscape:snap-global="false" />
  <g
     inkscape:groupmode="layer"
     id="layer2"
     inkscape:label="artwork"
     sodipodi:insensitive="true">
    <image
       sodipodi:absref="/felles/omsetting/pepper-carrot/webcomics/ep29_Destroyer-of-Worlds/lang/nn/../gfx_Pepper-and-Carrot_by-David-Revoy_E29P03.png"
       xlink:href="../gfx_Pepper-and-Carrot_by-David-Revoy_E29P03.png"
       width="2481"
       height="3503"
       id="image10"
       x="0"
       y="0" />
  </g>
  <g
     inkscape:groupmode="layer"
     id="layer3"
     inkscape:label="speechbubbles">
    <path
       style="color:#000000;display:inline;overflow:visible;visibility:visible;fill:#ffffff;fill-opacity:1;fill-rule:nonzero;stroke:none;stroke-width:1.03702748px;marker:none;enable-background:accumulate"
       d="m 164.55092,203.28558 c 3.40557,-26.62382 -1.20309,-57.915 38.6135,-72.94279 39.81659,-15.02779 124.05843,-17.7922 211.5691,-12.51509 46.87542,2.8267 124.40468,-0.0987 160.33186,15.19077 23.47324,9.98947 35.49293,33.31133 31.04862,72.31502 -4.44429,39.00365 -25.69106,59.31682 -69.05624,68.66575 -43.36518,9.34893 -86.83333,9.03196 -124.68771,8.59783 -36.54967,-0.41917 -64.89576,3.12535 -113.51207,-2.15834 -48.61632,-5.28369 -96.79213,-14.11222 -110.86902,-27.42734 -8.81178,-8.33494 -14.90268,-16.64272 -18.67493,-24.9286 -3.77224,-8.28588 -5.22588,-16.54986 -4.76311,-24.79721 z"
       id="path4546-6"
       inkscape:connector-curvature="0"
       sodipodi:nodetypes="csssssssssc" />
    <path
       style="fill:#ffffff;stroke:none;stroke-width:1"
       d="m 240.20205,385.06686 c -58.13838,-27.45721 -59.25417,-104.2317 6.40363,-135.1495 33.25786,-15.66089 31.21798,-5.00947 31.21798,-5.00947 l -6.80518,-52.3863 c 0,0 17.27652,-20.93641 -34.72953,12.43271 -52.00605,33.36911 -110.96723,129.16604 3.9131,180.11256 z"
       id="path3063"
       inkscape:connector-curvature="0"
       sodipodi:nodetypes="cscczc" />
    <path
       style="color:#000000;display:inline;overflow:visible;visibility:visible;fill:#ffffff;fill-opacity:1;fill-rule:nonzero;stroke:none;stroke-width:1px;marker:none;enable-background:accumulate"
       d="m 1789.5392,151.46292 c 24.7497,-42.55044 437.0007,-46.88319 522.5637,8.26803 52.0654,33.55975 28.1104,254.78714 -20.2725,290.29644 -56.9418,41.79071 -351.7846,28.5141 -431.8252,5.21999 -76.1505,-22.16198 -80.9143,-121.48117 -82.804,-169.86208 -1.1762,-30.11475 -12.4117,-91.37194 12.338,-133.92238 z"
       id="path4040-4"
       inkscape:connector-curvature="0"
       sodipodi:nodetypes="zssssz" />
    <path
       style="color:#000000;display:inline;overflow:visible;visibility:visible;fill:#ffffff;fill-opacity:1;fill-rule:nonzero;stroke:none;stroke-width:0.99999994px;marker:none;enable-background:accumulate"
       d="m 1521.7564,267.86763 c 32.5901,-37.14844 120.5249,-77.58678 199.7918,-73.40468 42.0311,2.21755 81.2853,18.77332 113.3871,43.73164 54.8474,16.58165 18.1095,-34.39627 18.1095,-34.39627 -9.1911,-10.4538 -45.1517,-22.91599 -79.6603,-28.40181 -77.1713,-12.26787 -186.4105,2.0063 -251.6281,92.47112 z"
       id="path3984"
       inkscape:connector-curvature="0"
       sodipodi:nodetypes="csccsc" />
    <path
       style="color:#000000;display:inline;overflow:visible;visibility:visible;fill:#ffffff;fill-opacity:1;fill-rule:nonzero;stroke:none;stroke-width:0.99999994px;marker:none;enable-background:accumulate"
       d="m 1899.4903,523.13097 c 2.7683,-26.83715 9.0093,-48.12764 43.3452,-59.93328 34.336,-11.80564 96.7669,-14.12644 175.972,-9.48237 42.4266,2.48761 99.0222,6.11009 132.8327,17.32411 33.8107,11.21403 44.8362,30.01963 41.2735,69.33165 -3.5626,39.31201 -16.0221,60.25338 -55.1314,70.00012 -39.1094,9.74673 -104.8687,8.29882 -119.1832,9.29041 -37.4283,-3.12242 -109.598,1.3061 -155.4774,-6.95811 -45.8795,-8.2642 -65.4686,-29.22112 -63.6314,-89.57253 z"
       id="path4546-6-0"
       inkscape:connector-curvature="0"
       sodipodi:nodetypes="cssssscsc" />
    <path
       style="color:#000000;display:inline;overflow:visible;visibility:visible;fill:#ffffff;fill-opacity:1;fill-rule:nonzero;stroke:none;stroke-width:0.88439834px;marker:none;enable-background:accumulate"
       d="m 130.8491,1694.024 c 3.46425,-29.5773 3.96151,-58.1325 49.78231,-75.4938 45.8208,-17.3611 126.54466,-22.1677 227.93928,-17.8555 54.31242,2.3099 122.732,5.4231 166.0419,17.4284 43.30989,12.0053 61.51011,32.9027 57.06567,76.2239 -4.44443,43.3211 -28.42852,62.2482 -78.45901,73.3756 -50.03047,11.1275 -126.10736,14.4554 -144.42656,15.6921 -18.31919,1.2365 -75.13723,0.171 -131.50896,-4.8322 -56.37173,-5.0031 -94.92971,-8.5012 -111.46375,-23.016 -25.91981,-18.3815 -36.54709,-39.9943 -34.97088,-61.5225 z"
       id="path4546-6-2"
       inkscape:connector-curvature="0"
       sodipodi:nodetypes="cssssssscc" />
    <path
       style="color:#000000;display:inline;overflow:visible;visibility:visible;fill:#ffffff;fill-opacity:1;fill-rule:nonzero;stroke:none;stroke-width:1px;marker:none;enable-background:accumulate"
       d="m 521.869,1649.1001 c 16.11108,-12.2669 15.86616,-23.0299 15.86632,-28.1369 10e-5,-5.107 -4.54529,-18.6761 -3.34265,-24.7247 1.02193,-4.995 3.12956,-18.1154 7.70997,-16.7463 4.58049,1.369 41.01203,26.2432 51.36903,17.3665 10.35713,-8.8768 11.10734,-20.8369 5.69423,-31.5145 -5.41309,-10.6777 -12.30128,-24.7121 -5.30101,-32.1137 7.00027,-7.4017 18.59276,-5.447 23.97197,-2.6844 5.3792,2.7626 35.49917,23.7296 45.22292,25.6243 9.7237,1.8947 23.71407,1.7027 43.50196,-19.9526 -14.8657,10.0411 -26.23617,15.9908 -34.47171,12.561 -8.23568,-3.4298 -23.77359,-8.4777 -30.56794,-16.4657 -6.79439,-7.9881 -19.06179,-24.7851 -27.96463,-25.3584 -8.9028,-0.5734 -30.44585,-2.3321 -37.17011,6.2487 -6.72431,8.5806 -9.50599,21.5672 -1.38826,37.7993 4.40691,11.1306 5.56687,16.9279 3.01621,18.7834 -2.55071,1.8553 -15.98612,-1.694 -23.40319,-10.6812 -7.41712,-8.9873 -15.67928,-14.4795 -30.30826,-9.5821 -15.5687,3.9577 -23.51473,25.3051 -27.43064,29.9131 -2.73121,11.1832 -10.25128,59.7905 -19.09981,53.7189 z"
       id="path5058"
       inkscape:connector-curvature="0"
       sodipodi:nodetypes="cscsssssscssssccscccc" />
    <path
       style="color:#000000;display:inline;overflow:visible;visibility:visible;fill:#ffffff;fill-opacity:1;fill-rule:nonzero;stroke:none;stroke-width:0.94894391px;marker:none;enable-background:accumulate"
       d="m 1770.82,1053.2341 c 6.9771,-8.2073 23.6519,-16.1303 61.6045,-20.6081 37.9524,-4.478 84.7367,-3.4365 135.3015,-2.4845 50.5647,0.952 50.3614,0.2001 96.3517,0.2078 48.9442,0.01 73.7289,7.7221 102.9376,33.4038 29.2088,25.6816 43.5564,50.3168 43.3878,82.4557 -0.1687,32.139 -6.5451,55.2101 -33.5772,76.8531 -27.0322,21.6429 -67.6144,38.114 -120.1621,41.6713 -52.5477,3.5575 -176.4796,5.498 -240.2736,-16.6429 -63.7943,-22.1412 -67.41,-37.9122 -70.654,-105.6803 -1.3239,-27.659 -2.8244,-56.347 25.0838,-89.1759 z"
       id="path4040"
       inkscape:connector-curvature="0"
       sodipodi:nodetypes="sssszzzzsss" />
    <path
       style="color:#000000;display:inline;overflow:visible;visibility:visible;fill:#ffffff;fill-opacity:1;fill-rule:nonzero;stroke:none;stroke-width:1.0653249px;marker:none;enable-background:accumulate"
       d="m 1881.5529,1219.0726 c -41.8665,122.7323 -35.3869,185.6777 42.5567,264.4098 -47.4291,-53.5721 -48.443,-140.458 -27.8836,-196.5656 17.5953,-48.018 24.528,-47.5096 24.528,-47.5096 z"
       id="path4440"
       inkscape:connector-curvature="0"
       sodipodi:nodetypes="ccscc" />
    <path
       style="color:#000000;display:inline;overflow:visible;visibility:visible;fill:#ffffff;fill-opacity:1;fill-rule:nonzero;stroke:none;stroke-width:0.90702653px;marker:none;enable-background:accumulate"
       d="m 605.50776,1948.5938 c 36.49635,-17.1309 356.01408,-15.2068 411.47494,-9.6943 42.5081,4.225 116.2724,-9.0924 144.9406,16.292 21.7684,19.2751 35.5704,37.6643 35.7381,85.2326 0.1691,47.9387 2.9976,74.1107 -36.6765,93.4837 -51.7262,25.258 -301.74981,2.2628 -355.80279,1.4848 -74.26128,-1.0689 -90.92744,14.3803 -199.5675,7.9407 -26.3802,-1.5637 -40.95916,-47.0383 -44.41161,-88.4611 -3.10948,-69.989 20.41126,-94.2525 44.30476,-106.2784 z"
       id="path4546-6-28"
       inkscape:connector-curvature="0"
       sodipodi:nodetypes="csssssscc" />
    <path
       style="color:#000000;display:inline;overflow:visible;visibility:visible;fill:#ffffff;fill-opacity:1;fill-rule:nonzero;stroke:none;stroke-width:1px;marker:none;enable-background:accumulate"
       d="m 876.44075,2262.2076 c 27.46212,-10.0522 29.72719,-13.3589 28.53705,-27.8918 -1.19034,-14.5328 -9.92446,-26.5364 7.13822,-46.8557 17.0627,-20.3194 23.42581,-21.4269 33.84191,-22.8653 -10.7962,-15.1116 -24.19769,-37.3822 -37.83781,-39.5812 -13.64004,-2.1992 45.1695,-29.6441 45.1695,-29.6441 0,0 22.75583,46.3627 21.99513,70.4189 -5.53179,28.827 -31.7847,25.0277 -45.6068,37.2789 -13.82198,12.2511 -2.66123,31.1992 -11.63877,43.0536 -8.97788,11.8543 -27.71027,14.1688 -41.59843,16.0867 z"
       id="path4538"
       inkscape:connector-curvature="0"
       sodipodi:nodetypes="cccccccscc" />
    <path
       style="fill:#ffffff;fill-rule:evenodd;stroke:none;stroke-width:1px;stroke-linecap:butt;stroke-linejoin:miter;stroke-opacity:1"
       d="m 1327.6745,1984.7216 c 26.2714,-4.5331 53.021,-6.8902 26.5725,-39.0973 36.653,15.9013 92.5782,24.7011 116.0415,-9.3315 19.1705,32.4151 66.0726,18.1393 94.3956,9.2863 -20.7232,39.1099 16.7104,35.1498 44.3547,26.2972 -52.9688,44.4003 -25.1544,58.521 -4.2828,75.2441 -52.0558,-12.3727 -87.7166,-0.2731 -70.3012,27.9538 -43.02,-29.2045 -92.6605,-23.5745 -78.1702,4.2937 -10.6718,-13.2298 -9.5432,-40.9431 -67.0976,1.7915 18.1902,-44.5555 -5.6531,-39.8788 -44.2559,-17.9152 6.0499,-15.1762 42.0072,-38.2538 -18.5589,-35.8306 37.8307,-14.4273 50.9731,-25.3946 1.3023,-42.692 z"
       id="path4584"
       inkscape:connector-curvature="0"
       sodipodi:nodetypes="cccccccccccc" />
    <path
       style="color:#000000;display:inline;overflow:visible;visibility:visible;fill:#ffffff;fill-opacity:1;fill-rule:nonzero;stroke:none;stroke-width:1px;marker:none;enable-background:accumulate"
       d="m 1472.7384,2047.3416 c 0.2312,29.9074 3.2778,68.8487 8.7074,74.7102 -9.1366,-3.6864 -17.8817,-5.2616 -24.6773,-6.6173 -2.08,14.7875 9.0067,61.8116 14.5567,88.5609 -25.1053,-37.9041 -39.0273,-94.4 -38.8725,-117.7051 8.4834,5.8822 16.5056,8.882 21.4065,8.8433 5.497,-10.4938 -6.7061,-51.3933 -7.3939,-51.6226 z"
       id="path5066"
       inkscape:connector-curvature="0"
       sodipodi:nodetypes="cccccccc" />
    <path
       style="color:#000000;display:inline;overflow:visible;visibility:visible;fill:#ffffff;fill-opacity:1;fill-rule:nonzero;stroke:none;stroke-width:1px;marker:none;enable-background:accumulate"
       d="m 258.17827,2871.1843 c 30.2793,-24.4433 424.76415,-39.5168 479.48748,13.3232 34.72535,33.5303 21.1381,160.3336 -23.20101,184.631 -52.18249,28.5956 -343.8353,20.846 -417.18594,4.9068 -69.78575,-15.1645 -72.36364,-67.106 -75.88315,-117.5643 -1.43649,-20.594 6.50307,-60.8532 36.78262,-85.2967 z"
       id="path4040-4-0"
       inkscape:connector-curvature="0"
       sodipodi:nodetypes="zssssz" />
    <path
       style="color:#000000;display:inline;overflow:visible;visibility:visible;fill:#ffffff;fill-opacity:1;fill-rule:nonzero;stroke:none;stroke-width:0.90364814px;marker:none;enable-background:accumulate"
       d="m 221.42922,3075.0205 c 52.64047,-7.9021 440.82266,-47.0203 519.5145,0.6945 63.15548,38.2944 40.25671,183.1142 -26.42625,210.864 -64.24432,26.735 -391.63301,23.8079 -475.18038,5.604 -79.48689,-17.3192 -71.35521,-58.9257 -75.22006,-114.6649 -1.76369,-25.4362 4.67172,-94.5955 57.31219,-102.4976 z"
       id="path4040-4-0-6"
       inkscape:connector-curvature="0"
       sodipodi:nodetypes="zssssz" />
    <path
       style="color:#000000;display:inline;overflow:visible;visibility:visible;fill:#ffffff;fill-opacity:1;fill-rule:nonzero;stroke:none;stroke-width:1.00305235px;marker:none;enable-background:accumulate"
       d="m 1761.59,2887.6005 c 35.089,-22.4576 425.614,-39.6089 482.0526,21.8461 45.0864,49.0937 48.0358,213.822 -15.5379,246.0135 -61.2487,31.0142 -256.1575,23.5733 -444.7471,5.1028 -66.6455,-6.5271 -73.1111,-49.4675 -76.884,-147.3706 -2.5547,-66.2926 20.0274,-103.1343 55.1164,-125.5918 z"
       id="path4040-4-0-6-3"
       inkscape:connector-curvature="0"
       sodipodi:nodetypes="zssssz" />
    <path
       style="display:inline;fill:#ffffff;fill-rule:evenodd;stroke:none;stroke-width:1.24238884px;stroke-linecap:butt;stroke-linejoin:miter;stroke-opacity:1"
       d="m 1733.2069,3116.6884 c 60.708,31.0625 75.9992,24.0525 74.9572,-48.1516 28.9633,78.0253 71.8101,80.4845 83.7304,42.0409 38.3456,33.0438 62.2955,23.7749 81.3104,0 7.0871,30.576 22.2862,18.2374 35.4397,16.7187 4.3323,6.9177 43.3799,22.2302 103.4938,-0.6682 3.8937,9.1562 9.1393,17.0412 44.351,-3.2589 9.1223,37.1639 38.3906,-2.0597 68.3747,-43.9964 -18.6809,51.5576 -10.9346,58.8398 12.9358,39.1079 -10.9133,21.2317 -20.1997,28.7012 21.2643,-7.3369 -14.1949,39.1895 25.8051,21.2564 85.9175,-35.0298 -30.0692,41.6064 -109.8058,111.7309 -57.2867,105.9169 -7.3242,12.2656 -33.4488,22.9525 44.3509,42.3669 -14.5241,-1.0551 -58.8659,-6.5207 -21.8769,31.4012 4.9558,4.1194 -11.6351,6.6351 20.0291,17.4834 -18.6917,-0.738 -30.1548,1.8985 -12.9358,17.9244 -34.119,-0.8666 -21.353,15.9849 3.6958,37.4783 -49.4092,-27.5699 -52.1281,-17.5498 -53.5909,-6.5179 -61.9242,-37.5871 -82.5888,-23.8792 -69.661,6.4364 -27.3451,-40.9327 -91.5878,-19.4314 -94.8077,13.1176 -9.5417,-31.4757 -115.796,-37.9839 -140.2201,-3.3406 15.138,-36.9161 -16.6527,-19.5322 -48.6084,-5.8662 17.4996,-41.4354 -26.9119,-29.2328 -83.1584,11.0806 31.4977,-45.7565 -4.2762,-29.228 -57.2869,3.259 20.0292,-44.951 -12.5901,-66.6898 -90.5501,-68.4387 37.314,-16.2144 59.0734,-36.6198 20.3278,-73.3271 43.6774,10.8086 32.5805,-19.8442 1.7459,-59.721 47.641,32.7305 46.647,15.2393 28.0586,-28.6789 z"
       id="path4508"
       inkscape:connector-curvature="0"
       sodipodi:nodetypes="cccccccccccccccccccccccccccc" />
    <path
       style="color:#000000;display:inline;overflow:visible;visibility:visible;fill:#ffffff;fill-opacity:1;fill-rule:nonzero;stroke:none;stroke-width:1px;marker:none;enable-background:accumulate"
       d="m 731.14816,2946.5981 c 58.74459,-31.8831 133.6737,-22.4689 151.46532,-4.8409 -26.0629,-31.5484 -110.87474,-48.9787 -156.02352,-29.9411 -36.86673,19.522 4.5582,34.782 4.5582,34.782 z"
       id="path4480"
       inkscape:connector-curvature="0"
       sodipodi:nodetypes="cccc" />
    <path
       style="color:#000000;display:inline;overflow:visible;visibility:visible;fill:#ffffff;fill-opacity:1;fill-rule:nonzero;stroke:none;stroke-width:0.99999994px;marker:none;enable-background:accumulate"
       d="m 1721.525,3105.1967 c -45.0341,26.3761 -102.4755,18.588 -116.1149,4.0048 19.9802,26.0992 84.9979,40.5188 119.6093,24.7695 28.2623,-16.1501 -3.4944,-28.7743 -3.4944,-28.7743 z"
       id="path4480-2"
       inkscape:connector-curvature="0"
       sodipodi:nodetypes="cccc"
       inkscape:transform-center-x="-155.62645"
       inkscape:transform-center-y="34.210293" />
  </g>
  <g
     inkscape:groupmode="layer"
     id="layer1"
     inkscape:label="txt">
    <text
       xml:space="preserve"
       style="font-style:normal;font-variant:normal;font-weight:normal;font-stretch:normal;line-height:0%;font-family:Lavi;-inkscape-font-specification:Lavi;text-align:center;letter-spacing:0px;word-spacing:0px;text-anchor:middle;fill:#000000;fill-opacity:1;stroke:none"
       x="387.85104"
       y="185.28159"
       id="text4246"><tspan
         sodipodi:role="line"
         style="font-size:45px;line-height:1.20000005"
         x="387.85104"
         y="185.28159"
         id="tspan7234">Ha-ha, det er litt</tspan><tspan
         sodipodi:role="line"
         style="font-size:45px;line-height:1.20000005"
         x="387.85104"
         y="239.28159"
         id="tspan881">vrient å forklara.</tspan></text>
    <text
       xml:space="preserve"
       style="font-style:normal;font-variant:normal;font-weight:normal;font-stretch:normal;line-height:0%;font-family:Lavi;-inkscape-font-specification:Lavi;text-align:center;letter-spacing:0px;word-spacing:0px;text-anchor:middle;fill:#000000;fill-opacity:1;stroke:none"
       x="2050.4819"
       y="202.01216"
       id="text4246-3"><tspan
         sodipodi:role="line"
         style="font-size:45px;line-height:1.20000005"
         x="2050.4819"
         y="202.01216"
         id="tspan920">Men du kan på ein måte</tspan><tspan
         sodipodi:role="line"
         style="font-size:45px;line-height:1.20000005"
         x="2050.4819"
         y="256.01218"
         id="tspan897">seia at trolldommen</tspan><tspan
         sodipodi:role="line"
         style="font-size:45px;line-height:1.20000005"
         x="2050.4819"
         y="310.01218"
         id="tspan899">byggjer på det å skjøna</tspan><tspan
         sodipodi:role="line"
         style="font-size:45px;line-height:1.20000005"
         x="2050.4819"
         y="364.01218"
         id="tspan901">lovene som styrer</tspan><tspan
         sodipodi:role="line"
         style="font-size:45px;line-height:1.20000005"
         x="2050.4819"
         y="418.01218"
         id="tspan915">kaotiske system ...</tspan></text>
    <text
       xml:space="preserve"
       style="font-style:normal;font-variant:normal;font-weight:normal;font-stretch:normal;line-height:0%;font-family:Lavi;-inkscape-font-specification:Lavi;text-align:center;letter-spacing:0px;word-spacing:0px;text-anchor:middle;fill:#000000;fill-opacity:1;stroke:none"
       x="2099.2529"
       y="526.09058"
       id="text4246-3-5"><tspan
         sodipodi:role="line"
         style="font-size:45px;line-height:1.20000005"
         x="2099.2529"
         y="526.09058"
         id="tspan924">... dei minste</tspan><tspan
         sodipodi:role="line"
         style="font-size:45px;line-height:1.20000005"
         x="2099.2529"
         y="580.09058"
         id="tspan919">til dei største.</tspan></text>
    <text
       xml:space="preserve"
       style="font-style:normal;font-variant:normal;font-weight:normal;font-stretch:normal;line-height:0%;font-family:Lavi;-inkscape-font-specification:Lavi;text-align:center;letter-spacing:0px;word-spacing:0px;text-anchor:middle;fill:#000000;fill-opacity:1;stroke:none"
       x="381.26578"
       y="1680.55"
       id="text4246-3-5-1"><tspan
         sodipodi:role="line"
         style="font-size:45px;line-height:1.20000005"
         x="381.26578"
         y="1680.55"
         id="tspan931">Ja, det var jo veldig</tspan><tspan
         sodipodi:role="line"
         style="font-size:45px;line-height:1.20000005"
         x="381.26578"
         y="1734.55"
         id="tspan923">klårgjerande ...</tspan></text>
    <text
       xml:space="preserve"
       style="font-style:normal;font-variant:normal;font-weight:normal;font-stretch:normal;line-height:0%;font-family:Lavi;-inkscape-font-specification:Lavi;text-align:center;letter-spacing:0px;word-spacing:0px;text-anchor:middle;fill:#000000;fill-opacity:1;stroke:none"
       x="1977.5531"
       y="1113.5421"
       id="text4246-3-5-1-0"><tspan
         sodipodi:role="line"
         style="font-size:45px;line-height:1.20000005"
         x="1977.5531"
         y="1113.5421"
         id="tspan7258">Vent litt, så kan</tspan><tspan
         sodipodi:role="line"
         style="font-size:45px;line-height:1.20000005"
         x="1977.5531"
         y="1167.5421"
         id="tspan930">eg kanskje finna eit</tspan><tspan
         sodipodi:role="line"
         style="font-size:45px;line-height:1.20000005"
         x="1977.5531"
         y="1221.5421"
         id="tspan936">enkelt døme.</tspan></text>
    <text
       xml:space="preserve"
       style="font-style:normal;font-variant:normal;font-weight:normal;font-stretch:normal;line-height:0%;font-family:Lavi;-inkscape-font-specification:Lavi;text-align:center;letter-spacing:0px;word-spacing:0px;text-anchor:middle;fill:#000000;fill-opacity:1;stroke:none"
       x="878.70795"
       y="1998.9795"
       id="text4246-3-5-1-0-0"><tspan
         sodipodi:role="line"
         style="font-size:45px;line-height:1.20000005"
         x="878.70795"
         y="1998.9795"
         id="tspan889">Berre ein augneblink, slik</tspan><tspan
         sodipodi:role="line"
         style="font-size:45px;line-height:1.20000005"
         x="878.70795"
         y="2052.9795"
         id="tspan891">at den gode, gamle kaosah-</tspan><tspan
         sodipodi:role="line"
         style="font-size:45px;line-height:1.20000005"
         x="878.70795"
         y="2106.9795"
         id="tspan900">visdommen får verka litt ...</tspan></text>
    <text
       xml:space="preserve"
       style="font-style:normal;font-variant:normal;font-weight:normal;font-stretch:normal;line-height:0%;font-family:Lavi;-inkscape-font-specification:Lavi;text-align:center;letter-spacing:0px;word-spacing:0px;text-anchor:middle;fill:#000000;fill-opacity:1;stroke:none"
       x="1468.3866"
       y="2022.1494"
       id="text4246-3-5-1-0-0-8"><tspan
         sodipodi:role="line"
         style="font-size:45px;line-height:1.20000005"
         x="1468.3866"
         y="2022.1494"
         id="tspan1006-2">Der ja!</tspan></text>
    <text
       xml:space="preserve"
       style="font-style:normal;font-variant:normal;font-weight:normal;font-stretch:normal;font-size:10.15074348px;line-height:0%;font-family:Lavi;-inkscape-font-specification:Lavi;text-align:center;letter-spacing:0px;word-spacing:0px;text-anchor:middle;opacity:0.5;fill:#000000;fill-opacity:1;stroke:none;stroke-width:1"
       x="1523.8157"
       y="1746.3625"
       id="text4246-37"
       transform="matrix(0.95687978,-0.3398346,0.04566864,1.0288442,0,0)"><tspan
         sodipodi:role="line"
         style="font-style:normal;font-variant:normal;font-weight:bold;font-stretch:normal;font-size:38.06529236px;line-height:1.20000005;font-family:Lavi;-inkscape-font-specification:'Lavi Bold';stroke-width:1"
         x="1523.8157"
         y="1746.3625"
         id="tspan4252-5">KLØ</tspan></text>
    <text
       xml:space="preserve"
       style="font-style:normal;font-variant:normal;font-weight:normal;font-stretch:normal;font-size:8.87699509px;line-height:0%;font-family:Lavi;-inkscape-font-specification:Lavi;text-align:center;letter-spacing:0px;word-spacing:0px;text-anchor:middle;opacity:0.5;fill:#000000;fill-opacity:1;stroke:none;stroke-width:0.99999994"
       x="1830.3356"
       y="1525.6039"
       id="text4246-37-9"
       transform="matrix(0.9369198,-0.1877366,-0.11760016,1.0908915,0,0)"><tspan
         sodipodi:role="line"
         style="font-style:normal;font-variant:normal;font-weight:bold;font-stretch:normal;font-size:33.28873062px;line-height:1.20000005;font-family:Lavi;-inkscape-font-specification:'Lavi Bold';stroke-width:0.99999994"
         x="1830.3356"
         y="1525.6039"
         id="tspan4252-5-2">KLØ</tspan></text>
    <text
       xml:space="preserve"
       style="font-style:normal;font-variant:normal;font-weight:normal;font-stretch:normal;line-height:0%;font-family:Lavi;-inkscape-font-specification:Lavi;text-align:center;letter-spacing:0px;word-spacing:0px;text-anchor:middle;fill:#000000;fill-opacity:1;stroke:none"
       x="488.8468"
       y="2925.6206"
       id="text4246-3-5-1-0-0-8-9"><tspan
         sodipodi:role="line"
         style="font-size:45px;line-height:1.20000005"
         x="488.8468"
         y="2925.6206"
         id="tspan7284">Ser de denne tann-</tspan><tspan
         sodipodi:role="line"
         style="font-size:45px;line-height:1.20000005"
         x="488.8468"
         y="2979.6206"
         id="tspan952">pirkaren som låg</tspan><tspan
         sodipodi:role="line"
         style="font-size:45px;line-height:1.20000005"
         x="488.8468"
         y="3033.6206"
         id="tspan958">mellom brusteinane?</tspan></text>
    <text
       xml:space="preserve"
       style="font-style:normal;font-variant:normal;font-weight:normal;font-stretch:normal;line-height:0%;font-family:Lavi;-inkscape-font-specification:Lavi;text-align:center;letter-spacing:0px;word-spacing:0px;text-anchor:middle;fill:#000000;fill-opacity:1;stroke:none"
       x="469.74149"
       y="3142.5361"
       id="text4246-3-5-1-0-0-8-9-3"><tspan
         sodipodi:role="line"
         style="font-size:45px;line-height:1.20000005"
         x="469.74149"
         y="3142.5361"
         id="tspan7303">Ved å plukka han opp har</tspan><tspan
         sodipodi:role="line"
         style="font-size:45px;line-height:1.20000005"
         x="469.74149"
         y="3196.5361"
         id="tspan965">eg heilt sikkert forhindra</tspan><tspan
         sodipodi:role="line"
         style="font-size:45px;line-height:1.20000005"
         x="469.74149"
         y="3250.5361"
         id="tspan967">nokon å tråkka på han.</tspan></text>
    <text
       xml:space="preserve"
       style="font-style:normal;font-variant:normal;font-weight:normal;font-stretch:normal;line-height:0%;font-family:Lavi;-inkscape-font-specification:Lavi;text-align:center;letter-spacing:0px;word-spacing:0px;text-anchor:middle;fill:#000000;fill-opacity:1;stroke:none"
       x="1987.7025"
       y="2946.2266"
       id="text4246-3-5-1-0-0-8-9-3-9"><tspan
         sodipodi:role="line"
         style="font-size:45px;line-height:1.20000005"
         x="1987.7025"
         y="2946.2266"
         id="tspan1037">Ei lita, positiv endring</tspan><tspan
         sodipodi:role="line"
         style="font-size:45px;line-height:1.20000005"
         x="1987.7025"
         y="3000.2266"
         id="tspan978">i livsens store kaotiske</tspan><tspan
         sodipodi:role="line"
         style="font-size:45px;line-height:1.20000005"
         x="1987.7025"
         y="3054.2266"
         id="tspan980">system kan altså ha</tspan><tspan
         sodipodi:role="line"
         style="font-size:45px;line-height:1.20000005"
         x="1987.7025"
         y="3108.2266"
         id="tspan986">enorme konsekvensar.</tspan></text>
    <text
       xml:space="preserve"
       style="font-style:normal;font-variant:normal;font-weight:normal;font-stretch:normal;font-size:53.33333206px;line-height:0%;font-family:Lavi;-inkscape-font-specification:Lavi;text-align:center;letter-spacing:0px;word-spacing:0px;text-anchor:middle;fill:#000000;fill-opacity:1;stroke:none"
       x="2000.7581"
       y="3195.9844"
       id="text4246-3-5-1-0-0-8-9-3-9-8"><tspan
         sodipodi:role="line"
         style="font-size:53.33333206px;line-height:1.20000005"
         x="2000.7581"
         y="3195.9844"
         id="tspan1041">Det er dette</tspan><tspan
         sodipodi:role="line"
         style="font-size:53.33333206px;line-height:1.20000005"
         x="2000.7581"
         y="3259.9844"
         id="tspan990">kaosah handlar om!</tspan></text>
  </g>
</svg>
