<?xml version="1.0" encoding="UTF-8" standalone="no"?>
<svg
   xmlns:dc="http://purl.org/dc/elements/1.1/"
   xmlns:cc="http://creativecommons.org/ns#"
   xmlns:rdf="http://www.w3.org/1999/02/22-rdf-syntax-ns#"
   xmlns:svg="http://www.w3.org/2000/svg"
   xmlns="http://www.w3.org/2000/svg"
   xmlns:xlink="http://www.w3.org/1999/xlink"
   xmlns:sodipodi="http://sodipodi.sourceforge.net/DTD/sodipodi-0.dtd"
   xmlns:inkscape="http://www.inkscape.org/namespaces/inkscape"
   id="svg2"
   version="1.1"
   inkscape:version="1.0 (4035a4fb49, 2020-05-01)"
   width="2481"
   height="3503"
   sodipodi:docname="E28P05.svg">
  <metadata
     id="metadata8">
    <rdf:RDF>
      <cc:Work
         rdf:about="">
        <dc:format>image/svg+xml</dc:format>
        <dc:type
           rdf:resource="http://purl.org/dc/dcmitype/StillImage" />
        <dc:title />
      </cc:Work>
    </rdf:RDF>
  </metadata>
  <defs
     id="defs6" />
  <sodipodi:namedview
     pagecolor="#ffffff"
     bordercolor="#666666"
     borderopacity="1"
     objecttolerance="10"
     gridtolerance="10"
     guidetolerance="10"
     inkscape:pageopacity="0"
     inkscape:pageshadow="2"
     inkscape:window-width="1871"
     inkscape:window-height="1056"
     id="namedview4"
     showgrid="false"
     inkscape:zoom="0.38319192"
     inkscape:cx="1237.4402"
     inkscape:cy="1012.8402"
     inkscape:window-x="49"
     inkscape:window-y="24"
     inkscape:window-maximized="1"
     inkscape:current-layer="layer1"
     inkscape:document-rotation="0" />
  <g
     inkscape:groupmode="layer"
     id="layer2"
     inkscape:label="artwork"
     sodipodi:insensitive="true">
    <image
       sodipodi:absref="C:\Users\stero\Documents\Kernewek\Pepper and Carrot\webcomics\ep28_The-Festivities\lang\gfx_Pepper-and-Carrot_by-David-Revoy_E28P05.png"
       xlink:href="../gfx_Pepper-and-Carrot_by-David-Revoy_E28P05.png"
       y="0"
       x="0"
       id="image10"
       height="3503"
       width="2481" />
  </g>
  <g
     inkscape:groupmode="layer"
     id="layer3"
     inkscape:label="speechbubbles">
    <path
       style="fill:#ffffff;fill-rule:evenodd;stroke:none;stroke-width:0.92832726px;stroke-linecap:butt;stroke-linejoin:miter;stroke-opacity:1"
       d="m 157.52442,195.41365 c 24.20553,-22.60357 60.20542,-34.13598 95.32605,-41.47678 32.86157,-6.99363 67.10176,-7.16061 100.81265,-5.64238 42.74906,2.00269 86.04868,4.46845 127.27554,14.37517 12.60467,2.89674 24.47312,8.1848 32.3106,16.81737 33.18909,29.23158 57.22843,67.29383 56.41726,107.58555 -3.33899,59.21215 -5.00934,118.49898 -9.7572,177.65551 -1.44125,19.47925 -7.06886,40.02142 -24.78355,54.33944 -20.34309,17.20762 -47.31577,28.82043 -76.05847,33.97592 -45.73102,8.71098 -93.01103,11.7853 -139.93635,11.12161 -18.34055,-1.59617 -36.67219,-3.72512 -54.95913,-5.84626 -39.18493,-5.41839 -81.26783,-13.75011 -109.36924,-38.06719 -22.312,-19.38833 -34.66728,-45.55056 -36.96184,-71.68838 0.17359,-54.96672 4.76462,-109.85458 7.79528,-164.75173 1.08057,-14.81887 0.23352,-29.96213 6.80423,-44.12308 5.9832,-15.50499 13.75107,-30.76592 25.08417,-44.27477 z"
       id="path1006"
       inkscape:connector-curvature="0" />
    <path
       style="fill:#ffffff;fill-rule:evenodd;stroke:none;stroke-width:1px;stroke-linecap:butt;stroke-linejoin:miter;stroke-opacity:1"
       d="M 333.27358,346.17986 C 395.90659,299.25879 684.65819,123.37673 1012.4941,266.75583 759.55842,143.42811 491.69794,181.66189 330.00219,300.24071 Z"
       id="path1008"
       inkscape:connector-curvature="0"
       sodipodi:nodetypes="cccc" />
    <path
       style="fill:#ffffff;fill-rule:evenodd;stroke:none;stroke-width:1px;stroke-linecap:butt;stroke-linejoin:miter;stroke-opacity:1"
       d="m 1819.6761,521.16397 c 116.7092,-13.15033 182.4608,-4.93138 226.8431,52.60129 44.3824,57.53267 34.5196,90.40848 23.0131,80.54574 -11.5065,-9.86274 -23.0131,-151.22873 -249.8562,-133.14703 z"
       id="path1011"
       inkscape:connector-curvature="0" />
    <path
       style="fill:#ffffff;fill-rule:evenodd;stroke:none;stroke-width:1.11876px;stroke-linecap:butt;stroke-linejoin:miter;stroke-opacity:1"
       d="m 2103.3532,552.39599 c 100.4326,1.78471 153.4912,14.27771 174.3355,32.12487 20.8446,17.84714 49.2688,66.03445 39.7941,94.58987 -9.4748,28.55544 -45.4788,74.95804 -149.7011,71.38861 -104.2224,-3.56944 -180.0203,-21.41658 -204.6547,-57.11088 -24.6345,-35.6943 9.4747,-110.65232 49.2687,-123.14533 39.794,-12.493 45.4789,-16.06243 90.9575,-17.84714 z"
       id="path1013"
       inkscape:connector-curvature="0" />
    <path
       style="fill:#ffffff;fill-rule:evenodd;stroke:none;stroke-width:1.01357px;stroke-linecap:butt;stroke-linejoin:miter;stroke-opacity:1"
       d="m 1969.3615,734.25711 c 63.7065,-49.31372 141.0747,-46.02614 161.7794,-42.73856 20.7045,3.28759 72.6214,8.29912 111.3903,11.50654 17.9265,1.48309 83.6506,32.97559 88.3647,87.12089 2.8553,32.79479 0,65.75163 -44.5945,78.90195 -44.5945,13.15032 -110.1819,13.15032 -165.9251,11.50653 -55.7432,-1.64379 -119.1616,0 -152.6075,-29.58823 -33.4459,-29.58823 -43.0019,-70.68299 1.5927,-116.70912 z"
       id="path1015"
       inkscape:connector-curvature="0"
       sodipodi:nodetypes="cssssssc" />
    <path
       style="fill:#ffffff;fill-rule:evenodd;stroke:none;stroke-width:1px;stroke-linecap:butt;stroke-linejoin:miter;stroke-opacity:1"
       d="m 308.74674,1071.6194 c 90.05114,1.4294 161.52029,1.4294 181.53165,15.7232 20.01137,14.2939 58.60471,47.1697 60.03409,78.6161 1.42939,31.4464 -1.42938,77.1867 -28.58766,98.6274 -27.15828,21.4408 -75.7573,38.5934 -124.35633,45.7403 -48.59902,7.1469 -145.79707,7.1469 -178.67288,0 -32.87581,-7.1469 -90.05113,-31.4464 -97.19805,-55.7459 -7.14691,-24.2996 -10.00568,-84.3336 -1.42938,-108.6332 8.5763,-24.2995 50.02841,-54.3165 91.48051,-62.8928 41.45211,-8.5763 97.19805,-11.4351 97.19805,-11.4351 z"
       id="path1017"
       inkscape:connector-curvature="0" />
    <path
       style="fill:#ffffff;fill-rule:evenodd;stroke:none;stroke-width:1px;stroke-linecap:butt;stroke-linejoin:miter;stroke-opacity:1"
       d="m 464.5495,1496.1462 c 57.17532,-75.7573 57.17532,-148.6559 4.28815,-244.4245 -52.88717,-95.7687 -80.04545,-97.1981 -80.04545,-97.1981 l -4.28815,52.8872 c 0,0 168.6672,128.6445 80.04545,288.7354 z"
       id="path1019"
       inkscape:connector-curvature="0" />
    <path
       style="fill:#ffffff;fill-rule:evenodd;stroke:none;stroke-width:1.00006592px;stroke-linecap:butt;stroke-linejoin:miter;stroke-opacity:1"
       d="m 1928.7492,1181.6164 c -3.3611,-54.1268 84.0514,-99.5753 198.8715,-99.9637 114.8199,-0.3882 214.6634,22.2488 214.0332,78.152 -0.6302,55.9032 -20.2592,103.0846 -167.8989,103.3563 -147.6398,0.2718 -238.8088,-14.7742 -245.0058,-81.5446 z"
       id="path1021"
       inkscape:connector-curvature="0" />
    <path
       style="fill:#ffffff;fill-rule:evenodd;stroke:none;stroke-width:1px;stroke-linecap:butt;stroke-linejoin:miter;stroke-opacity:1"
       d="m 2223.4008,1243.0202 c 9.6724,22.1135 -3.7615,81.471 -16.6581,91.9459 -8.9785,11.3235 4.9225,16.0942 9.6724,15.1304 4.2989,-2.9097 37.6151,-18.04 42.9887,-9.3111 5.3736,8.7291 -48.8996,51.2105 -42.9887,57.0298 5.911,5.8194 27.9427,-8.1471 30.6294,-3.4916 2.6868,4.6554 -4.2988,17.4581 -16.6581,25.6052 20.957,-6.9833 30.0921,-18.6219 25.7932,-26.769 -4.2988,-8.1471 -12.3592,-6.9833 -17.7328,-5.8194 10.2098,-8.7291 49.9875,-38.2659 39.7777,-53.9782 -10.2098,-15.7122 -36.0426,-12.0787 -41.9536,-9.169 14.5087,-12.8026 28.0737,-53.8649 21.6254,-85.8713 -6.4483,-32.0065 -34.4955,4.6983 -34.4955,4.6983 z"
       id="path1023"
       inkscape:connector-curvature="0"
       sodipodi:nodetypes="ccccsccccccsc" />
    <path
       style="fill:#ffffff;fill-rule:evenodd;stroke:none;stroke-width:1.17139px;stroke-linecap:butt;stroke-linejoin:miter;stroke-opacity:1"
       d="m 795.19116,2344.762 c 13.42657,-40.2573 71.50889,-55.2416 116.26412,-52.849 44.75521,2.3928 111.49022,23.5682 104.52832,56.2586 -6.9619,32.6904 -60.17093,50.2768 -97.66586,51.6227 -37.49493,1.3458 -122.33094,-3.9181 -123.12658,-55.0323 z"
       id="path1025"
       inkscape:connector-curvature="0" />
    <path
       style="fill:#ffffff;fill-rule:evenodd;stroke:none;stroke-width:1px;stroke-linecap:butt;stroke-linejoin:miter;stroke-opacity:1"
       d="m 891.05439,2384.5928 c 8.97846,20.1058 2.08504,29.2013 -7.53169,42.2988 -9.61674,13.0974 -3.91478,26.6928 6.89341,31.8628 10.80819,5.1701 22.50997,25.1418 21.87169,42.5477 -2.42546,-50.8389 -20.08451,-46.2816 -21.10575,-59.2259 -1.02125,-12.9442 20.21215,-24.3759 22.42485,-32.7054 2.2127,-8.3295 0.51063,-29.1055 -5.14877,-40.9009 -5.65941,-11.7954 -17.40374,16.1229 -17.40374,16.1229 z"
       id="path1027"
       inkscape:connector-curvature="0"
       sodipodi:nodetypes="cccccssc" />
  </g>
  <g
     inkscape:groupmode="layer"
     id="layer1"
     inkscape:label="txt">
    <text
       xml:space="preserve"
       style="font-style:normal;font-variant:normal;font-weight:normal;font-stretch:normal;line-height:0%;font-family:Lavi;-inkscape-font-specification:Lavi;text-align:center;letter-spacing:0px;word-spacing:0px;text-anchor:middle;fill:#000000;fill-opacity:1;stroke:none"
       x="343.16214"
       y="239.86371"
       id="text4246"><tspan
         sodipodi:role="line"
         style="font-size:45px;line-height:1.2"
         x="343.16214"
         y="239.86371"
         id="tspan833">Ass yw oll ow</tspan><tspan
         sodipodi:role="line"
         style="font-size:45px;line-height:1.2"
         x="343.16214"
         y="293.86371"
         id="tspan63">howethesow sewenus</tspan><tspan
         sodipodi:role="line"
         style="font-size:45px;line-height:1.2"
         x="343.16214"
         y="347.86371"
         id="tspan67">ha treweythyow</tspan><tspan
         id="tspan45"
         sodipodi:role="line"
         style="font-size:45px;line-height:1.2"
         x="343.16214"
         y="401.86371">my a garsa kavos</tspan><tspan
         sodipodi:role="line"
         style="font-size:45px;line-height:1.2"
         x="343.16214"
         y="455.86371"
         id="tspan69">temmik a'n pyth </tspan><tspan
         sodipodi:role="line"
         style="font-size:45px;line-height:1.2"
         x="343.16214"
         y="509.86371"
         id="tspan71">usi dhedha.</tspan></text>
    <text
       xml:space="preserve"
       style="font-style:normal;font-variant:normal;font-weight:normal;font-stretch:normal;line-height:0%;font-family:Lavi;-inkscape-font-specification:Lavi;text-align:center;letter-spacing:0px;word-spacing:0px;text-anchor:middle;fill:#000000;fill-opacity:1;stroke:none"
       x="2147.3313"
       y="624.23462"
       id="text4246-3"><tspan
         sodipodi:role="line"
         style="font-size:45px;line-height:1.2"
         x="2147.3313"
         y="624.23462"
         id="tspan898">Myghternes</tspan><tspan
         sodipodi:role="line"
         style="font-size:45px;line-height:1.2"
         x="2147.3313"
         y="678.23462"
         id="tspan75">yw Coriander.</tspan></text>
    <text
       xml:space="preserve"
       style="font-style:normal;font-variant:normal;font-weight:normal;font-stretch:normal;line-height:0%;font-family:Lavi;-inkscape-font-specification:Lavi;text-align:center;letter-spacing:0px;word-spacing:0px;text-anchor:middle;fill:#000000;fill-opacity:1;stroke:none"
       x="2146.4858"
       y="776.11542"
       id="text4246-3-9"><tspan
         sodipodi:role="line"
         style="font-size:45px;line-height:1.2"
         x="2146.4858"
         y="776.11542"
         id="tspan923">Goraswonnek</tspan><tspan
         sodipodi:role="line"
         style="font-size:45px;line-height:1.2"
         x="2146.4858"
         y="830.11542"
         id="tspan83">rych yw Saffron.</tspan></text>
    <text
       xml:space="preserve"
       style="font-style:normal;font-variant:normal;font-weight:normal;font-stretch:normal;line-height:0%;font-family:Lavi;-inkscape-font-specification:Lavi;text-align:center;letter-spacing:0px;word-spacing:0px;text-anchor:middle;fill:#000000;fill-opacity:1;stroke:none"
       x="327.58185"
       y="1151.152"
       id="text4246-3-9-7"><tspan
         sodipodi:role="line"
         style="font-size:45px;line-height:1.2"
         x="327.58185"
         y="1151.152"
         id="tspan950">Ass yw semlant</tspan><tspan
         sodipodi:role="line"
         style="font-size:45px;line-height:1.2"
         x="327.58185"
         y="1205.152"
         id="tspan94">Shichimi perfydh</tspan><tspan
         sodipodi:role="line"
         style="font-size:45px;line-height:1.2"
         x="327.58185"
         y="1259.152"
         id="tspan96">gans hy skol.</tspan></text>
    <text
       xml:space="preserve"
       style="font-style:normal;font-variant:normal;font-weight:normal;font-stretch:normal;line-height:0%;font-family:Lavi;-inkscape-font-specification:Lavi;text-align:center;letter-spacing:0px;word-spacing:0px;text-anchor:middle;fill:#000000;fill-opacity:1;stroke:none"
       x="2140.5269"
       y="1149.4224"
       id="text4246-3-9-7-3"><tspan
         sodipodi:role="line"
         style="font-size:45px;line-height:1.2"
         x="2140.5269"
         y="1149.4224"
         id="tspan981">Ha my?</tspan><tspan
         sodipodi:role="line"
         style="font-size:45px;line-height:1.2"
         x="2140.5269"
         y="1203.4224"
         id="tspan100">Pyth eus dhymm?</tspan></text>
    <text
       xml:space="preserve"
       style="font-style:normal;font-variant:normal;font-weight:normal;font-stretch:normal;line-height:0%;font-family:Lavi;-inkscape-font-specification:Lavi;text-align:center;letter-spacing:0px;word-spacing:0px;text-anchor:middle;fill:#000000;fill-opacity:1;stroke:none"
       x="910.00488"
       y="2360.6299"
       id="text4246-3-9-7-3-2"><tspan
         sodipodi:role="line"
         style="font-size:45px;line-height:1.2"
         x="910.00488"
         y="2360.6299"
         id="tspan981-1">Hemma.</tspan></text>
  </g>
</svg>
