{
   "id": 33,
   "original-language": "en",
   "supporters": 1190,
   "published": "2020-06-29",
   "pluxmlID": 466,
   "background-color": "#FFFFFF",
   "credits": {
      "art":[
         "David Revoy <https://framagit.org/Deevad>"
      ],
      "scenario":[
         "David Revoy <https://framagit.org/Deevad>"
      ],
      "beta-readers":[
         "Arlo James Barnes",
         "Craig Maloney <https://framagit.org/craigmaloney>",
         "GunChleoc <https://framagit.org/gunchleoc>",
         "Hyperbolic Pain",
         "Karl Ove Hufthammer <https://framagit.org/huftis>",
         "Martin Disch <https://framagit.org/martindisch>",
         "Nicolas Artance <https://framagit.org/Nartance>",
         "Quetzal2 <https://framagit.org/Quetzal2>",
         "Valvin <https://framagit.org/valvin>"
      ]
   },
   "software":[
      {
         "name": "Krita",
         "version": "4.3appimage"
      },
      {
         "name": "Inkscape",
         "version": "1.0"
      },
      {
         "name": "Kubuntu",
         "version": "19.10"
      }
   ]
}
