<?xml version="1.0" encoding="UTF-8" standalone="no"?>
<!-- Created with Inkscape (http://www.inkscape.org/) -->

<svg
   xmlns:dc="http://purl.org/dc/elements/1.1/"
   xmlns:cc="http://creativecommons.org/ns#"
   xmlns:rdf="http://www.w3.org/1999/02/22-rdf-syntax-ns#"
   xmlns:svg="http://www.w3.org/2000/svg"
   xmlns="http://www.w3.org/2000/svg"
   xmlns:xlink="http://www.w3.org/1999/xlink"
   xmlns:sodipodi="http://sodipodi.sourceforge.net/DTD/sodipodi-0.dtd"
   xmlns:inkscape="http://www.inkscape.org/namespaces/inkscape"
   id="svg2"
   version="1.1"
   inkscape:version="0.92.4 (5da689c313, 2019-01-14)"
   width="2481"
   height="3503"
   sodipodi:docname="E16P04.svg">
  <sodipodi:namedview
     pagecolor="#ffffff"
     bordercolor="#666666"
     inkscape:pageopacity="0"
     inkscape:pageshadow="2"
     inkscape:window-width="1920"
     inkscape:window-height="977"
     id="namedview70"
     showgrid="false"
     inkscape:zoom="0.56568543"
     inkscape:cx="1240.5"
     inkscape:cy="842.42053"
     inkscape:current-layer="layer1"
     inkscape:window-x="0"
     inkscape:window-y="62"
     inkscape:window-maximized="1"
     showguides="false" />
  <metadata
     id="metadata8">
    <rdf:RDF>
      <cc:Work
         rdf:about="">
        <dc:format>image/svg+xml</dc:format>
        <dc:type
           rdf:resource="http://purl.org/dc/dcmitype/StillImage" />
        <dc:title />
      </cc:Work>
    </rdf:RDF>
  </metadata>
  <defs
     id="defs6" />
  <sodipodi:namedview
     pagecolor="#ffffff"
     bordercolor="#666666"
     borderopacity="1"
     objecttolerance="10"
     gridtolerance="10"
     guidetolerance="10"
     inkscape:pageopacity="0"
     inkscape:pageshadow="2"
     inkscape:window-width="1920"
     inkscape:window-height="1025"
     id="namedview4"
     showgrid="false"
     inkscape:zoom="0.42773947"
     inkscape:cx="1005.419"
     inkscape:cy="787.30143"
     inkscape:window-x="0"
     inkscape:window-y="26"
     inkscape:window-maximized="1"
     inkscape:current-layer="layer1" />
  <g
     inkscape:groupmode="layer"
     id="layer2"
     inkscape:label="artwork"
     sodipodi:insensitive="true">
    <image
       sodipodi:absref="/felles/omsetting/pepper-carrot/webcomics/ep16_The-Sage-of-the-Mountain/lang/nn/../gfx_Pepper-and-Carrot_by-David-Revoy_E16P04.png"
       xlink:href="../gfx_Pepper-and-Carrot_by-David-Revoy_E16P04.png"
       width="2481"
       height="3503"
       id="image10"
       x="0"
       y="0" />
  </g>
  <g
     inkscape:groupmode="layer"
     id="layer3"
     inkscape:label="speechbubbles">
    <path
       style="fill:#ffffff;stroke:none;stroke-width:1.01706994"
       d="m 173.46429,262.394 c 9.12769,-60.53459 40.6595,-118.47492 230.68017,-126.2579 95.01038,-3.89148 278.15146,-5.53931 369.32838,22.73506 91.17697,28.27439 90.38977,86.471 90.80467,109.38764 0.41489,22.91665 8.03528,79.72411 -85.61512,101.99336 -93.6504,22.26925 -288.57162,10.00032 -365.32672,10.86511 -153.5102,1.72957 -234.89265,-0.24843 -239.87138,-118.72327 z"
       id="path3270"
       inkscape:connector-curvature="0"
       sodipodi:nodetypes="csssssc" />
    <path
       style="color:#000000;display:inline;overflow:visible;visibility:visible;fill:#ffffff;fill-opacity:1;fill-rule:nonzero;stroke:none;stroke-width:0.97427225px;marker:none;enable-background:accumulate"
       d="m 327.86674,373.35194 c 41.31661,-35.69292 399.01408,-57.27084 493.75865,1.38816 79.08196,48.96186 48.22682,170.89433 -22.10404,198.97918 -70.33064,28.08494 -304.29512,24.82512 -406.83646,12.09217 -97.63345,-12.12357 -114.02776,-48.71706 -118.83024,-122.39782 -1.96008,-30.07198 12.6953,-54.36863 54.01209,-90.06169 z"
       id="path4040-4"
       inkscape:connector-curvature="0"
       sodipodi:nodetypes="zssssz" />
    <path
       style="color:#000000;display:inline;overflow:visible;visibility:visible;fill:#ffffff;fill-opacity:1;fill-rule:nonzero;stroke:none;stroke-width:1px;marker:none;enable-background:accumulate"
       d="M 548.56247,346.28345 C 818.67335,851.31918 962.4842,769.73858 1139.7545,716.83443 950.46167,803.3409 775.67489,874.14978 501.74228,369.42576 c -14.05374,-25.89419 46.82019,-23.14231 46.82019,-23.14231 z"
       id="path4008"
       inkscape:connector-curvature="0"
       sodipodi:nodetypes="ccsc" />
    <path
       style="color:#000000;display:inline;overflow:visible;visibility:visible;fill:#ffffff;fill-opacity:1;fill-rule:nonzero;stroke:none;stroke-width:0.98865944px;marker:none;enable-background:accumulate"
       d="m 753.44533,1059.3648 c -4.83045,-27.0877 8.05074,-99.03943 107.07535,-93.11397 99.02446,5.92537 115.12615,39.78497 117.54132,49.94287 2.41518,10.1579 23.3472,67.7194 -53.94019,82.9563 -77.28749,15.2368 -146.52412,-0.8466 -170.67648,-39.7852 z"
       id="path3525"
       inkscape:connector-curvature="0" />
    <path
       style="color:#000000;display:inline;overflow:visible;visibility:visible;fill:#ffffff;fill-opacity:1;fill-rule:nonzero;stroke:none;stroke-width:1.07327139px;marker:none;enable-background:accumulate"
       d="m 922.28712,1127.7684 c -6.76094,-28.4665 11.2682,-104.0808 149.86828,-97.8537 138.5997,6.2271 161.1364,41.8102 164.5167,52.4852 3.3806,10.6749 32.6781,71.1664 -75.4973,87.1789 -108.1755,16.0123 -205.0828,-0.8897 -238.88768,-41.8104 z"
       id="path3525-0"
       inkscape:connector-curvature="0" />
    <path
       style="color:#000000;display:inline;overflow:visible;visibility:visible;fill:#ffffff;fill-opacity:1;fill-rule:nonzero;stroke:none;stroke-width:0.90571517px;marker:none;enable-background:accumulate"
       d="m 926.42022,1233.7272 c 0.59322,-36.6109 -4.1331,-105.6866 97.08088,-97.3799 78.3814,6.4328 227.4649,-7.6949 254.6897,-2.3723 34.3869,6.723 137.9406,24.7284 148.5278,57.7831 11.1914,34.9413 14.9724,44.8064 4.5161,69.7537 -10.456,24.9471 -31.6459,41.2823 -64.8805,43.1148 -103.0472,5.682 -447.62851,47.0008 -439.93398,-70.8994 z"
       id="path3373"
       inkscape:connector-curvature="0"
       sodipodi:nodetypes="csssssc" />
    <path
       style="color:#000000;display:inline;overflow:visible;visibility:visible;fill:#ffffff;fill-opacity:1;fill-rule:nonzero;stroke:none;stroke-width:1px;marker:none;enable-background:accumulate"
       d="m 1344.2657,1489.6464 c -17.6743,6.4442 -35.9622,13.4942 -56.6916,8.7928 -5.9074,-1.4988 -12.0586,-3.5824 -17.8157,-7.536 -5.6534,-5.6714 -8.1342,-14.8796 -7.7374,-22.3553 -0.038,-11.0732 3.5645,-21.3765 -0.132,-33.3984 -2.8396,-8.7238 -9.889,-13.0983 -15.6943,-17.3851 -14.8818,-10.591 -30.3953,-18.9029 -44.5591,-32.1972 -16.4134,-13.8335 -33.2388,-29.725 -44.6315,-51.3879 -4.4162,-8.6329 -8.2604,-18.1551 -8.7808,-27.4678 -2.1762,-24.1255 6.2222,-46.2462 22.341,-52.6796 10.8776,-2.6518 26.1352,8.6451 30.8391,24.9803 2.5746,8.6101 0.6371,16.5032 -2.7594,21.9348 -4.4219,12.1322 -2.2192,29.1384 4.6177,43.565 5.515,11.975 19.9292,13.9114 28.768,21.8543 10.6917,14.3128 22.5926,18.8565 35.242,26.2872 5.7643,3.498 17.2268,13.0885 21.8547,19.5004 5.3367,10.6553 3.6397,23.8849 1.2988,32.7032 -2.2102,9.2491 -6.7566,13.924 -2.6636,25.5015 2.0954,8.2407 10.4347,11.3429 15.4067,14.2225 16.3541,6.7626 22.9447,11.3822 37.3062,7.063 1.3135,-0.5605 2.5522,-1.2752 3.7912,-1.9972 z"
       id="path4496"
       inkscape:connector-curvature="0"
       sodipodi:nodetypes="cccccccccccccccccccccc" />
    <path
       style="color:#000000;display:inline;overflow:visible;visibility:visible;fill:#ffffff;fill-opacity:1;fill-rule:nonzero;stroke:none;stroke-width:0.90571636px;marker:none;enable-background:accumulate"
       d="m 409.96155,1750.4783 c -6.45794,16.8439 -42.88163,18.2563 -56.2902,14.8325 27.02858,18.8431 26.08628,30.5506 -10.6109,32.3684 61.5418,33.9602 11.25067,28.8212 1.3311,37.4326 48.3217,11.7033 26.70208,26.2686 18.09914,40.7678 55.54102,0.4981 37.36499,23.7401 39.70592,42.2509 4.70853,-8.6861 27.0775,-35.1304 28.42344,-5.6864 36.73716,-28.0911 80.9861,-46.2366 84.4996,2.9231 14.80201,-24.731 29.55961,-35.1833 28.42341,-5.6866 36.67478,-38.364 69.63214,-24.5547 102.78481,-13.7116 8.70738,-11.5793 9.72197,-29.3682 37.89237,-25.1995 -3.94983,-11.4771 5.5617,-19.3663 27.04183,-24.0513 -28.5437,-6.933 -33.80421,-14.0841 19.19506,-21.7799 -40.32934,-0.7444 -77.93673,-2.2695 -30.62164,-28.5144 -14.84405,-0.6352 -50.06314,21.2643 -33.64261,-42.8249 -25.52519,20.5173 -52.75829,31.8413 -86.91102,-11.137 -16.16282,21.4711 -44.19685,32.0959 -56.39305,5.2768 -4.38355,11.4334 -22.56008,15.7334 -37.99065,16.2548 -5.96702,-4.5416 -12.12131,-10.7102 -18.54358,-18.7922 -10.49671,16.9699 -26.1986,28.4306 -56.39303,5.2769 z"
       id="path3549-3-7"
       inkscape:connector-curvature="0"
       sodipodi:nodetypes="cccccccccccccccccccc" />
    <path
       style="color:#000000;display:inline;overflow:visible;visibility:visible;fill:#ffffff;fill-opacity:1;fill-rule:nonzero;stroke:none;stroke-width:1.02686167px;marker:none;enable-background:accumulate"
       d="m 406.56369,1882.2814 c 22.88225,-19.988 216.03448,-41.6839 283.9205,-0.4927 67.88605,41.1912 26.70929,90.6206 -12.24178,106.3481 -38.95098,15.7275 -153.57824,32.9529 -205.88381,19.4722 -52.30569,-13.4808 -93.04847,-33.6319 -95.7082,-74.893 -1.08558,-16.8404 7.03097,-30.4465 29.91329,-50.4346 z"
       id="path4040"
       inkscape:connector-curvature="0"
       sodipodi:nodetypes="zssssz" />
    <path
       style="fill:#ffffff;fill-rule:evenodd;stroke:none;stroke-width:1px;stroke-linecap:butt;stroke-linejoin:miter;stroke-opacity:1"
       d="m 1714.2654,2080.7017 c 84.2926,8.4181 101.7865,32.4194 119.9299,8.2333 13.6724,-32.3165 73.9597,-7.8033 80.1837,-16.9339 13.3752,-19.6213 -23.6159,-28.5877 -14.9153,-48.4748 8.7006,-19.887 29.8306,-43.5029 29.8306,-43.5029 l 16.1582,9.9435 c 0,0 -26.2419,26.5691 -24.999,37.7556 1.2429,11.1864 26.242,48.0074 3.869,56.708 -22.3729,8.7006 -76.8117,-7.6784 -88.6225,17.2796 -11.8107,24.9579 -83.1478,-13.4558 -121.4346,-21.0084 z"
       id="path4407"
       inkscape:connector-curvature="0"
       sodipodi:nodetypes="ccssccsszc" />
    <path
       style="color:#000000;display:inline;overflow:visible;visibility:visible;fill:#ffffff;fill-opacity:1;fill-rule:nonzero;stroke:none;stroke-width:1px;marker:none;enable-background:accumulate"
       d="m 666.6939,1912.014 c 38.36403,14.2827 84.86956,27.5154 96.07851,29.8219 -4.37169,-11.6312 -5.81209,-22.2337 -7.1164,-30.5082 20.64043,5.7806 115.57926,37.1569 135.10867,51.9928 -46.72733,-38.0638 -117.47092,-65.994 -151.73555,-73.3007 -0.59494,10.8648 0.83117,17.7165 0.34378,23.4081 -17.19324,-2.942 -71.86892,-22.6256 -71.86892,-22.6256 z"
       id="path5066"
       inkscape:connector-curvature="0"
       inkscape:transform-center-x="-112.42356"
       inkscape:transform-center-y="21.85935" />
    <path
       style="fill:#ffffff;stroke:none;stroke-width:0.90062749"
       d="m 367.38191,2342.1368 c 1.46033,-55.1279 56.90191,-63.2247 94.30457,-60.8217 31.09865,1.9981 150.69206,-11.9117 184.77442,38.4094 14.55363,21.4878 12.19583,77.5661 -8.0331,100.9098 -17.25049,19.9066 -48.60628,20.5191 -86.8192,26.7507 -47.44902,7.7377 -115.46871,-5.8877 -152.73618,-15.8346 -17.54287,-4.6823 -32.95092,-34.2859 -31.49051,-89.4136 z"
       id="path3100"
       inkscape:connector-curvature="0"
       sodipodi:nodetypes="zsssssz" />
    <path
       style="color:#000000;display:inline;overflow:visible;visibility:visible;fill:#ffffff;fill-opacity:1;fill-rule:nonzero;stroke:none;stroke-width:0.93212628px;marker:none;enable-background:accumulate"
       d="m 451.84547,2540.3406 c -3.0406,-119.0514 122.82932,-106.2912 212.43201,-115.5767 24.45051,-2.5338 101.34909,4.6724 154.84372,17.169 75.56892,17.6532 76.39772,46.7484 74.25046,100.1845 -2.65787,66.1435 -36.38853,109.2527 -60.25737,118.388 -23.86869,9.1352 -139.20424,20.9828 -176.32714,18.1991 -37.12274,-2.7838 -208.53672,21.601 -204.94168,-138.3639 z"
       id="path4974"
       inkscape:connector-curvature="0"
       sodipodi:nodetypes="csssssc" />
    <path
       style="fill:#ffffff;fill-rule:evenodd;stroke:none;stroke-width:1px;stroke-linecap:butt;stroke-linejoin:miter;stroke-opacity:1"
       d="m 1252.9349,3051.2988 c -25.9077,-74.9353 -167.693,-290.4228 -284.8474,-273.1615 -71.26981,10.5007 -133.59485,24.8303 -156.2354,-60.7422 -5.53435,-9.3115 -79.49392,-55.5178 -68.47418,-45.6614 73.55047,108.3097 57.38616,155.8485 221.82078,126.0514 132.8264,-23.6523 287.7362,253.5137 287.7362,253.5137 z"
       id="path4652"
       inkscape:connector-curvature="0"
       sodipodi:nodetypes="cscccc" />
    <path
       style="fill:#ffffff;stroke:none;stroke-width:0.96782255"
       d="m 690.56515,2683.7633 c 2.2706,-68.3553 88.47785,-78.395 146.63606,-75.4154 48.35594,2.4776 234.31419,-14.7697 287.30949,47.6254 22.6298,26.6436 18.9636,96.1774 -12.4908,125.1221 -26.8231,24.6831 -75.5788,25.4425 -134.99695,33.1694 -73.77942,9.5942 -179.54475,-7.3004 -237.49259,-19.6341 -27.27787,-5.8057 -51.23613,-42.5123 -48.96521,-110.8674 z"
       id="path3100-7"
       inkscape:connector-curvature="0"
       sodipodi:nodetypes="zsssssz" />
    <path
       style="color:#000000;display:inline;overflow:visible;visibility:visible;fill:#ffffff;fill-opacity:1;fill-rule:nonzero;stroke:none;stroke-width:0.95984709px;marker:none;enable-background:accumulate"
       d="m 499.01412,579.84113 c 29.61178,-24.99351 285.97509,-40.10316 353.8789,0.97204 56.67839,34.2849 34.56437,119.66652 -15.84205,139.33257 -50.40626,19.66611 -218.08962,17.38347 -291.58142,8.46738 -69.97431,-8.48937 -81.72418,-34.11348 -85.16615,-85.70747 -1.40479,-21.05751 9.09879,-38.07093 38.71072,-63.06452 z"
       id="path4040-4-3"
       inkscape:connector-curvature="0"
       sodipodi:nodetypes="zssssz" />
  </g>
  <g
     inkscape:groupmode="layer"
     id="layer1"
     inkscape:label="txt">
    <text
       xml:space="preserve"
       style="font-style:normal;font-variant:normal;font-weight:normal;font-stretch:normal;line-height:0%;font-family:Lavi;-inkscape-font-specification:Lavi;text-align:center;letter-spacing:0px;word-spacing:0px;text-anchor:middle;fill:#000000;fill-opacity:1;stroke:none"
       x="515.20721"
       y="218.80753"
       id="text4246"><tspan
         sodipodi:role="line"
         style="font-size:45px;line-height:1.25"
         x="515.20721"
         y="218.80753"
         id="tspan3576">Me er ikkje så unge som me</tspan><tspan
         sodipodi:role="line"
         style="font-size:45px;line-height:1.25"
         x="515.20721"
         y="275.05753"
         id="tspan81">ein gong var, og det er nok</tspan><tspan
         sodipodi:role="line"
         style="font-size:45px;line-height:1.25"
         x="515.20721"
         y="331.30753"
         id="tspan73">på tide med ein liten leksjon.</tspan></text>
    <text
       xml:space="preserve"
       style="font-style:normal;font-variant:normal;font-weight:normal;font-stretch:normal;line-height:0%;font-family:Lavi;-inkscape-font-specification:Lavi;text-align:center;letter-spacing:0px;word-spacing:0px;text-anchor:middle;fill:#000000;fill-opacity:1;stroke:none"
       x="565.21619"
       y="418.6272"
       id="text4246-9"><tspan
         sodipodi:role="line"
         style="font-size:45px;line-height:1.25"
         x="565.21619"
         y="418.6272"
         id="tspan3580">Eg føreslår at me</tspan><tspan
         sodipodi:role="line"
         style="font-size:45px;line-height:1.25"
         x="565.21619"
         y="474.8772"
         id="tspan87">derfor tek eit møte med</tspan></text>
    <text
       xml:space="preserve"
       style="font-style:normal;font-variant:normal;font-weight:normal;font-stretch:normal;line-height:0%;font-family:Lavi;-inkscape-font-specification:Lavi;text-align:center;letter-spacing:0px;word-spacing:0px;text-anchor:middle;fill:#000000;fill-opacity:1;stroke:none"
       x="863.90961"
       y="1049.8156"
       id="text4246-9-6"><tspan
         sodipodi:role="line"
         style="font-size:45px;line-height:1.25"
         x="863.90961"
         y="1049.8156"
         id="tspan4183-4">He, he!</tspan></text>
    <text
       xml:space="preserve"
       style="font-style:normal;font-variant:normal;font-weight:normal;font-stretch:normal;line-height:0%;font-family:Lavi;-inkscape-font-specification:Lavi;text-align:center;letter-spacing:0px;word-spacing:0px;text-anchor:middle;fill:#000000;fill-opacity:1;stroke:none"
       x="1079.6064"
       y="1116.4899"
       id="text4246-9-6-2"><tspan
         sodipodi:role="line"
         style="font-size:45px;line-height:1.25"
         x="1079.6064"
         y="1116.4899"
         id="tspan4183-4-1">Vismannen?</tspan></text>
    <text
       xml:space="preserve"
       style="font-style:normal;font-variant:normal;font-weight:normal;font-stretch:normal;line-height:0%;font-family:Lavi;-inkscape-font-specification:Lavi;text-align:center;letter-spacing:0px;word-spacing:0px;text-anchor:middle;fill:#000000;fill-opacity:1;stroke:none"
       x="1179.3473"
       y="1211.7758"
       id="text4246-9-6-2-4"><tspan
         sodipodi:role="line"
         style="font-size:45px;line-height:1.25"
         x="1179.3473"
         y="1211.7758"
         id="tspan3593">Er dei ikkje for unge</tspan><tspan
         sodipodi:role="line"
         style="font-size:45px;line-height:1.25"
         x="1179.3473"
         y="1268.0258"
         id="tspan98">til å forstå læra hans?</tspan></text>
    <text
       xml:space="preserve"
       style="font-style:normal;font-variant:normal;font-weight:normal;font-stretch:normal;line-height:0%;font-family:Lavi;-inkscape-font-specification:Lavi;text-align:center;letter-spacing:0px;word-spacing:0px;text-anchor:middle;fill:#000000;fill-opacity:1;stroke:none"
       x="526.73645"
       y="1824.1853"
       id="text4246-9-6-2-4-7"><tspan
         sodipodi:role="line"
         style="font-size:45px;line-height:1.25"
         x="526.73645"
         y="1824.1853"
         id="tspan3597">For unge</tspan><tspan
         sodipodi:role="line"
         style="font-size:45px;line-height:1.25"
         x="526.73645"
         y="1880.4353"
         id="tspan102">til kva?!</tspan></text>
    <text
       xml:space="preserve"
       style="font-style:normal;font-variant:normal;font-weight:normal;font-stretch:normal;line-height:0%;font-family:Lavi;-inkscape-font-specification:Lavi;text-align:center;letter-spacing:0px;word-spacing:0px;text-anchor:middle;fill:#000000;fill-opacity:1;stroke:none"
       x="569.38812"
       y="1884.6533"
       id="text4246-9-6-2-4-7-3"
       transform="scale(0.96046588,1.0411614)"><tspan
         sodipodi:role="line"
         style="font-size:56.78048325px;line-height:1.25"
         x="569.38812"
         y="1884.6533"
         id="tspan4359">Me dreg!</tspan></text>
    <path
       style="color:#000000;display:inline;overflow:visible;visibility:visible;fill:#ffffff;fill-opacity:1;fill-rule:nonzero;stroke:none;stroke-width:1.11952043px;marker:none;enable-background:accumulate"
       d="m 1866.4792,2026.0859 c -25.622,-14.3102 -34.5897,-27.5982 -32.0274,-35.7755 2.5622,-8.1772 25.6219,-50.0857 53.806,-55.1965 28.1841,-5.1108 101.2065,-11.2437 117.8609,-6.1329 16.6543,5.1107 64.0548,38.842 64.0548,56.2186 0,17.3767 -8.9677,51.1079 -34.5897,61.3294 -25.6218,10.2216 -138.3584,16.3546 -169.1046,-20.4431 z"
       id="path3349"
       inkscape:connector-curvature="0" />
    <text
       xml:space="preserve"
       style="font-style:normal;font-variant:normal;font-weight:normal;font-stretch:normal;line-height:0%;font-family:Lavi;-inkscape-font-specification:Lavi;text-align:center;letter-spacing:0px;word-spacing:0px;text-anchor:middle;fill:#000000;fill-opacity:1;stroke:none"
       x="1954.5073"
       y="2003.4745"
       id="text4246-9-6-2-4-7-38"><tspan
         sodipodi:role="line"
         style="font-size:45px;line-height:1.25"
         x="1954.5073"
         y="2003.4745"
         id="tspan4364-4">«Me»?</tspan></text>
    <text
       xml:space="preserve"
       style="font-style:normal;font-variant:normal;font-weight:normal;font-stretch:normal;line-height:0%;font-family:Lavi;-inkscape-font-specification:Lavi;text-align:center;letter-spacing:0px;word-spacing:0px;text-anchor:middle;fill:#000000;fill-opacity:1;stroke:none"
       x="508.82184"
       y="2350.1084"
       id="text4246-9-6-2-4-7-3-4-8-5"><tspan
         sodipodi:role="line"
         style="font-size:45px;line-height:1.25"
         x="508.82184"
         y="2350.1084"
         id="tspan3604">Ja, så er</tspan><tspan
         sodipodi:role="line"
         style="font-size:45px;line-height:1.25"
         x="508.82184"
         y="2406.3584"
         id="tspan106">me her.</tspan></text>
    <text
       xml:space="preserve"
       style="font-style:normal;font-variant:normal;font-weight:normal;font-stretch:normal;line-height:0%;font-family:Lavi;-inkscape-font-specification:Lavi;text-align:center;letter-spacing:0px;word-spacing:0px;text-anchor:middle;fill:#000000;fill-opacity:1;stroke:none"
       x="676.57068"
       y="2507.9153"
       id="text4246-9-6-2-4-7-3-4-8-5-3"><tspan
         sodipodi:role="line"
         style="font-size:45px;line-height:1.25"
         x="676.57068"
         y="2507.9153"
         id="tspan4251-3">De kan sjølve</tspan><tspan
         sodipodi:role="line"
         style="font-size:45px;line-height:1.25"
         x="676.57068"
         y="2564.1653"
         id="tspan140">presentera dykk</tspan><tspan
         sodipodi:role="line"
         style="font-size:45px;line-height:1.25"
         x="676.57068"
         y="2620.4153"
         id="tspan142">for vismannen.</tspan></text>
    <text
       xml:space="preserve"
       style="font-style:normal;font-variant:normal;font-weight:normal;font-stretch:normal;line-height:0%;font-family:Lavi;-inkscape-font-specification:Lavi;text-align:center;letter-spacing:0px;word-spacing:0px;text-anchor:middle;fill:#000000;fill-opacity:1;stroke:none"
       x="916.37567"
       y="2702.2715"
       id="text4246-9-6-2-4-7-3-4-8-5-3-2"><tspan
         sodipodi:role="line"
         style="font-size:45px;line-height:1.25"
         x="916.37567"
         y="2702.2715"
         id="tspan4251-3-4">De finn han oppe</tspan><tspan
         sodipodi:role="line"
         style="font-size:45px;line-height:1.25"
         x="916.37567"
         y="2758.5215"
         id="tspan149">på fjelltoppen.</tspan></text>
    <path
       style="fill:#ffffff;fill-rule:evenodd;stroke:none;stroke-width:1.01445675"
       d="m 1616.0699,3119.4738 c 23.4852,65.5224 32.7802,60.4909 36.9568,30.0122 6.5062,11.0211 7.504,43.3168 27.0361,4.027 11.3775,28.5744 20.8976,24.9438 28.8956,-5.0742 19.7059,54.1529 32.5524,22.9105 43.6584,10.8477 27.2397,30.3142 103.175,35.0321 136.9455,-3.9544 6.8657,13.9277 16.5772,33.8757 23.3204,4.9428 9.649,12.1791 22.884,-4.7723 38.5332,-41.3384 -2.3122,23.7947 -13.1292,64.3406 8.5492,40.8797 2.255,17.0096 0.01,39.5072 46.2019,2.9427 -13.9241,48.4386 25.188,-0.8275 63.078,-47.842 -24.0259,41.0085 -56.779,91.4525 -16.4401,75.0138 -23.0033,34.3511 -23.7641,57.2402 42.9188,45.3739 -43.7365,21.855 -77.1797,45.0556 -30.5704,78.7237 -29.3225,-0.9324 -36.618,9.4602 -4.6513,40.039 -45.4577,-20.2556 -49.2388,-10.9393 -37.8926,9.1108 -9.3573,0.3254 -25.6225,-16.6353 -24.0075,11.1477 -25.4039,-17.5396 -60.1018,-55.3389 -56.9078,-10.5391 -26.2299,-34.414 -30.938,-22.0955 -34.2716,-6.7926 -46.6887,-52.0175 -40.9632,-20.9672 -50.1603,-13.5668 -13.4455,-19.2382 -13.3028,-3.4666 -11.0525,17.7351 -12.8153,-22.4795 -24.5766,-31.1547 -33.6365,-4.4474 -8.0509,-12.368 -15.882,-29.8866 -25.5695,-3.9334 -11.1261,-14.182 -22.9816,-19.8309 -37.9907,11.4096 -5.9675,-18.8971 -14.9572,-32.508 -46.0055,-7.54 -5.2679,-40.5341 -31.6582,-34.0262 -64.9258,-12.2024 1.3205,-23.8104 -1.0827,-39.4578 -35.9867,16.147 7.4165,-24.3123 15.8368,-49.94 -5.0295,-37.1984 13.5916,-46.5166 -35.0581,-5.3246 -63.5601,7.476 32.7889,-39.0106 80.6383,-86.403 42.6479,-86.0215 26.4544,-27.001 29.374,-40.5096 7.5848,-39.8521 1.891,-8.3529 28.5678,-23.6559 -1.2183,-23.1263 15.8736,-11.3569 39.0301,-8.0504 33.5501,-62.3997 z"
       id="path4656"
       inkscape:connector-curvature="0"
       sodipodi:nodetypes="ccccccccccccccccccccccccccccccccc" />
    <path
       style="fill:#ffffff;fill-rule:evenodd;stroke:none;stroke-width:1px;stroke-linecap:butt;stroke-linejoin:miter;stroke-opacity:1"
       d="m 1395.9187,3167.1846 119.1853,69.1782 -1.1569,-33.8487 82.9076,45.0833 5.0953,-29.1891 -103.505,-45.5434 0.025,38.633 z"
       id="path4667"
       inkscape:connector-curvature="0"
       inkscape:transform-center-x="75.322047"
       inkscape:transform-center-y="-6.237049" />
    <text
       xml:space="preserve"
       style="font-style:normal;font-variant:normal;font-weight:normal;font-stretch:normal;line-height:0%;font-family:Lavi;-inkscape-font-specification:Lavi;text-align:center;letter-spacing:0px;word-spacing:0px;text-anchor:middle;fill:#000000;fill-opacity:1;stroke:none"
       x="1822.2928"
       y="3234.427"
       id="text4246-9-6-2-4-7-3-4-8-5-9"><tspan
         sodipodi:role="line"
         style="font-size:45px;line-height:1.25"
         x="1822.2928"
         y="3234.427"
         id="tspan4445">Klare for ein</tspan></text>
    <text
       xml:space="preserve"
       style="font-style:normal;font-variant:normal;font-weight:normal;font-stretch:normal;line-height:0%;font-family:Lavi;-inkscape-font-specification:Lavi;text-align:center;letter-spacing:0px;word-spacing:0px;text-anchor:middle;fill:#000000;fill-opacity:1;stroke:#000000;stroke-width:1.59401214;stroke-miterlimit:4;stroke-dasharray:none;stroke-opacity:1"
       x="2590.5024"
       y="2949.415"
       id="text4246-6-6-6-3-9"
       transform="matrix(0.89466356,0,-0.16927076,1.1177386,0,0)"><tspan
         sodipodi:role="line"
         style="font-size:53.13374329px;line-height:1.25;stroke:#000000;stroke-width:1.59401214;stroke-miterlimit:4;stroke-dasharray:none;stroke-opacity:1"
         x="2590.5024"
         y="2949.415"
         id="tspan4182-3-7">skikkeleg leksjon?</tspan></text>
    <text
       xml:space="preserve"
       style="font-style:normal;font-variant:normal;font-weight:normal;font-stretch:normal;line-height:0%;font-family:Lavi;-inkscape-font-specification:Lavi;text-align:center;letter-spacing:0px;word-spacing:0px;text-anchor:middle;fill:#000000;fill-opacity:1;stroke:#000000;stroke-width:1.54220855;stroke-miterlimit:4;stroke-dasharray:none;stroke-opacity:1"
       x="706.96661"
       y="499.45724"
       id="text4246-6-6-6-3-9-0"
       transform="matrix(0.92481111,0,-0.17497469,1.0813019,0,0)"><tspan
         sodipodi:role="line"
         style="font-size:51.40695572px;line-height:1.25;stroke:#000000;stroke-width:1.54220855;stroke-miterlimit:4;stroke-dasharray:none;stroke-opacity:1"
         x="706.96661"
         y="499.45724"
         id="tspan4182-3-7-6">vismannen på fjellet<tspan
   style="font-style:normal;font-variant:normal;font-weight:normal;font-stretch:normal;font-size:36px;font-family:Lavi;-inkscape-font-specification:Lavi"
   id="tspan72">.</tspan></tspan></text>
    <text
       xml:space="preserve"
       style="font-style:normal;font-variant:normal;font-weight:normal;font-stretch:normal;line-height:0%;font-family:Lavi;-inkscape-font-specification:Lavi;text-align:center;letter-spacing:0px;word-spacing:0px;text-anchor:middle;fill:#000000;fill-opacity:1;stroke:none"
       x="671.94373"
       y="641.34949"
       id="text4246-9-9"><tspan
         sodipodi:role="line"
         style="font-size:45px;line-height:1.25"
         x="671.94373"
         y="641.34949"
         id="tspan3584">Lærdommen hans</tspan><tspan
         sodipodi:role="line"
         style="font-size:45px;line-height:1.25"
         x="671.94373"
         y="697.59949"
         id="tspan91">gjer klok!</tspan></text>
  </g>
</svg>
