<?xml version="1.0" encoding="UTF-8" standalone="no"?>
<!-- Created with Inkscape (http://www.inkscape.org/) -->

<svg
   xmlns:dc="http://purl.org/dc/elements/1.1/"
   xmlns:cc="http://creativecommons.org/ns#"
   xmlns:rdf="http://www.w3.org/1999/02/22-rdf-syntax-ns#"
   xmlns:svg="http://www.w3.org/2000/svg"
   xmlns="http://www.w3.org/2000/svg"
   xmlns:xlink="http://www.w3.org/1999/xlink"
   xmlns:sodipodi="http://sodipodi.sourceforge.net/DTD/sodipodi-0.dtd"
   xmlns:inkscape="http://www.inkscape.org/namespaces/inkscape"
   id="svg2"
   version="1.1"
   inkscape:version="0.92.2 (5c3e80d, 2017-08-06)"
   width="2481"
   height="3503"
   sodipodi:docname="Pepper-and-Carrot_by-David-Revoy_E13P04.svg"
   inkscape:export-filename="E:\Users\jamesmichael\Downloads\Compressed\eps\peppercarrot_ep13_translation-master\peppercarrot_ep13_translation-master\ph\Pepper-and-Carrot_by-David-Revoy_E13P04.png"
   inkscape:export-xdpi="98.181801"
   inkscape:export-ydpi="98.181801">
  <metadata
     id="metadata8">
    <rdf:RDF>
      <cc:Work
         rdf:about="">
        <dc:format>image/svg+xml</dc:format>
        <dc:type
           rdf:resource="http://purl.org/dc/dcmitype/StillImage" />
        <dc:title />
      </cc:Work>
    </rdf:RDF>
  </metadata>
  <defs
     id="defs6">
    <linearGradient
       inkscape:collect="always"
       id="linearGradient4313">
      <stop
         style="stop-color:#ff8bff;stop-opacity:1;"
         offset="0"
         id="stop4315" />
      <stop
         style="stop-color:#ffffff;stop-opacity:1"
         offset="1"
         id="stop4317" />
    </linearGradient>
    <filter
       style="color-interpolation-filters:sRGB"
       id="filter5561"
       inkscape:label="deevad outline effect">
      <feFlood
         id="feFlood5563"
         flood-opacity="1"
         flood-color="rgb(0,0,0)"
         result="flood" />
      <feComposite
         id="feComposite5565"
         in2="SourceGraphic"
         in="flood"
         operator="in"
         result="composite1" />
      <feMorphology
         id="feMorphology5567"
         operator="dilate"
         radius="5.5"
         result="result3" />
      <feComposite
         id="feComposite5569"
         in2="result3"
         in="SourceGraphic"
         operator="over"
         result="composite2" />
    </filter>
    <filter
       style="color-interpolation-filters:sRGB;"
       id="filter5561-2"
       inkscape:label="Rough and Dilate"
       y="-0.2"
       height="1.4"
       inkscape:menu="Distort"
       inkscape:menu-tooltip="Create a turbulent contour around">
      <feFlood
         id="feFlood5563-5"
         flood-opacity="1"
         flood-color="rgb(0,0,0)"
         result="flood" />
      <feComposite
         id="feComposite5565-5"
         in2="SourceGraphic"
         in="flood"
         operator="in"
         result="composite1" />
      <feMorphology
         id="feMorphology5567-9"
         operator="dilate"
         radius="5.5"
         result="result3" />
      <feComposite
         id="feComposite5569-5"
         in2="result3"
         in="SourceGraphic"
         operator="over"
         result="fbSourceGraphic" />
      <feColorMatrix
         result="fbSourceGraphicAlpha"
         in="fbSourceGraphic"
         values="0 0 0 -1 0 0 0 0 -1 0 0 0 0 -1 0 0 0 0 1 0"
         id="feColorMatrix4476" />
      <feMorphology
         id="feMorphology4478"
         radius="7"
         operator="dilate"
         result="result8"
         in="fbSourceGraphic" />
      <feComposite
         id="feComposite4480"
         in2="result8"
         result="result10"
         in="fbSourceGraphic"
         operator="arithmetic"
         k1="0.5"
         k3="0.5" />
      <feTurbulence
         id="feTurbulence4482"
         result="result11"
         type="fractalNoise"
         numOctaves="3"
         baseFrequency="0.07" />
      <feDisplacementMap
         id="feDisplacementMap4484"
         in2="result11"
         result="result12"
         in="result10"
         xChannelSelector="R"
         scale="10" />
      <feComposite
         id="feComposite4486"
         in2="result12"
         operator="arithmetic"
         result="result13"
         in="fbSourceGraphic"
         k1="0.25"
         k2="0.25"
         k3="0.75" />
    </filter>
    <filter
       style="color-interpolation-filters:sRGB;"
       id="filter5561-7"
       inkscape:label="Roughen">
      <feFlood
         id="feFlood5563-4"
         flood-opacity="1"
         flood-color="rgb(95,27,88)"
         result="flood" />
      <feComposite
         id="feComposite5565-6"
         in2="SourceGraphic"
         in="flood"
         operator="in"
         result="composite1" />
      <feMorphology
         id="feMorphology5567-3"
         operator="dilate"
         radius="5.5"
         result="result3" />
      <feComposite
         id="feComposite5569-6"
         in2="result3"
         in="SourceGraphic"
         operator="over"
         result="fbSourceGraphic" />
      <feColorMatrix
         result="fbSourceGraphicAlpha"
         in="fbSourceGraphic"
         values="0 0 0 -1 0 0 0 0 -1 0 0 0 0 -1 0 0 0 0 1 0"
         id="feColorMatrix4681" />
      <feTurbulence
         id="feTurbulence4683"
         type="fractalNoise"
         numOctaves="1"
         seed="33"
         baseFrequency="0.001 0.0199"
         result="turbulence"
         in="fbSourceGraphic" />
      <feDisplacementMap
         id="feDisplacementMap4685"
         in2="turbulence"
         in="fbSourceGraphic"
         scale="37.8"
         yChannelSelector="G"
         xChannelSelector="R" />
    </filter>
    <linearGradient
       inkscape:collect="always"
       xlink:href="#linearGradient4313"
       id="linearGradient4319"
       x1="1636.8805"
       y1="1709.2629"
       x2="2493.7808"
       y2="1709.2629"
       gradientUnits="userSpaceOnUse" />
    <filter
       style="color-interpolation-filters:sRGB"
       id="filter4375-5-4-9"
       inkscape:label="deevad outline effect">
      <feFlood
         id="feFlood4377-0-3-0"
         flood-opacity="1"
         flood-color="rgb(255,255,255)"
         result="flood" />
      <feComposite
         id="feComposite4379-6-6-2"
         in2="SourceGraphic"
         in="flood"
         operator="in"
         result="composite1" />
      <feMorphology
         id="feMorphology4393-0-9-2"
         operator="dilate"
         radius="4"
         result="result3" />
      <feComposite
         id="feComposite4385-7-5-85"
         in2="result3"
         in="SourceGraphic"
         operator="over"
         result="composite2" />
    </filter>
    <filter
       inkscape:collect="always"
       style="color-interpolation-filters:sRGB"
       id="filter1071"
       x="-0.0010623704"
       width="1.0021247"
       y="-0.0013785965"
       height="1.0027572">
      <feGaussianBlur
         inkscape:collect="always"
         stdDeviation="0.37509731"
         id="feGaussianBlur1073" />
    </filter>
    <clipPath
       clipPathUnits="userSpaceOnUse"
       id="clipPath1078">
      <g
         id="g1084">
        <path
           inkscape:connector-curvature="0"
           style="color:#000000;display:inline;overflow:visible;visibility:visible;fill:#ffffff;fill-opacity:1;fill-rule:nonzero;stroke:none;stroke-width:1px;marker:none;enable-background:accumulate"
           d="m 882.25391,925.81055 c -51.09471,0.0746 -86.83599,27.75106 -86.75977,132.63285 0.46577,136.6481 43.10101,114.0735 87.34766,113.9843 -7.33993,7.094 -18.18458,12.6222 -34.21289,12.8282 13.61306,7.3841 36.45005,4.0707 52.09961,-11.4532 50.50096,6.6983 89.70411,20.6118 89.84179,-135.5644 0.10425,-118.17339 -36.72126,-106.39892 -91.98828,-111.61916 -5.5916,-0.52812 -11.04246,-0.81632 -16.32812,-0.80859 z"
           id="path1080" />
        <path
           inkscape:connector-curvature="0"
           style="color:#000000;display:inline;overflow:visible;visibility:visible;fill:#ffffff;fill-opacity:1;fill-rule:nonzero;stroke:none;stroke-width:0.77813977px;marker:none;enable-background:accumulate"
           d="m 1141.3008,962.56836 c -46.804,0.0675 -79.5444,25.07943 -79.4746,119.86914 0.314,90.9023 21.5636,103.8167 48.9179,104.2773 11.4002,15.4487 28.2431,18.1759 41.9454,9.1485 -11.5168,0.5707 -19.0177,-3.483 -23.7911,-9.8985 7.5622,-0.4853 15.3179,-0.8763 23.0196,-0.037 49.2658,5.3687 88.4697,25.7519 88.6015,-121.7519 0.095,-106.80003 -33.6358,-96.1595 -84.2617,-100.87697 -5.122,-0.47729 -10.1152,-0.73745 -14.957,-0.73047 z"
           id="path1082" />
      </g>
    </clipPath>
    <clipPath
       clipPathUnits="userSpaceOnUse"
       id="clipPath1115">
      <path
         style="color:#000000;display:inline;overflow:visible;visibility:visible;fill:#ffffff;fill-opacity:1;fill-rule:nonzero;stroke:none;stroke-width:1.0757786px;marker:none;enable-background:accumulate"
         d="m 1641.6595,1019.5039 c 28.6001,-92.58182 227.2081,-92.48147 281.3151,-56.88303 54.1064,35.5983 39.9279,53.61313 42.8957,133.36703 1.6394,44.0557 -6.7916,133.105 -33.9897,156.7671 -27.1982,23.6626 -103.6013,31.1558 -131.0516,33.0183 -27.4505,1.863 -115.2381,-6.0664 -137.7809,-36.4653 -21.5646,-29.08 -49.9887,-137.2229 -21.3886,-229.8041 z"
         id="path1117"
         inkscape:connector-curvature="0"
         sodipodi:nodetypes="zsssssz"
         clip-path="none" />
    </clipPath>
    <filter
       inkscape:collect="always"
       style="color-interpolation-filters:sRGB"
       id="filter1155"
       x="-0.0023301871"
       width="1.0046604"
       y="-0.0024741253"
       height="1.0049483">
      <feGaussianBlur
         inkscape:collect="always"
         stdDeviation="0.58350554"
         id="feGaussianBlur1157" />
    </filter>
    <filter
       style="color-interpolation-filters:sRGB;"
       inkscape:label="Drop Shadow"
       id="filter2473">
      <feFlood
         flood-opacity="1"
         flood-color="rgb(255,255,255)"
         result="flood"
         id="feFlood2463" />
      <feComposite
         in="flood"
         in2="SourceGraphic"
         operator="in"
         result="composite1"
         id="feComposite2465" />
      <feGaussianBlur
         in="composite1"
         stdDeviation="0"
         result="blur"
         id="feGaussianBlur2467" />
      <feOffset
         dx="2.5"
         dy="6"
         result="offset"
         id="feOffset2469" />
      <feComposite
         in="SourceGraphic"
         in2="offset"
         operator="over"
         result="fbSourceGraphic"
         id="feComposite2471" />
      <feColorMatrix
         result="fbSourceGraphicAlpha"
         in="fbSourceGraphic"
         values="0 0 0 -1 0 0 0 0 -1 0 0 0 0 -1 0 0 0 0 1 0"
         id="feColorMatrix2583" />
      <feFlood
         id="feFlood2585"
         flood-opacity="1"
         flood-color="rgb(255,255,255)"
         result="flood"
         in="fbSourceGraphic" />
      <feComposite
         in2="fbSourceGraphic"
         id="feComposite2587"
         in="flood"
         operator="in"
         result="composite1" />
      <feGaussianBlur
         id="feGaussianBlur2589"
         in="composite1"
         stdDeviation="0"
         result="blur" />
      <feOffset
         id="feOffset2591"
         dx="2.5"
         dy="-5.20833"
         result="offset" />
      <feComposite
         in2="offset"
         id="feComposite2593"
         in="fbSourceGraphic"
         operator="over"
         result="composite2" />
    </filter>
    <filter
       style="color-interpolation-filters:sRGB;"
       inkscape:label="Drop Shadow"
       id="filter2605">
      <feFlood
         flood-opacity="1"
         flood-color="rgb(255,255,255)"
         result="flood"
         id="feFlood2595" />
      <feComposite
         in="flood"
         in2="SourceGraphic"
         operator="in"
         result="composite1"
         id="feComposite2597" />
      <feGaussianBlur
         in="composite1"
         stdDeviation="0"
         result="blur"
         id="feGaussianBlur2599" />
      <feOffset
         dx="2.5"
         dy="-5.2"
         result="offset"
         id="feOffset2601" />
      <feComposite
         in="SourceGraphic"
         in2="offset"
         operator="over"
         result="fbSourceGraphic"
         id="feComposite2603" />
      <feColorMatrix
         result="fbSourceGraphicAlpha"
         in="fbSourceGraphic"
         values="0 0 0 -1 0 0 0 0 -1 0 0 0 0 -1 0 0 0 0 1 0"
         id="feColorMatrix2607" />
      <feFlood
         id="feFlood2609"
         flood-opacity="1"
         flood-color="rgb(255,255,255)"
         result="flood"
         in="fbSourceGraphic" />
      <feComposite
         in2="fbSourceGraphic"
         id="feComposite2611"
         in="flood"
         operator="in"
         result="composite1" />
      <feGaussianBlur
         id="feGaussianBlur2613"
         in="composite1"
         stdDeviation="0"
         result="blur" />
      <feOffset
         id="feOffset2615"
         dx="2.5"
         dy="9.4"
         result="offset" />
      <feComposite
         in2="offset"
         id="feComposite2617"
         in="fbSourceGraphic"
         operator="over"
         result="composite2" />
    </filter>
  </defs>
  <sodipodi:namedview
     pagecolor="#ffffff"
     bordercolor="#666666"
     borderopacity="1"
     objecttolerance="10"
     gridtolerance="10"
     guidetolerance="10"
     inkscape:pageopacity="0"
     inkscape:pageshadow="2"
     inkscape:window-width="1366"
     inkscape:window-height="705"
     id="namedview4"
     showgrid="false"
     inkscape:zoom="0.32526913"
     inkscape:cx="1144.0066"
     inkscape:cy="482.30064"
     inkscape:window-x="-8"
     inkscape:window-y="-8"
     inkscape:window-maximized="1"
     inkscape:current-layer="layer1"
     showguides="true"
     inkscape:guide-bbox="true">
    <sodipodi:guide
       position="1076.032,2665.4851"
       orientation="0,1"
       id="guide936"
       inkscape:locked="false" />
  </sodipodi:namedview>
  <g
     inkscape:groupmode="layer"
     id="layer2"
     inkscape:label="artwork"
     sodipodi:insensitive="true">
    <image
       sodipodi:absref="E:\Users\jamesmichael\Downloads\Compressed\eps\peppercarrot_ep13_translation-master\peppercarrot_ep13_translation-master\ph\../gfx_Pepper-and-Carrot_by-David-Revoy_E13P04.png"
       xlink:href="../gfx_Pepper-and-Carrot_by-David-Revoy_E13P04.png"
       y="0"
       x="0"
       id="image10"
       height="3503"
       width="2481" />
  </g>
  <g
     inkscape:groupmode="layer"
     id="layer3"
     inkscape:label="speechbubbles" />
  <g
     inkscape:groupmode="layer"
     id="layer1"
     inkscape:label="txt">
    <g
       id="g2221"
       style="opacity:0.783">
      <path
         inkscape:connector-curvature="0"
         id="path3581"
         d="m 1857.7228,1837.1624 c 54.3098,-48.3252 137.7616,34.2953 137.7616,34.2953 l -23.8433,15.5888 c 0,0 -66.2317,-63.914 -113.9183,-49.8841 z"
         style="color:#000000;display:inline;overflow:visible;visibility:visible;fill:#ffffff;fill-opacity:1;fill-rule:nonzero;stroke:none;stroke-width:1px;marker:none;enable-background:accumulate" />
      <path
         inkscape:transform-center-y="39.130434"
         inkscape:transform-center-x="-71.739128"
         sodipodi:nodetypes="czzzczzzzc"
         inkscape:connector-curvature="0"
         id="path3278"
         d="m 1936.2348,1801.8529 c 2.6676,-83.3334 13.7985,-152.9705 44.658,-184.2288 30.8597,-31.2583 50.709,-35.6353 93.1635,-34.1194 42.4545,1.5156 125.9342,-9.7365 152.6756,56.1537 26.7413,65.8906 29.4006,74.6548 32.856,122.6702 0.8711,87.9753 -12.5281,182.7927 -38.6033,203.1977 -26.0753,20.4047 -49.0785,23.5069 -71.9474,28.5322 -22.8692,5.025 -54.7372,3.1205 -83.2889,-6.6846 -28.5514,-9.8053 -58.7575,-9.0459 -89.357,-29.8725 -30.5995,-20.8264 -41.5841,-101.3704 -40.1565,-155.6485 z"
         style="fill:#ffffff;stroke:none;stroke-width:1.26530755" />
    </g>
    <g
       id="g2225"
       style="opacity:0.76300001"
       transform="matrix(1,0,0,1.0911844,0,-145.56562)">
      <path
         sodipodi:nodetypes="czzsszzc"
         inkscape:connector-curvature="0"
         id="path3286-5"
         d="m 341.66915,1793.6552 c 1.82646,-118.8519 32.51764,-159.4569 64.92009,-183.1215 32.40247,-23.6643 156.3561,-12.9917 177.93204,-1.4719 21.57596,11.5201 54.02679,37.6262 64.15469,96.3152 10.12791,58.6891 10.21061,175.1138 -0.12245,215.7312 -10.66325,41.9151 -25.27359,61.7054 -97.74386,75.2099 -72.47031,13.5044 -173.74072,-1.5597 -190.45098,-55.3804 -16.71028,-53.8206 -18.53582,-75.3748 -18.68953,-147.2825 z"
         style="fill:#ffffff;stroke:none;stroke-width:1.02805901" />
      <path
         inkscape:connector-curvature="0"
         id="path4018"
         d="m 703.15166,1940.1013 c -33.9191,-40.941 -65.92763,-19.5814 -77.33904,-16.6284 -11.4114,2.9531 -52.60696,13.9731 -78.13395,-21.0927 -25.52709,-35.0658 -73.65265,-32.0238 -73.65265,-32.0238 l 37.03502,53.2829 c 0,0 43.26371,26.3805 71.49065,25.0393 28.22696,-1.3413 64.27245,-20.6563 78.41788,-18.5689 14.14543,2.0872 29.27593,-0.6069 42.18209,9.9916 z"
         style="color:#000000;display:inline;overflow:visible;visibility:visible;fill:#ffffff;fill-opacity:1;fill-rule:nonzero;stroke:none;stroke-width:1px;marker:none;enable-background:accumulate" />
    </g>
    <path
       style="fill:#ffffff;stroke:none;stroke-width:0.79490954;opacity:0.789"
       d="m 135.92266,1564.7159 c 1.10959,-61.9794 19.75458,-83.1542 39.43918,-95.4949 19.68462,-12.3405 94.98688,-6.775 108.09435,-0.7676 13.10747,6.0076 32.82146,19.6214 38.9742,50.2268 6.15274,30.6055 6.20298,91.3191 -0.0744,112.5004 -6.47796,21.8581 -15.35379,32.1783 -59.37975,39.2208 -44.02596,7.0422 -105.54809,-0.8134 -115.69963,-28.88 -10.15157,-28.0666 -11.26058,-39.3068 -11.35396,-76.8055 z"
       id="path3286"
       inkscape:connector-curvature="0"
       sodipodi:nodetypes="czzsszzc" />
    <path
       style="fill:#ffffff;stroke:none;stroke-width:1px;stroke-linecap:butt;stroke-linejoin:miter;stroke-opacity:1;fill-opacity:1;filter:url(#filter1071);opacity:0.757"
       d="m 909.64453,685.32617 c -12.53343,0.14011 -23.54467,2.31827 -32.67773,6.92383 -89.92554,45.34707 -284.38008,58.41381 -299.75196,176.77734 -13.23807,101.93316 -49.84054,114.94734 -15.56836,177.95706 -60.68905,105.1009 66.47337,182.4697 70.9629,213.8965 4.61957,32.3369 39.40234,29.8906 39.40234,29.8906 0,0 8.15158,0.815 8.9668,-8.1524 0.81521,-8.9674 7.88052,-9.7826 16.57617,-10.3261 8.69566,-0.5435 19.56394,-14.6731 38.85742,-40.4883 19.29348,-25.8152 20.38068,-26.63 18.47851,-29.6192 -1.90215,-2.9891 -2.98836,-11.1423 -0.81445,-11.414 2.17391,-0.2718 9.51011,-2.9886 0.81445,-0.543 -8.69565,2.4457 -20.10725,-6.2506 -24.45507,-9.7832 -4.34783,-3.5326 0.54271,-10.3261 -5.43555,-12.5 -5.97827,-2.1739 -12.22843,-10.0536 -8.15234,-11.1406 4.07609,-1.087 20.92382,-15.625 20.92382,-15.625 0,0 17.93462,-11.4138 16.84766,-15.7617 -1.08696,-4.3478 7.06479,-5.9782 1.49414,-8.4239 -5.57066,-2.4456 -6.65667,-3.2599 -5.16211,-10.4609 1.49457,-7.2011 16.84809,-3.1254 2.85352,-7.8809 -13.99456,-4.7554 0,-15.3535 0,-15.3535 0,0 1.9009,-10.869 -1.76758,-13.0429 -3.66848,-2.1739 0,-5.5704 0,-5.5704 0,0 19.83695,-18.0718 37.5,-29.8925 17.66304,-11.8206 -4.89131,-31.9287 9.375,-15.2168 14.2663,16.712 0.95117,28.3965 0.95117,28.3965 0,0 -15.21646,15.8964 -14.53711,19.0214 0.10301,0.4739 0.11139,1.008 0.0684,1.5625 -0.74591,0.5764 -1.32804,1.1845 -1.69922,1.834 -8.69566,15.2173 7.65419,20.1748 11.14258,5.0274 2.17571,-9.4474 5.96845,-11.9989 13.72266,-2.5801 8.69566,7.0653 11.48047,10.3926 11.48047,10.3926 1.02079,5.3994 -2.01134,10.3365 -3.79493,8.7304 -6.87054,-9.5404 -5.4845,24.9398 21.66602,-1.2968 25.59251,-20.7754 22.42183,1.7575 21.95117,4.5859 1.33514,-2.4476 13.749,-10.5121 2.84961,26.5039 -18.79467,30.8543 -31.09449,30.2639 -30.64844,31.2461 0.21594,4.4979 -0.21379,5.7629 -0.47656,7.8672 2.4687,2.9538 0.96425,5.112 4.3418,4.8848 1.94406,1.0995 1.7873,5.7756 0.22461,11.8847 1.69891,3.9803 5.87987,14.887 0.25781,36.7774 8.69565,55.4348 -3.25977,84.7812 -3.25977,84.7812 0,0 -2.30117,2.3582 -4.22265,0.6289 -1.92149,-1.7293 -12.68164,-3.8437 -12.68164,-3.8437 0,0 -21.32914,-27.4765 -20.56055,-23.4414 0.7686,4.0351 -2.49824,10.7606 -3.45898,13.0664 -0.96075,2.3058 -5.18797,-2.8827 -5.57227,5.1875 -0.3843,8.0703 -4.22656,7.4941 -4.22656,7.4941 0,0 -1.92196,3.2671 -0.38477,10.9531 1.53719,7.6859 7.08594,12.7813 7.08594,12.7813 l -1.63086,7.6094 71.19531,8.6953 L 911,1320.7051 c -0.0103,0.058 -0.13086,0.7734 -0.13086,0.7734 l 252.17386,7.6094 30.4355,-65.2188 c 0,0 6.7926,-11.4133 2.9883,-16.3046 -3.1379,-4.0345 -6.267,-8.4333 -6.6602,-10.92 -1.1633,4.8387 -13.498,22.6551 -16.166,20.4317 -7.2828,1.7479 -15.3971,-7.5279 -12.0679,-27.2532 0.5325,-9.6687 8.6331,-21.9375 14.8784,-37.9205 1.6288,-1.6288 0.2657,-16.7238 -0.9695,-25.7619 -0.6724,-4.9203 1.6582,-10.609 3.8661,-12.3261 3.1097,-2.2479 -0.8152,-2.1724 -2.1739,-11.9551 -0.9396,-9.6569 -2.2211,6.3021 -1.7102,7.8956 2.4457,2.174 -4.5515,-1.9677 -4.763,-8.138 1.9022,-5.9783 -1.2286,1.4348 -0.4134,3.0653 1.3682,0.05 -4.0203,-6.7223 0.2256,-21.5319 5.4348,-18.2065 11.2894,-28.9688 38.7255,-28.5742 4.1646,0.06 1.7291,-0.3708 16.6445,3.1015 1.2378,-0.4978 2.5047,-1.3381 3.1934,-2.83 1.6304,-3.5326 2.9684,3.5138 0.2715,6.5214 -2.8247,3.1501 11.8767,0.9346 13.3144,20.1094 -0.2717,21.7391 2.4473,-104.6191 2.4473,-104.6191 0,0 -47.5545,-10.055 -41.5762,-53.53323 5.9782,-43.47826 36.1412,-41.57643 48.0977,-41.30469 11.9565,0.27174 41.0319,3.5338 42.3906,50.81641 1.3587,47.28261 -40.2168,42.39061 -40.2168,42.39061 l -2.4453,114.9453 55.4336,3.8047 c 0,0 158.1474,-185.0176 45.164,-241.12498 -101.5085,-50.40899 -331.4398,-208.7668 -442.31247,-207.52735 z m 280.16207,551.31833 c 0.2933,-1.1198 0.3455,-1.6684 0.1387,-1.3066 -0.1904,0.3332 -0.2222,0.7785 -0.1387,1.3066 z M 859.86328,1095.25 c -0.13005,0.2384 -0.19286,0.4408 -0.0801,0.5254 0.004,-0.022 0.0537,-0.367 0.0801,-0.5254 z"
       id="path931"
       inkscape:connector-curvature="0"
       sodipodi:nodetypes="ssscsccssccccssccccccscccccccsccccccccccccccccsccccccccccccccsccccccsccscccsscccsscccccc"
       clip-path="url(#clipPath1078)" />
    <path
       sodipodi:nodetypes="cccccccscccccsccccsscccccccccscscccssssc"
       inkscape:connector-curvature="0"
       id="path1090"
       d="m 1718.1926,1301.7459 c 0,0 -4.6116,-6.1488 -7.3017,-15.3719 -2.69,-9.2231 -0.4804,-12.5858 -2.0176,-20.2717 -1.0567,-3.843 2.0176,-2.0175 2.0176,-2.0175 4.0095,-3.1654 -2.9974,-33.7435 -8.2993,-48.4894 -4.9959,-14.9876 -5.4536,4.627 14.4481,1.9894 2.8823,-7.686 -6.9174,-20.752 -6.9174,-20.752 -0.1133,0.1322 6.3874,-0.7328 9.8626,-5.1809 1.4162,-1.8127 0.5999,-4.3481 0.8978,-7.8852 -1.5372,-9.2232 3.6508,-5.3802 2.8822,-13.8347 -0.7686,-8.4546 -3.2665,-8.0702 -4.4194,-14.9876 -1.1529,-6.9173 -5.9567,-3.2666 -11.3368,-6.7253 0.8669,-7.5008 -23.3901,-4.5434 -30.1673,-1.345 -7.686,5.3802 2.6898,4.6117 -0.3843,-11.5289 -3.0739,-16.1396 -0.2077,-38.8006 -7.8781,-46.5 -2.5535,3.6884 -4.4194,28.8224 -4.4194,28.8224 -4.4626,0.2488 -2.4902,-4.4162 -18.062,-7.1096 -17.1012,-0.3842 -9.9917,4.8038 -23.8264,10.184 -13.8347,5.3801 8.2623,16.3325 -5.1881,-27.8616 -4.0045,-13.1579 -4.3088,14.1605 -5.0115,15.1688 -1.6574,2.3784 1.4839,3.0653 -0.945,21.1473 -3.4587,25.7479 0.3843,13.0661 2.3058,15.7562 1.9214,2.69 3.4586,8.4545 -3.843,2.3057 -7.3017,-6.1487 -15.3719,-4.2272 -15.3719,-4.2272 0,0 4.6116,5.3801 -1.5372,7.3016 -6.1487,1.9215 -8.0702,1.9215 -19.2149,13.8347 -11.1446,11.9132 1.9215,5.7645 -1.345,23.0578 -3.2665,17.2934 -7.3016,-10.376 -3.843,-18.0619 3.4587,-7.686 3.8217,-10.1055 0.763,-21.5207 -6.9195,-9.5967 -11.1889,-146.36 -21.3229,-205.59895 -8.424,-49.24327 -19.2148,-52.26441 -19.2148,-52.26441 0,0 -8.8355,29.34942 -3.0744,93.76851 6.0169,67.27935 17.9592,144.40455 16.5055,154.58065 l 0.7299,12.7317 c -5.1733,13.7955 0.5446,20.4642 2.7481,26.3734 1.5371,7.686 -54.5702,34.5868 -65.3306,-71.4793 -10.7603,-106.06597 -142.9585,-318.198 -23.8264,-334.33848 119.1321,-16.14048 476.5285,-77.62803 487.2888,11.52891 10.7603,89.15694 141.4214,501.12347 -3.843,507.27227 -145.2643,6.1487 -222.508,11.5289 -222.508,11.5289 z"
       style="fill:#ffffff;fill-opacity:1;stroke:#001a00;stroke-width:1px;stroke-linecap:butt;stroke-linejoin:miter;stroke-opacity:0.39130435;filter:url(#filter1155);opacity:0.645"
       clip-path="url(#clipPath1115)" />
    <text
       xml:space="preserve"
       style="font-style:normal;font-variant:normal;font-weight:normal;font-stretch:normal;line-height:0%;font-family:Lavi;-inkscape-font-specification:Lavi;text-align:center;letter-spacing:0px;word-spacing:0px;text-anchor:middle;fill:#aa4400;fill-opacity:1;stroke:none;"
       x="896.50311"
       y="1017.986"
       id="text4246-2"><tspan
         sodipodi:role="line"
         style="font-size:45px;line-height:1.25;fill:#aa4400;"
         x="904.41327"
         y="1017.986"
         id="tspan917">&quot;         </tspan><tspan
         sodipodi:role="line"
         style="font-size:45px;line-height:1.25;fill:#aa4400;"
         x="896.50311"
         y="1074.236"
         id="tspan957">Tee-hee</tspan><tspan
         sodipodi:role="line"
         style="font-size:45px;line-height:1.25;fill:#aa4400;"
         x="904.41327"
         y="1130.486"
         id="tspan955">        &quot; </tspan></text>
    <text
       xml:space="preserve"
       style="font-style:normal;font-variant:normal;font-weight:normal;font-stretch:normal;line-height:0%;font-family:Lavi;-inkscape-font-specification:Lavi;text-align:center;letter-spacing:0px;word-spacing:0px;text-anchor:middle;fill:#000000;fill-opacity:1;stroke:none"
       x="237.5901"
       y="1551.097"
       id="text4246-9"><tspan
         sodipodi:role="line"
         style="font-size:45px;line-height:1.25"
         x="245.50026"
         y="1551.097"
         id="tspan4198">Chill </tspan><tspan
         sodipodi:role="line"
         style="font-size:45px;line-height:1.25"
         x="237.5901"
         y="1607.347"
         id="tspan918">Dude !</tspan></text>
    <text
       xml:space="preserve"
       style="font-style:normal;font-variant:normal;font-weight:normal;font-stretch:normal;line-height:0%;font-family:Lavi;-inkscape-font-specification:Lavi;text-align:center;letter-spacing:0px;word-spacing:0px;text-anchor:middle;fill:#000000;fill-opacity:1;stroke:none"
       x="2141.0076"
       y="1929.9561"
       id="text4246-9-0"><tspan
         sodipodi:role="line"
         style="font-size:45px;line-height:1.25"
         x="2141.0076"
         y="1933.4438"
         id="tspan3646" /></text>
    <text
       xml:space="preserve"
       style="color:#000000;font-style:normal;font-variant:normal;font-weight:normal;font-stretch:normal;line-height:0%;font-family:Arial;-inkscape-font-specification:Arial;letter-spacing:0.02734961px;word-spacing:0px;display:inline;overflow:visible;visibility:visible;fill:url(#linearGradient4319);fill-opacity:1;fill-rule:nonzero;stroke:#ffffff;stroke-width:1.11559534;stroke-linecap:butt;stroke-linejoin:miter;stroke-miterlimit:4;stroke-dasharray:none;stroke-dashoffset:0;stroke-opacity:1;marker:none;filter:url(#filter5561-7);enable-background:accumulate"
       x="1705.2566"
       y="1742.2045"
       id="text4251"
       transform="matrix(1.2066724,-0.38117004,-1.2048155,2.6846741,210.8676,-1444.7715)"><tspan
         sodipodi:role="line"
         id="tspan4253"
         x="1705.2566"
         y="1742.2045"
         style="font-style:normal;font-variant:normal;font-weight:normal;font-stretch:normal;font-size:160.11950684px;line-height:1.25;font-family:Lavi;-inkscape-font-specification:Lavi;fill:url(#linearGradient4319);fill-opacity:1"><tspan
           style="font-size:90px;fill:url(#linearGradient4319);fill-opacity:1"
           id="tspan4349">PHRoooOwwoww</tspan><tspan
           id="tspan4365"
           style="font-size:45.57711792px;fill:url(#linearGradient4319);fill-opacity:1"> ! </tspan><tspan
           id="tspan4311"
           style="font-size:55.8440094px;fill:url(#linearGradient4319);fill-opacity:1">! </tspan><tspan
           id="tspan4369"
           style="font-size:72.51364136px;fill:url(#linearGradient4319);fill-opacity:1">!</tspan></tspan></text>
    <text
       xml:space="preserve"
       style="color:#000000;font-style:normal;font-variant:normal;font-weight:normal;font-stretch:normal;line-height:0%;font-family:Lavi;-inkscape-font-specification:'Lavi, Normal';text-align:center;letter-spacing:0px;word-spacing:0px;writing-mode:lr-tb;text-anchor:middle;clip-rule:nonzero;display:inline;overflow:visible;visibility:visible;opacity:1;isolation:auto;mix-blend-mode:normal;color-interpolation:sRGB;color-interpolation-filters:linearRGB;solid-color:#000000;solid-opacity:1;fill:#000000;fill-opacity:1;fill-rule:nonzero;stroke:#000000;stroke-width:0.90000004;stroke-linecap:butt;stroke-linejoin:miter;stroke-miterlimit:4;stroke-dasharray:none;stroke-dashoffset:0;stroke-opacity:1;filter:url(#filter4375-5-4-9);color-rendering:auto;image-rendering:auto;shape-rendering:auto;text-rendering:auto;enable-background:accumulate"
       x="1367.1063"
       y="691.71692"
       id="text4136"
       transform="matrix(0.93976911,-0.43795269,-0.15709312,1.3120201,-958.24084,3010.993)"><tspan
         sodipodi:role="line"
         id="tspan4138"
         x="1367.1063"
         y="691.71692"
         style="font-size:47.00374985px;line-height:1.25">Shhshh</tspan></text>
    <g
       id="g2233"
       style="opacity:0.829">
      <path
         sodipodi:nodetypes="ccccccccccccccccccc"
         inkscape:connector-curvature="0"
         id="path4772"
         d="m 333.3784,3035.1905 c 25.60091,4.7867 29.15684,-6.3823 10.66709,-33.5074 25.17472,14.8421 25.82493,-1.4971 22.93425,-22.3382 12.93818,15.244 21.72974,11.8803 26.13439,-11.1691 8.91774,3.6485 11.74778,23.2323 30.93457,0 11.02267,27.953 22.04533,10.778 33.068,0 -5.55411,23.0037 1.49226,28.0161 27.2011,6.3823 -12.30069,26.2842 -5.65206,28.7591 17.6007,10.3713 -16.79837,27.9876 1.86549,29.4529 18.13407,32.7097 -10.7893,16.2549 -12.29282,27.6078 1.06671,31.1139 -25.32117,2.7296 -21.48571,13.8462 -10.13375,27.125 -22.11183,-5.5013 -29.60746,-0.071 -17.6007,19.9449 -34.17608,-21.926 -28.6903,-5.9202 -30.40123,4.7868 -14.47015,-8.2656 -18.2249,-19.6075 -30.40122,3.1911 -7.23293,-7.0168 -8.37344,-23.6942 -31.46793,-0.7978 -5.32485,-25.8323 -18.88273,-7.224 -29.33451,-3.989 1.84383,-13.6123 3.34113,-26.8298 -24.00096,-7.1801 5.11171,-13.4442 8.81452,-26.0638 -18.13407,-20.7426 23.37457,-13.3462 13.70534,-24.6329 3.73349,-35.9008 z"
         style="fill:#ffffff;fill-rule:evenodd;stroke:none;stroke-width:1px;stroke-linecap:butt;stroke-linejoin:miter;stroke-opacity:1" />
      <path
         sodipodi:nodetypes="cccccccc"
         inkscape:connector-curvature="0"
         id="path4782"
         d="m 503.71196,3181.8003 -28.43105,-56.3497 -25.3357,11.715 -29.60898,-52.061 22.6684,-5.0037 11.81036,40.4128 23.42857,-14.339 z"
         style="fill:#ffffff;fill-rule:evenodd;stroke:none;stroke-width:1px;stroke-linecap:butt;stroke-linejoin:miter;stroke-opacity:1" />
    </g>
    <text
       xml:space="preserve"
       style="font-style:normal;font-variant:normal;font-weight:normal;font-stretch:normal;line-height:0%;font-family:Lavi;-inkscape-font-specification:Lavi;text-align:center;letter-spacing:0px;word-spacing:0px;text-anchor:middle;fill:#002b22;fill-opacity:1;stroke:none;stroke-width:1.20000005;stroke-miterlimit:4;stroke-dasharray:none;filter:url(#filter2605)"
       x="442.97519"
       y="2933.5452"
       id="text4246-9-0-7-1"
       transform="scale(0.95730752,1.0445964)"><tspan
         sodipodi:role="line"
         style="font-size:68.75143433px;line-height:1.25;stroke:#000000;stroke-width:1.83337176;stroke-miterlimit:4;stroke-dasharray:none;stroke-opacity:1;fill:#002b22;"
         x="442.97519"
         y="2933.5452"
         id="tspan4233-2-3">?!!</tspan></text>
    <g
       id="g2229"
       style="opacity:0.862">
      <path
         sodipodi:nodetypes="cccccccccccccccccccc"
         inkscape:connector-curvature="0"
         id="path3549-3-3-0"
         d="m 1076.2469,3062.2315 c -52.1,-30.7418 -105.25059,-61.2017 -9.947,-131.5468 -89.41549,15.8248 -34.0921,-23.0007 -11.6911,-49.396 -160.11839,48.0867 -55.66979,-35.0398 -15.5407,-86.267 -35.8676,19.7052 -93.57299,76.7741 -70.55399,-4.2715 -33.941,33.3554 -67.0544,35.9481 -61.4445,3.0511 -14.5374,19.959 -23.76456,25.0213 -23.21867,2.6685 -13.69117,16.3813 -32.44637,31.8941 -17.62182,-48.7568 -76.48013,97.1542 -80.32808,89.4103 -136.95738,35.9774 10.17747,54.5802 -9.91618,78.5781 -73.42492,21.8638 -3.85896,21.6917 -23.52558,29.8523 -57.2976,25.9399 34.1394,27.5646 35.60637,42.6145 -44.56835,26.3941 55.62189,23.5618 106.84453,46.9662 19.45757,65.4164 25.04145,11.8369 116.08231,6.704 11.9577,91.3868 55.25151,-19.0389 148.08077,3.6915 112.07322,66.9782 43.46358,-40.7174 89.28637,-68.7443 82.91259,22.2051 95.12535,-88.4303 47.01444,-47.8966 97.71286,-1.8972 -16.23722,-90.3152 37.3932,-42.8533 74.8794,-10.9895 -17.717,-56.8945 28.5835,-28.0323 90.09129,6.7912 -46.84969,-55.0957 2.1749,-38.5941 33.1814,-35.5477 z"
         style="color:#000000;display:inline;overflow:visible;visibility:visible;fill:#ffffff;fill-opacity:1;fill-rule:nonzero;stroke:none;stroke-width:1.15326989px;marker:none;enable-background:accumulate" />
      <path
         inkscape:transform-center-y="5.8665716"
         inkscape:transform-center-x="-12.082509"
         sodipodi:nodetypes="ccccccccc"
         inkscape:connector-curvature="0"
         id="path4780"
         d="m 773.78167,3178.749 18.32267,-106.7687 -28.18166,5.4285 -0.52352,-31.4691 0.74104,-70.3298 26.77283,2.65 -3.34988,74.5691 30.45945,-5.9173 z"
         style="fill:#ffffff;fill-rule:evenodd;stroke:none;stroke-width:1px;stroke-linecap:butt;stroke-linejoin:miter;stroke-opacity:1" />
    </g>
    <text
       xml:space="preserve"
       style="font-style:normal;font-variant:normal;font-weight:normal;font-stretch:normal;line-height:0%;font-family:Lavi;-inkscape-font-specification:Lavi;text-align:center;letter-spacing:0px;word-spacing:0px;text-anchor:middle;fill:#aa0000;fill-opacity:1;stroke:#aa0000;stroke-width:2.29884267;stroke-miterlimit:4;stroke-dasharray:none;stroke-opacity:1;filter:url(#filter2473)"
       x="867.21381"
       y="2853.459"
       id="text4246-9-0-9"
       transform="scale(0.95790111,1.0439491)"><tspan
         sodipodi:role="line"
         style="font-size:60.61835861px;line-height:1.25;fill:#aa0000;stroke:#aa0000;stroke-width:2.29884267;stroke-miterlimit:4;stroke-dasharray:none;stroke-opacity:1"
         x="867.21381"
         y="2853.459"
         id="tspan4206-3"><tspan
           style="font-size:87.54251099px;fill:#aa0000;stroke:#aa0000;stroke-width:2.29884267"
           id="tspan4275">PEPPER !</tspan><tspan
           style="font-size:81.25px;fill:#aa0000;stroke:#aa0000"
           id="tspan4208"><tspan
             style="font-size:93.75px;fill:#aa0000;stroke:#aa0000"
             id="tspan4210">!!</tspan></tspan></tspan></text>
    <text
       id="text4210"
       y="1705.9415"
       x="493.5639"
       style="font-style:normal;font-variant:normal;font-weight:normal;font-stretch:normal;line-height:0%;font-family:Lavi;-inkscape-font-specification:Lavi;text-align:center;letter-spacing:0px;word-spacing:0px;text-anchor:middle;fill:#000000;fill-opacity:1;stroke:none"
       xml:space="preserve"><tspan
         y="1705.9415"
         x="501.47406"
         style="font-size:45px;line-height:1.25"
         sodipodi:role="line"
         id="tspan3636">Para ka </tspan><tspan
         y="1762.1915"
         x="501.47406"
         style="font-size:45px;line-height:1.25"
         sodipodi:role="line"
         id="tspan920">namang </tspan><tspan
         y="1818.4415"
         x="493.5639"
         style="font-size:45px;line-height:1.25"
         sodipodi:role="line"
         id="tspan1165">lola namin eh</tspan><tspan
         y="1874.6915"
         x="501.47406"
         style="font-size:45px;line-height:1.25"
         sodipodi:role="line"
         id="tspan3638">party pa </tspan><tspan
         y="1930.9415"
         x="501.47406"
         style="font-size:45px;line-height:1.25"
         sodipodi:role="line"
         id="tspan922">ba to o </tspan><tspan
         y="1987.1915"
         x="493.5639"
         style="font-size:45px;line-height:1.25"
         sodipodi:role="line"
         id="tspan4882">sermon?</tspan></text>
    <flowRoot
       xml:space="preserve"
       id="flowRoot893"
       style="font-style:normal;font-variant:normal;font-weight:normal;font-stretch:normal;font-size:40px;line-height:1.25;font-family:Lavi;-inkscape-font-specification:Lavi;letter-spacing:0px;word-spacing:0px;fill:#800033;fill-opacity:1;stroke:none"
       transform="translate(72.070079,98.462802)"><flowRegion
         id="flowRegion895"
         style="font-style:normal;font-variant:normal;font-weight:normal;font-stretch:normal;font-family:Lavi;-inkscape-font-specification:Lavi;fill:#800033"><rect
           id="rect897"
           width="226.71776"
           height="431.97961"
           x="1619.5652"
           y="907.3479"
           style="font-style:normal;font-variant:normal;font-weight:normal;font-stretch:normal;font-family:Lavi;-inkscape-font-specification:Lavi;fill:#800033" /></flowRegion><flowPara
         id="flowPara903">Concentrate </flowPara><flowPara
         id="flowPara1092"> girls! Last </flowPara><flowPara
         id="flowPara1094">  Mini-Boss</flowPara><flowPara
         id="flowPara1096">    na to!</flowPara></flowRoot>    <text
       id="text915"
       y="1040.3076"
       x="1154.8662"
       style="font-style:normal;font-variant:normal;font-weight:normal;font-stretch:normal;font-size:10.50798035px;line-height:0%;font-family:Lavi;-inkscape-font-specification:Lavi;text-align:center;letter-spacing:0px;word-spacing:0px;text-anchor:middle;fill:#006680;fill-opacity:1;stroke:none;stroke-width:0.87566501;"
       xml:space="preserve"><tspan
         id="tspan913"
         y="1040.3076"
         x="1161.7928"
         style="font-size:39.4049263px;line-height:1.25;stroke-width:0.87566501;fill:#006680;"
         sodipodi:role="line">wha ha </tspan><tspan
         y="1089.5637"
         x="1161.7928"
         style="font-size:39.4049263px;line-height:1.25;stroke-width:0.87566501;fill:#006680;"
         sodipodi:role="line"
         id="tspan921">haha ha </tspan><tspan
         y="1138.8199"
         x="1161.7928"
         style="font-size:39.4049263px;line-height:1.25;stroke-width:0.87566501;fill:#006680;"
         sodipodi:role="line"
         id="tspan929">hah    </tspan></text>
    <flowRoot
       xml:space="preserve"
       id="flowRoot1171"
       style="fill:black;fill-opacity:1;stroke:none;font-family:sans-serif;font-style:normal;font-weight:normal;font-size:40px;line-height:1.25;letter-spacing:0px;word-spacing:0px"><flowRegion
         id="flowRegion1173"><rect
           id="rect1175"
           width="173.70232"
           height="233.65266"
           x="1912.2627"
           y="1610.7208" /></flowRegion><flowPara
         id="flowPara1177" /></flowRoot>    <flowRoot
       xml:space="preserve"
       id="flowRoot1181"
       style="font-style:normal;font-variant:normal;font-weight:normal;font-stretch:normal;font-size:40px;line-height:1.25;font-family:Lavi;-inkscape-font-specification:Lavi;letter-spacing:0px;word-spacing:0px;fill:#000000;fill-opacity:1;stroke:none"
       transform="matrix(1.2739151,0,0,1.2739151,-361.73982,-399.77274)"><flowRegion
         id="flowRegion1183"
         style="font-style:normal;font-variant:normal;font-weight:normal;font-stretch:normal;font-family:Lavi;-inkscape-font-specification:Lavi"><rect
           id="rect1185"
           width="166.01627"
           height="345.86737"
           x="1869.2213"
           y="1587.663"
           style="font-style:normal;font-variant:normal;font-weight:normal;font-stretch:normal;font-family:Lavi;-inkscape-font-specification:Lavi" /></flowRegion><flowPara
         id="flowPara1187">... </flowPara><flowPara
         id="flowPara1199">Wala pa tayo sa </flowPara><flowPara
         id="flowPara2217">  main </flowPara><flowPara
         id="flowPara1203"> Boss...</flowPara></flowRoot>  </g>
</svg>
