<?xml version="1.0" encoding="UTF-8" standalone="no"?>
<!-- Created With Inkscape (http://www.inkscape.org/) -->

<svg
   xmlns:dc="http://purl.org/dc/elements/1.1/"
   xmlns:cc="http://creativecommons.org/ns#"
   xmlns:rdf="http://www.w3.org/1999/02/22-rdf-syntax-ns#"
   xmlns:svg="http://www.w3.org/2000/svg"
   xmlns="http://www.w3.org/2000/svg"
   xmlns:xlink="http://www.w3.org/1999/xlink"
   xmlns:sodipodi="http://sodipodi.sourceforge.net/DTD/sodipodi-0.dtd"
   xmlns:inkscape="http://www.inkscape.org/namespaces/inkscape"
   id="svg2"
   version="1.1"
   inkscape:version="0.92.1 r15371"
   width="2646.3999"
   height="3736.5334"
   sodipodi:docname="E11P05.svg"
   viewBox="0 0 2481 3503">
  <metadata
     id="metadata8">
    <rdf:RDF>
      <cc:Work
         rdf:about="">
        <dc:format>image/svg+xml</dc:format>
        <dc:type
           rdf:resource="http://purl.org/dc/dcmitype/StillImage" />
        <dc:title />
      </cc:Work>
    </rdf:RDF>
  </metadata>
  <defs
     id="defs6">
    <filter
       style="color-interpolation-filters:sRGB"
       id="filter4375-4-1-1"
       inkscape:label="deevad outline effect">
      <feFlood
         id="feFlood4377-7-9-0"
         flood-opacity="1"
         flood-color="rgb(118,29,43)"
         result="flood" />
      <feComposite
         id="feComposite4379-3-8-8"
         in2="SourceGraphic"
         in="flood"
         operator="in"
         result="composite1" />
      <feMorphology
         id="feMorphology4393-1-0-49"
         operator="dilate"
         radius="4"
         result="result3" />
      <feComposite
         id="feComposite4385-9-5-7"
         in2="result3"
         in="SourceGraphic"
         operator="over"
         result="composite2" />
    </filter>
    <filter
       style="color-interpolation-filters:sRGB"
       id="filter4375-4-1-1-9"
       inkscape:label="deevad outline effect">
      <feFlood
         id="feFlood4377-7-9-0-2"
         flood-opacity="1"
         flood-color="rgb(0,0,0)"
         result="flood" />
      <feComposite
         id="feComposite4379-3-8-8-5"
         in2="SourceGraphic"
         in="flood"
         operator="in"
         result="composite1" />
      <feMorphology
         id="feMorphology4393-1-0-49-5"
         operator="dilate"
         radius="4"
         result="result3" />
      <feComposite
         id="feComposite4385-9-5-7-5"
         in2="result3"
         in="SourceGraphic"
         operator="over"
         result="composite2" />
    </filter>
  </defs>
  <sodipodi:namedview
     pagecolor="#ffffff"
     bordercolor="#666666"
     borderopacity="1"
     objecttolerance="10"
     gridtolerance="10"
     guidetolerance="10"
     inkscape:pageopacity="0"
     inkscape:pageshadow="2"
     inkscape:window-width="1858"
     inkscape:window-height="1057"
     id="namedview4"
     showgrid="false"
     inkscape:zoom="0.34782609"
     inkscape:cx="1104.7111"
     inkscape:cy="916.545"
     inkscape:window-x="54"
     inkscape:window-y="-8"
     inkscape:window-maximized="1"
     inkscape:current-layer="layer1" />
  <g
     inkscape:groupmode="layer"
     id="layer2"
     inkscape:label="artwork"
     sodipodi:insensitive="true">
    <image
       sodipodi:absref="../gfx_Pepper-and-Carrot_by-David-Revoy_E11P05.png"
       xlink:href="../gfx_Pepper-and-Carrot_by-David-Revoy_E11P05.png"
       y="0"
       x="0"
       id="image10"
       height="3503"
       width="2481" />
  </g>
  <g
     inkscape:groupmode="layer"
     id="layer3"
     inkscape:label="speechbubbles" />
  <g
     inkscape:groupmode="layer"
     id="layer1"
     inkscape:label="txt">
    <flowRoot
       xml:space="preserve"
       id="flowRoot2987-7-9-9-7-0-3-4"
       style="font-style:normal;font-variant:normal;font-weight:normal;font-stretch:normal;line-height:0.01%;font-family:Lavi;-inkscape-font-specification:Lavi;letter-spacing:0px;word-spacing:0px;fill:#000000;fill-opacity:1;stroke:#000000;stroke-width:0.99236238;stroke-miterlimit:4;stroke-dasharray:none;stroke-opacity:1;filter:url(#filter4375-4-1-1)"
       transform="matrix(0.72826899,-0.81755759,0.24767521,2.1649058,787.1265,-276.56588)"><flowRegion
         id="flowRegion2989-4-5-8-7-41-7-62"
         style="stroke-width:5.40286207"><rect
           id="rect2991-45-1-3-3-8-0-4"
           width="319.66232"
           height="56.089447"
           x="120.55251"
           y="265.53046"
           style="font-style:normal;font-variant:normal;font-weight:normal;font-stretch:normal;font-family:Lavi;-inkscape-font-specification:Lavi;fill:#000000;fill-opacity:1;stroke:#000000;stroke-width:0.99236238;stroke-miterlimit:4;stroke-dasharray:none;stroke-opacity:1" /></flowRegion><flowPara
         id="flowPara2995-4-1-5-0-7-2-6"
         style="font-weight:normal;font-size:48px;line-height:1.25;-inkscape-font-specification:Lavi;letter-spacing:7.06853437px;fill:#ffffff;fill-opacity:1;stroke:#ffffff;stroke-width:0.99236238;stroke-linejoin:miter;stroke-miterlimit:4;stroke-dasharray:none;stroke-opacity:1">Dzyzyz.</flowPara></flowRoot>    <path
       style="color:#000000;display:inline;overflow:visible;visibility:visible;fill:#ffffff;fill-opacity:1;fill-rule:nonzero;stroke:none;stroke-width:0.67563963px;marker:none;enable-background:accumulate"
       d="m 1297.0525,1058.0601 c -6.3809,0.4081 -12.0756,2.3592 -15.7002,5.7205 -9.3936,-9.4451 -22.5803,0.7677 -23.7932,2.9013 -11.8195,-5.178 -28.4918,-1.821 -35.0855,3.2852 -15.694,-7.6366 -49.4266,3.4746 -48.7595,18.9952 -18.3724,10.9868 -19.5453,24.1781 -14.1242,32.2636 -14.1069,9.0482 -21.9872,51.661 17.5004,56.3964 10.8424,16.1711 40.8793,23.6202 54.9861,14.5718 19.0399,4.5339 30.957,8.6113 35.8087,0.077 7.622,7.6638 25.2001,9.4117 27.9415,1.2987 13.6267,8.0421 32.5308,10.2858 42.8761,3.6502 19.0398,4.5338 30.957,8.6127 35.8087,0.078 9.3934,9.4452 25.3844,11.8304 34.0712,-0.059 16.3001,6.0847 18.9002,2.2545 29.9865,-3.99 18.1927,12.5409 34.8803,7.098 41.8639,-3.6446 25.8444,5.4447 30.4282,-13.2254 29.2974,-20.2508 22.901,-6.6264 29.5415,-23.3679 12.8603,-37.7686 5.6336,-17.3292 -1.7662,-37.7013 -35.7754,-46.5088 -7.9851,-13.7771 -35.6939,-24.3937 -55.084,-13.472 -13.3658,-10.8045 -34.8309,-11.0712 -43.7528,-2.7969 -6.7439,-6.7809 -15.4202,-3.4296 -20.2398,-0.21 -12.0802,-6.8626 -29.3179,-9.5207 -42.6336,-2.0204 -7.936,-6.4151 -18.7267,-9.1144 -28.0526,-8.5174 z"
       id="path4043"
       inkscape:connector-curvature="0"
       sodipodi:nodetypes="ccccccccccccccccccccccc" />
    <flowRoot
       xml:space="preserve"
       id="flowRoot2987-4-9-3-5-9-8-3-5-4-0-5-5"
       style="font-style:normal;font-variant:normal;font-weight:normal;font-stretch:normal;line-height:0.01%;font-family:Lavi;-inkscape-font-specification:Lavi;text-align:center;letter-spacing:0px;word-spacing:0px;text-anchor:middle;fill:#000000;fill-opacity:1;stroke:none"
       transform="translate(970.95336,834.89393)"><flowRegion
         id="flowRegion2989-5-4-5-8-9-5-4-2-2-5-0-8"><rect
           id="rect2991-7-9-6-5-7-5-4-9-5-4-3-2"
           width="493.73337"
           height="314.38708"
           x="120.55251"
           y="265.53046"
           style="font-style:normal;font-variant:normal;font-weight:normal;font-stretch:normal;font-family:Lavi;-inkscape-font-specification:Lavi;text-align:center;text-anchor:middle" /></flowRegion><flowPara
         style="font-size:45px;line-height:1.25;text-align:center;text-anchor:middle"
         id="flowPara4272-0">i do mi simsa</flowPara></flowRoot>    <path
       style="color:#000000;display:inline;overflow:visible;visibility:visible;fill:#ffffff;fill-opacity:1;fill-rule:nonzero;stroke:none;stroke-width:1px;marker:none;enable-background:accumulate"
       d="m 1263.0275,1261.586 c 3.2526,-13.9142 12.362,-12.7945 19.7109,-8.2909 7.1257,-0.1505 15.5492,0.9462 9.5739,13.2654 4.4484,3.5928 10.3777,11.5837 -2.1306,18.3276 -1.7432,6.2934 -19.9536,11.285 -26.591,-2.8511 -12.9529,-6.0801 -17.4582,-18.2401 -0.5632,-20.451 z"
       id="path4051"
       inkscape:connector-curvature="0"
       sodipodi:nodetypes="cccccc" />
    <path
       style="color:#000000;display:inline;overflow:visible;visibility:visible;fill:#ffffff;fill-opacity:1;fill-rule:nonzero;stroke:none;stroke-width:1px;marker:none;enable-background:accumulate"
       d="m 1286.2708,1309.2578 c 3.6765,-1.0212 6.7369,1.1598 9.1289,4.1414 11.2359,-14.5964 27.0112,26.7457 -0.4784,19.6785 -16.7378,5.7055 -18.2129,-9.5291 -11.4815,-14.9079 -2.5821,-3.2186 -0.8455,-7.8909 2.831,-8.912 z"
       id="path4059"
       inkscape:connector-curvature="0"
       sodipodi:nodetypes="zcccz" />
    <path
       style="color:#000000;display:inline;overflow:visible;visibility:visible;fill:#ffffff;fill-opacity:1;fill-rule:nonzero;stroke:none;stroke-width:0.78695512px;marker:none;enable-background:accumulate"
       d="m 919.88663,2375.7845 c 3.49096,-0.5176 6.57788,-2.3865 8.50429,-5.4552 5.32094,8.1455 12.36589,-1.2315 12.99222,-3.1528 6.57381,4.3028 15.6537,0.9197 19.17638,-3.7686 8.74256,6.3882 27.0356,-4.2865 26.38919,-18.0317 9.87404,-10.1899 10.27836,-21.9146 7.15996,-28.9515 7.57053,-8.3668 11.12003,-46.3421 -10.61479,-49.5776 -6.23696,-14.0737 -22.83962,-19.9459 -30.41014,-11.5788 -10.52078,-3.5557 -17.12813,-6.8803 -19.63378,0.8052 -4.31743,-6.6095 -13.98634,-7.7304 -15.34257,-0.4701 -7.6164,-6.7982 -18.02127,-8.3265 -23.57313,-2.1906 -10.52071,-3.5555 -17.12814,-6.8814 -19.63378,0.8042 -5.3208,-8.1454 -14.13111,-9.8704 -18.67866,0.8829 -9.04667,-4.9974 -10.40287,-1.538 -16.36808,4.2692 -10.20111,-10.6757 -19.25174,-5.4426 -22.88625,4.2528 -14.26785,-4.1973 -16.44322,12.4687 -15.69611,18.6702 -12.43579,6.434 -15.77359,21.44 -6.36756,33.8017 -2.77517,15.5024 1.65039,33.3851 20.45545,40.3648 4.62708,12.021 20.01068,20.7583 30.44386,10.6015 7.52333,9.2538 19.29651,8.9666 24.03836,1.4127 3.82,5.8477 8.51619,2.6646 11.10039,-0.3076 6.74717,5.7901 16.2459,7.7264 23.41067,0.7514 4.46701,5.4945 10.43191,7.6246 15.53408,6.8679 z"
       id="path4043-4"
       inkscape:connector-curvature="0"
       sodipodi:nodetypes="ccccccccccccccccccccccc" />
    <flowRoot
       xml:space="preserve"
       id="flowRoot2987-4-9-3-5-9-8-3-5-4-0-5-5-7"
       style="font-style:normal;font-variant:normal;font-weight:normal;font-stretch:normal;line-height:0.01%;font-family:Lavi;-inkscape-font-specification:Lavi;text-align:center;letter-spacing:0px;word-spacing:0px;text-anchor:middle;fill:#000000;fill-opacity:1;stroke:none"
       transform="translate(526.87792,2012.1239)"><flowRegion
         id="flowRegion2989-5-4-5-8-9-5-4-2-2-5-0-8-9"><rect
           id="rect2991-7-9-6-5-7-5-4-9-5-4-3-2-2"
           width="493.73337"
           height="314.38708"
           x="120.55251"
           y="265.53046"
           style="font-style:normal;font-variant:normal;font-weight:normal;font-stretch:normal;font-family:Lavi;-inkscape-font-specification:Lavi;text-align:center;text-anchor:middle" /></flowRegion><flowPara
         style="font-size:45px;line-height:1.25;text-align:center;text-anchor:middle"
         id="flowPara4272-0-7">i citno</flowPara></flowRoot>    <path
       style="color:#000000;display:inline;overflow:visible;visibility:visible;fill:#ffffff;fill-opacity:1;fill-rule:nonzero;stroke:none;stroke-width:1.05785155px;marker:none;enable-background:accumulate"
       d="m 1092.7061,2467.0345 c 5.8835,-0.5176 11.086,-2.3865 14.3328,-5.4552 8.9677,8.1455 20.841,-1.2315 21.8966,-3.1528 11.0791,4.3028 26.382,0.9197 32.319,-3.7686 14.7344,6.3882 45.5648,-4.2865 44.4753,-18.0317 16.6413,-10.1899 17.3228,-21.9146 12.0672,-28.9515 12.759,-8.3668 18.7413,-46.3421 -17.8898,-49.5776 -10.5116,-14.0737 -38.4931,-19.9459 -51.2521,-11.5788 -17.7312,-3.5557 -28.867,-6.8803 -33.0899,0.8052 -7.2764,-6.6095 -23.572,-7.7304 -25.8577,-0.4701 -12.8364,-6.7982 -30.3725,-8.3265 -39.7292,-2.1906 -17.7312,-3.5555 -28.8671,-6.8814 -33.0901,0.8042 -8.9673,-8.1454 -23.81587,-9.8704 -31.48016,0.8829 -15.24688,-4.9974 -17.53256,-1.538 -27.58608,4.2692 -17.19253,-10.6757 -32.44609,-5.4426 -38.57154,4.2528 -24.04644,-4.1973 -27.71273,12.4687 -26.45358,18.6702 -20.95876,6.434 -26.58415,21.44 -10.73162,33.8017 -4.67715,15.5024 2.7815,33.3851 34.47477,40.3648 7.79828,12.021 33.72517,20.7583 51.30884,10.6015 12.6795,9.2538 32.52157,8.9666 40.51327,1.4127 6.4381,5.8477 14.3528,2.6646 18.7082,-0.3076 11.3713,5.7901 27.3801,7.7264 39.4553,0.7514 7.5285,5.4945 17.5815,7.6246 26.1805,6.8679 z"
       id="path4043-4-9"
       inkscape:connector-curvature="0"
       sodipodi:nodetypes="ccccccccccccccccccccccc" />
    <flowRoot
       xml:space="preserve"
       id="flowRoot2987-4-9-3-5-9-8-3-5-4-0-5-5-7-1"
       style="font-style:normal;font-variant:normal;font-weight:normal;font-stretch:normal;line-height:0.01%;font-family:Lavi;-inkscape-font-specification:Lavi;text-align:center;letter-spacing:0px;word-spacing:0px;text-anchor:middle;fill:#000000;fill-opacity:1;stroke:none"
       transform="translate(671.61252,2111.665)"><flowRegion
         id="flowRegion2989-5-4-5-8-9-5-4-2-2-5-0-8-9-8"><rect
           id="rect2991-7-9-6-5-7-5-4-9-5-4-3-2-2-3"
           width="493.73337"
           height="314.38708"
           x="120.55251"
           y="265.53046"
           style="font-style:normal;font-variant:normal;font-weight:normal;font-stretch:normal;font-family:Lavi;-inkscape-font-specification:Lavi;text-align:center;text-anchor:middle" /></flowRegion><flowPara
         style="font-size:45px;line-height:1.25;text-align:center;text-anchor:middle"
         id="flowPara4272-0-7-7">i kansa no da</flowPara></flowRoot>    <path
       style="color:#000000;display:inline;overflow:visible;visibility:visible;fill:#ffffff;fill-opacity:1;fill-rule:nonzero;stroke:none;stroke-width:1.03141987px;marker:none;enable-background:accumulate"
       d="m 1706.0864,2601.3246 c 8.197,-0.7381 15.4451,-3.4028 19.9684,-7.7784 12.4937,11.6143 29.0354,-1.7559 30.5061,-4.4952 15.4354,6.135 36.7552,1.3112 45.0266,-5.3736 20.5278,9.1086 63.4804,-6.1118 61.9627,-25.7102 23.1844,-14.5292 24.1338,-31.2468 16.8116,-41.2804 17.7759,-11.9297 26.1104,-66.0763 -24.9238,-70.6897 -14.6446,-20.0668 -53.6281,-28.4397 -71.4038,-16.5096 -24.7032,-5.0698 -40.2173,-9.8102 -46.1005,1.1482 -10.1374,-9.4241 -32.8405,-11.0225 -36.0248,-0.6704 -17.8838,-9.693 -42.3146,-11.8721 -55.3506,-3.1234 -24.7028,-5.0696 -40.2172,-9.8119 -46.1006,1.1466 -12.4933,-11.614 -33.1802,-14.0736 -43.8581,1.259 -21.2418,-7.1256 -24.426,-2.193 -38.4328,6.0872 -23.9522,-15.2219 -45.2034,-7.7605 -53.7373,6.0638 -33.5013,-5.9847 -38.6091,17.7784 -36.855,26.6208 -29.1995,9.1739 -37.0368,30.57 -14.9511,48.1959 -6.5162,22.1038 3.8752,47.6018 48.0299,57.5536 10.8646,17.1401 46.9856,29.598 71.4832,15.1161 17.6648,13.1945 45.3086,12.785 56.4426,2.0143 8.9695,8.3379 19.9963,3.7994 26.0641,-0.4385 15.8425,8.2558 38.1458,11.0165 54.9689,1.0714 10.4887,7.8343 24.4943,10.8714 36.4743,9.7925 z"
       id="path4043-4-9-1"
       inkscape:connector-curvature="0"
       sodipodi:nodetypes="ccccccccccccccccccccccc" />
    <flowRoot
       xml:space="preserve"
       id="flowRoot2987-4-9-3-5-9-8-3-5-4-0-5-5-7-1-9"
       style="font-style:normal;font-variant:normal;font-weight:normal;font-stretch:normal;line-height:0.01%;font-family:Lavi;-inkscape-font-specification:Lavi;text-align:center;letter-spacing:0px;word-spacing:0px;text-anchor:middle;fill:#000000;fill-opacity:1;stroke:none"
       transform="translate(1279.8506,2184.3034)"><flowRegion
         id="flowRegion2989-5-4-5-8-9-5-4-2-2-5-0-8-9-8-8"><rect
           id="rect2991-7-9-6-5-7-5-4-9-5-4-3-2-2-3-4"
           width="493.73337"
           height="314.38708"
           x="120.55251"
           y="265.53046"
           style="font-style:normal;font-variant:normal;font-weight:normal;font-stretch:normal;font-family:Lavi;-inkscape-font-specification:Lavi;text-align:center;text-anchor:middle" /></flowRegion><flowPara
         style="font-size:45px;line-height:125%;text-align:center;text-anchor:middle"
         id="flowPara3729">i zukte lo se bapli</flowPara><flowPara
         style="font-size:45px;line-height:125%;text-align:center;text-anchor:middle"
         id="flowPara3731">be lo dimna be le nei</flowPara></flowRoot>    <path
       style="color:#000000;display:inline;overflow:visible;visibility:visible;fill:#ffffff;fill-opacity:1;fill-rule:nonzero;stroke:none;stroke-width:1px;marker:none;enable-background:accumulate"
       d="m 1199.2151,2323.7893 c 2.225,-9.385 13.0044,-12.9003 20.604,-6.006 5.7937,-4.4838 15.1847,0.9709 10.4045,11.3728 7.9371,3.6245 10.2853,20.5369 -3.8877,20.7106 -3.8301,8.4751 -19.496,8.8047 -25.723,-3.4794 -10.5094,4.3941 -19.2873,-20.2128 -1.3978,-22.598 z"
       id="path4051-1"
       inkscape:connector-curvature="0"
       sodipodi:nodetypes="cccccc" />
    <path
       style="color:#000000;display:inline;overflow:visible;visibility:visible;fill:#ffffff;fill-opacity:1;fill-rule:nonzero;stroke:none;stroke-width:1px;marker:none;enable-background:accumulate"
       d="m 1261.6184,2282.2669 c 3.7043,-1.6524 6.641,0 8.8742,2.5696 6.3848,-5.2404 23.2295,7.2113 -1.4295,19.7477 -9.1804,4.5419 -17.6092,-6.4102 -10.6909,-12.9246 -2.4109,-2.7727 -0.4581,-7.7403 3.2462,-9.3927 z"
       id="path4059-6"
       inkscape:connector-curvature="0"
       sodipodi:nodetypes="zcccz" />
    <path
       style="color:#000000;display:inline;overflow:visible;visibility:visible;fill:#ffffff;fill-opacity:1;fill-rule:nonzero;stroke:none;stroke-width:1px;marker:none;enable-background:accumulate"
       d="m 1765.5082,2376.4339 c 14.1067,14.7269 5.3775,33.1901 -19.7909,27.1407 -14.6783,6.3004 -38.9492,-22.0463 -11.6312,-27.7892 -1.0944,-13.4466 34.9155,-16.36 31.4221,0.6485 z"
       id="path4051-1-3"
       inkscape:connector-curvature="0"
       sodipodi:nodetypes="cccc" />
    <path
       style="color:#000000;display:inline;overflow:visible;visibility:visible;fill:#ffffff;fill-opacity:1;fill-rule:nonzero;stroke:none;stroke-width:1px;marker:none;enable-background:accumulate"
       d="m 1734.4609,2345.1465 c -3.6004,3.1824 -7.7715,3.0113 -11.5262,1.6893 -2.5115,3.1494 -25.5738,-4.2698 -7.1025,-18.6006 8.7242,-8.2935 23.4543,-2.1601 18.2536,6.9001 4.0532,1.4271 3.9754,6.829 0.3751,10.0112 z"
       id="path4059-6-7"
       inkscape:connector-curvature="0"
       sodipodi:nodetypes="zcccz" />
  </g>
</svg>
