<?xml version="1.0" encoding="UTF-8" standalone="no"?>
<!-- Created with Inkscape (http://www.inkscape.org/) -->

<svg
   xmlns:dc="http://purl.org/dc/elements/1.1/"
   xmlns:cc="http://creativecommons.org/ns#"
   xmlns:rdf="http://www.w3.org/1999/02/22-rdf-syntax-ns#"
   xmlns:svg="http://www.w3.org/2000/svg"
   xmlns="http://www.w3.org/2000/svg"
   xmlns:xlink="http://www.w3.org/1999/xlink"
   xmlns:sodipodi="http://sodipodi.sourceforge.net/DTD/sodipodi-0.dtd"
   xmlns:inkscape="http://www.inkscape.org/namespaces/inkscape"
   id="svg2"
   version="1.1"
   inkscape:version="0.92.3 (2405546, 2018-03-11)"
   width="2481"
   height="3503"
   sodipodi:docname="E21P04.svg.2019_11_27_16_49_14.0.svg">
  <sodipodi:namedview
     pagecolor="#ffffff"
     bordercolor="#666666"
     inkscape:pageopacity="0"
     inkscape:pageshadow="2"
     inkscape:window-width="1813"
     inkscape:window-height="955"
     id="namedview70"
     showgrid="false"
     inkscape:zoom="0.4"
     inkscape:cx="992.27441"
     inkscape:cy="918.6204"
     inkscape:current-layer="layer1"
     inkscape:window-x="0"
     inkscape:window-y="0"
     inkscape:window-maximized="0" />
  <metadata
     id="metadata8">
    <rdf:RDF>
      <cc:Work
         rdf:about="">
        <dc:format>image/svg+xml</dc:format>
        <dc:type
           rdf:resource="http://purl.org/dc/dcmitype/StillImage" />
        <dc:title />
      </cc:Work>
    </rdf:RDF>
  </metadata>
  <defs
     id="defs6">
    <filter
       style="color-interpolation-filters:sRGB"
       id="filter4375-4-1-1-1-9"
       inkscape:label="deevad outline effect">
      <feFlood
         id="feFlood4377-7-9-0-8-1"
         flood-opacity="1"
         flood-color="rgb(0,0,0)"
         result="flood" />
      <feComposite
         id="feComposite4379-3-8-8-2-77"
         in2="SourceGraphic"
         in="flood"
         operator="in"
         result="composite1" />
      <feMorphology
         id="feMorphology4393-1-0-49-8-9"
         operator="dilate"
         radius="4"
         result="result3" />
      <feComposite
         id="feComposite4385-9-5-7-0-8"
         in2="result3"
         in="SourceGraphic"
         operator="over"
         result="composite2" />
    </filter>
    <filter
       style="color-interpolation-filters:sRGB"
       id="filter4375-4-1-1-1-9-6"
       inkscape:label="deevad outline effect">
      <feFlood
         id="feFlood4377-7-9-0-8-1-0"
         flood-opacity="1"
         flood-color="rgb(0,0,0)"
         result="flood" />
      <feComposite
         id="feComposite4379-3-8-8-2-77-6"
         in2="SourceGraphic"
         in="flood"
         operator="in"
         result="composite1" />
      <feMorphology
         id="feMorphology4393-1-0-49-8-9-2"
         operator="dilate"
         radius="4"
         result="result3" />
      <feComposite
         id="feComposite4385-9-5-7-0-8-6"
         in2="result3"
         in="SourceGraphic"
         operator="over"
         result="composite2" />
    </filter>
    <filter
       style="color-interpolation-filters:sRGB"
       id="filter4375-4-1-1-1-9-6-7"
       inkscape:label="deevad outline effect">
      <feFlood
         id="feFlood4377-7-9-0-8-1-0-9"
         flood-opacity="1"
         flood-color="rgb(0,0,0)"
         result="flood" />
      <feComposite
         id="feComposite4379-3-8-8-2-77-6-2"
         in2="SourceGraphic"
         in="flood"
         operator="in"
         result="composite1" />
      <feMorphology
         id="feMorphology4393-1-0-49-8-9-2-0"
         operator="dilate"
         radius="4"
         result="result3" />
      <feComposite
         id="feComposite4385-9-5-7-0-8-6-2"
         in2="result3"
         in="SourceGraphic"
         operator="over"
         result="composite2" />
    </filter>
    <filter
       style="color-interpolation-filters:sRGB"
       id="filter4375-4-1-1-1-9-6-7-5"
       inkscape:label="deevad outline effect">
      <feFlood
         id="feFlood4377-7-9-0-8-1-0-9-9"
         flood-opacity="1"
         flood-color="rgb(0,0,0)"
         result="flood" />
      <feComposite
         id="feComposite4379-3-8-8-2-77-6-2-2"
         in2="SourceGraphic"
         in="flood"
         operator="in"
         result="composite1" />
      <feMorphology
         id="feMorphology4393-1-0-49-8-9-2-0-2"
         operator="dilate"
         radius="4"
         result="result3" />
      <feComposite
         id="feComposite4385-9-5-7-0-8-6-2-8"
         in2="result3"
         in="SourceGraphic"
         operator="over"
         result="composite2" />
    </filter>
    <filter
       style="color-interpolation-filters:sRGB"
       id="filter4375-4-1-1-1-9-6-9-2-3"
       inkscape:label="deevad outline effect">
      <feFlood
         id="feFlood4377-7-9-0-8-1-0-2-2-6"
         flood-opacity="1"
         flood-color="rgb(0,0,0)"
         result="flood" />
      <feComposite
         id="feComposite4379-3-8-8-2-77-6-0-8-7"
         in2="SourceGraphic"
         in="flood"
         operator="in"
         result="composite1" />
      <feMorphology
         id="feMorphology4393-1-0-49-8-9-2-2-9-5"
         operator="dilate"
         radius="4"
         result="result3" />
      <feComposite
         id="feComposite4385-9-5-7-0-8-6-3-7-3"
         in2="result3"
         in="SourceGraphic"
         operator="over"
         result="composite2" />
    </filter>
    <filter
       style="color-interpolation-filters:sRGB"
       id="filter4375-4-1-1-1-9-6-9-2-2"
       inkscape:label="deevad outline effect">
      <feFlood
         id="feFlood4377-7-9-0-8-1-0-2-2-0"
         flood-opacity="1"
         flood-color="rgb(0,0,0)"
         result="flood" />
      <feComposite
         id="feComposite4379-3-8-8-2-77-6-0-8-6"
         in2="SourceGraphic"
         in="flood"
         operator="in"
         result="composite1" />
      <feMorphology
         id="feMorphology4393-1-0-49-8-9-2-2-9-1"
         operator="dilate"
         radius="4"
         result="result3" />
      <feComposite
         id="feComposite4385-9-5-7-0-8-6-3-7-5"
         in2="result3"
         in="SourceGraphic"
         operator="over"
         result="composite2" />
    </filter>
    <filter
       style="color-interpolation-filters:sRGB"
       id="filter4375-4-1-1-1-9-6-9-2"
       inkscape:label="deevad outline effect">
      <feFlood
         id="feFlood4377-7-9-0-8-1-0-2-2"
         flood-opacity="1"
         flood-color="rgb(0,0,0)"
         result="flood" />
      <feComposite
         id="feComposite4379-3-8-8-2-77-6-0-8"
         in2="SourceGraphic"
         in="flood"
         operator="in"
         result="composite1" />
      <feMorphology
         id="feMorphology4393-1-0-49-8-9-2-2-9"
         operator="dilate"
         radius="4"
         result="result3" />
      <feComposite
         id="feComposite4385-9-5-7-0-8-6-3-7"
         in2="result3"
         in="SourceGraphic"
         operator="over"
         result="composite2" />
    </filter>
    <filter
       style="color-interpolation-filters:sRGB"
       id="filter4375-4-1-1-1-9-6-9"
       inkscape:label="deevad outline effect">
      <feFlood
         id="feFlood4377-7-9-0-8-1-0-2"
         flood-opacity="1"
         flood-color="rgb(0,0,0)"
         result="flood" />
      <feComposite
         id="feComposite4379-3-8-8-2-77-6-0"
         in2="SourceGraphic"
         in="flood"
         operator="in"
         result="composite1" />
      <feMorphology
         id="feMorphology4393-1-0-49-8-9-2-2"
         operator="dilate"
         radius="4"
         result="result3" />
      <feComposite
         id="feComposite4385-9-5-7-0-8-6-3"
         in2="result3"
         in="SourceGraphic"
         operator="over"
         result="composite2" />
    </filter>
    <filter
       style="color-interpolation-filters:sRGB"
       id="filter4375-4-1-1-1-9-3"
       inkscape:label="deevad outline effect">
      <feFlood
         id="feFlood4377-7-9-0-8-1-6"
         flood-opacity="1"
         flood-color="rgb(0,0,0)"
         result="flood" />
      <feComposite
         id="feComposite4379-3-8-8-2-77-1"
         in2="SourceGraphic"
         in="flood"
         operator="in"
         result="composite1" />
      <feMorphology
         id="feMorphology4393-1-0-49-8-9-29"
         operator="dilate"
         radius="4"
         result="result3" />
      <feComposite
         id="feComposite4385-9-5-7-0-8-3"
         in2="result3"
         in="SourceGraphic"
         operator="over"
         result="composite2" />
    </filter>
    <filter
       style="color-interpolation-filters:sRGB"
       id="filter4375-4-1-1-1-9-6-9-2-2-4"
       inkscape:label="deevad outline effect">
      <feFlood
         id="feFlood4377-7-9-0-8-1-0-2-2-0-7"
         flood-opacity="1"
         flood-color="rgb(0,0,0)"
         result="flood" />
      <feComposite
         id="feComposite4379-3-8-8-2-77-6-0-8-6-8"
         in2="SourceGraphic"
         in="flood"
         operator="in"
         result="composite1" />
      <feMorphology
         id="feMorphology4393-1-0-49-8-9-2-2-9-1-4"
         operator="dilate"
         radius="4"
         result="result3" />
      <feComposite
         id="feComposite4385-9-5-7-0-8-6-3-7-5-5"
         in2="result3"
         in="SourceGraphic"
         operator="over"
         result="composite2" />
    </filter>
    <filter
       style="color-interpolation-filters:sRGB"
       id="filter4375-4-1-1-1-9-6-9-2-1"
       inkscape:label="deevad outline effect">
      <feFlood
         id="feFlood4377-7-9-0-8-1-0-2-2-06"
         flood-opacity="1"
         flood-color="rgb(0,0,0)"
         result="flood" />
      <feComposite
         id="feComposite4379-3-8-8-2-77-6-0-8-3"
         in2="SourceGraphic"
         in="flood"
         operator="in"
         result="composite1" />
      <feMorphology
         id="feMorphology4393-1-0-49-8-9-2-2-9-2"
         operator="dilate"
         radius="4"
         result="result3" />
      <feComposite
         id="feComposite4385-9-5-7-0-8-6-3-7-0"
         in2="result3"
         in="SourceGraphic"
         operator="over"
         result="composite2" />
    </filter>
  </defs>
  <sodipodi:namedview
     pagecolor="#ffffff"
     bordercolor="#666666"
     borderopacity="1"
     objecttolerance="10"
     gridtolerance="10"
     guidetolerance="10"
     inkscape:pageopacity="0"
     inkscape:pageshadow="2"
     inkscape:window-width="1920"
     inkscape:window-height="1025"
     id="namedview4"
     showgrid="false"
     inkscape:zoom="0.35198686"
     inkscape:cx="1763.4817"
     inkscape:cy="1820.9906"
     inkscape:window-x="0"
     inkscape:window-y="26"
     inkscape:window-maximized="1"
     inkscape:current-layer="layer1" />
  <g
     inkscape:groupmode="layer"
     id="layer2"
     inkscape:label="artwork"
     sodipodi:insensitive="true">
    <image
       xlink:href="../gfx_Pepper-and-Carrot_by-David-Revoy_E21P04.png"
       y="0"
       x="0"
       id="image10"
       height="3503"
       width="2481" />
  </g>
  <g
     inkscape:groupmode="layer"
     id="layer4"
     inkscape:label="transla-notes"
     style="display:inline">
    <path
       style="color:#000000;clip-rule:nonzero;display:inline;overflow:visible;visibility:visible;opacity:0.481;isolation:auto;mix-blend-mode:normal;color-interpolation:sRGB;color-interpolation-filters:linearRGB;solid-color:#000000;solid-opacity:1;fill:#ffe680;fill-opacity:1;fill-rule:nonzero;stroke:#565656;stroke-width:1.20000005;stroke-linecap:butt;stroke-linejoin:miter;stroke-miterlimit:4;stroke-dasharray:none;stroke-dashoffset:0;stroke-opacity:1;marker:none;color-rendering:auto;image-rendering:auto;shape-rendering:auto;text-rendering:auto;enable-background:accumulate"
       d="m -462.00591,562.85601 0,189.0351 203.83,0 0,-90.9805 10,0 0,15.6308 30.9825,-26.9824 -30.9825,-26.9804 0,16.6171 -10,0 0,-76.3397 -203.83,0 z"
       id="rect4191-6"
       inkscape:connector-curvature="0" />
    <flowRoot
       xml:space="preserve"
       id="flowRoot4212-7"
       style="font-style:normal;font-variant:normal;font-weight:normal;font-stretch:normal;line-height:0.01%;font-family:Lavi;-inkscape-font-specification:'Lavi, Normal';text-align:center;letter-spacing:0px;word-spacing:0px;writing-mode:lr-tb;text-anchor:middle;display:inline;opacity:0.481;fill:#000000;fill-opacity:1;stroke:none;stroke-width:1px;stroke-linecap:butt;stroke-linejoin:miter;stroke-opacity:1"
       transform="translate(-232.31551,-445.38759)"><flowRegion
         id="flowRegion4214-5"><rect
           id="rect4216-3"
           width="291.95547"
           height="247.52747"
           x="-275.14545"
           y="1061.6674" /></flowRegion><flowPara
         id="flowPara4218-5"
         style="font-size:25.3241539px;line-height:1.25">Edit this one,</flowPara><flowPara
         id="flowPara4562"
         style="font-size:25.3241539px;line-height:1.25">all other one</flowPara><flowPara
         id="flowPara4564"
         style="font-size:25.3241539px;line-height:1.25">are linked</flowPara></flowRoot>    <text
       xml:space="preserve"
       style="font-style:normal;font-variant:normal;font-weight:normal;font-stretch:normal;line-height:0%;font-family:Lavi;-inkscape-font-specification:Lavi;letter-spacing:0px;word-spacing:0px;fill:#000000;fill-opacity:1;stroke:#000000;stroke-width:0.99236238;stroke-miterlimit:4;stroke-dasharray:none;stroke-opacity:1;filter:url(#filter4375-4-1-1-1-9-6-9-2-1)"
       x="787.65729"
       y="1584.5073"
       id="text4580-1-7-3-6"
       transform="matrix(0.96380061,-0.56217228,-0.1779318,1.4896521,-950.33157,-912.2396)"><tspan
         sodipodi:role="line"
         id="tspan4582-8-5-6-1"
         x="787.65729"
         y="1584.5073"
         style="font-size:70px;line-height:1.25;fill:#ffffff">Clapan</tspan></text>
  </g>
  <g
     inkscape:groupmode="layer"
     id="layer3"
     inkscape:label="speechbubbles"
     style="display:inline">
    <path
       style="color:#000000;display:inline;overflow:visible;visibility:visible;fill:#fff6d5;fill-opacity:1;fill-rule:nonzero;stroke:none;stroke-width:1px;marker:none;enable-background:accumulate"
       d="m 814.47984,2076.863 c 25.50869,1.737 31.18253,8.7417 40.02393,13.7645 -3.43934,2.0064 -8.9889,9.9212 -8.9889,9.9212 0,0 32.58215,10.7061 36.22844,16.7304 3.6465,6.0243 -15.3876,18.5407 -15.3876,18.5407 0,0 -32.24975,-22.2963 -46.26108,-27.2208 2.45492,-3.7397 10.19678,-11.1438 15.66548,-16.0353 0,0 -4.48105,-14.0884 -21.28027,-15.7007 z"
       id="path4456-3-7-5"
       inkscape:connector-curvature="0"
       sodipodi:nodetypes="cccscccc" />
    <path
       style="color:#000000;display:inline;overflow:visible;visibility:visible;fill:#fff6d5;fill-opacity:1;fill-rule:nonzero;stroke:none;stroke-width:1px;marker:none;enable-background:accumulate"
       d="m 757.3144,1742.177 c -21.0588,-42.0512 -43.598,-49.8896 -59.3716,-56.8038 -3.07396,2.9972 -9.9693,7.3028 -9.9693,7.3028 0,0 -29.9225,-15.6811 -43.10282,-18.946 -13.1803,-3.265 -16.1629,8.7756 -16.1629,8.7756 0,0 57.47284,31.5265 67.97578,40.8937 7.94803,-8.5554 13.39414,-11.7166 14.44681,-15.9662 10.06068,1.7404 38.18304,19.9826 46.18403,34.7439 z"
       id="path4456"
       inkscape:connector-curvature="0" />
    <path
       style="color:#000000;display:inline;overflow:visible;visibility:visible;fill:#fff6d5;fill-opacity:1;fill-rule:nonzero;stroke:none;stroke-width:1px;marker:none;enable-background:accumulate"
       d="m 930.88453,126.5333 c -30.95877,6.73167 -61.11558,18.86595 -93.00605,19.32047 l 25.40763,15.34606 c -10.98606,6.89774 -24.70452,5.6109 -37.49528,7.10322 l 14.36808,12.34245 c -26.12482,15.91471 -54.11624,17.40357 -81.20539,25.86495 l 26.53,19.3383 c 26.33144,-12.20851 50.34404,-29.13998 79.28368,-36.036 l -12.96782,-13.61426 c 9.62284,-3.96451 19.42327,-7.49852 30.01724,-9.10951 L 864.20985,151.5628 Z"
       id="path4032"
       inkscape:connector-curvature="0"
       sodipodi:nodetypes="cccccccccccc" />
    <rect
       rx="82.389626"
       style="color:#000000;display:inline;overflow:visible;visibility:visible;fill:#fff6d5;fill-opacity:1;fill-rule:nonzero;stroke:none;stroke-width:3.05495071;marker:none;enable-background:accumulate"
       id="rect4632-8"
       width="696.08972"
       height="285.22031"
       x="127.50768"
       y="126.61605"
       ry="71.770355" />
    <path
       style="color:#000000;display:inline;overflow:visible;visibility:visible;fill:#fff6d5;fill-opacity:1;fill-rule:nonzero;stroke:none;stroke-width:0.91094184px;marker:none;enable-background:accumulate"
       d="m 341.12209,352.18777 c -6.84575,19.36596 -45.45661,20.98986 -59.67036,17.05346 28.65162,21.66445 27.65274,35.1249 -11.248,37.21498 65.23719,39.0451 11.9262,33.13666 1.41091,43.03736 51.22339,13.45582 28.30553,30.20185 19.18611,46.87223 58.87605,0.57265 39.6086,27.29482 42.09016,48.5773 4.99122,-9.98666 28.70341,-40.39056 30.13017,-6.5379 38.94314,-32.29725 85.84917,-53.15979 89.57366,3.36069 15.69079,-28.43397 31.33461,-40.45127 30.1303,-6.5379 38.8771,-44.10844 85.45993,-38.3232 123.93092,-5.67309 -19.886,-24.52597 -4.66825,-43.8573 25.19367,-39.0644 -4.18697,-13.19553 5.89567,-22.26613 28.66566,-27.65263 -30.25763,-7.97096 -35.83403,-16.19294 20.34772,-25.04103 -42.75111,-0.85587 -82.61672,-2.60939 -32.46047,-32.78389 -15.73539,-0.73015 -53.06927,24.44839 -35.6628,-49.23701 -27.05792,23.58925 -55.92627,36.60877 -92.1299,-12.8048 -17.13334,24.68606 -46.85076,36.90168 -59.77938,6.06688 -4.64672,13.14547 -23.91489,18.08924 -40.27193,18.68873 -6.3253,-5.22164 -12.84923,-12.31378 -19.65719,-21.60586 -11.12691,19.51072 -27.7717,32.68742 -59.77925,6.06688 z"
       id="path3549-3-7"
       inkscape:connector-curvature="0"
       sodipodi:nodetypes="cccccccccccccccccccc" />
    <path
       style="color:#000000;display:inline;overflow:visible;visibility:visible;fill:#fff6d5;fill-opacity:1;fill-rule:nonzero;stroke:none;stroke-width:1px;marker:none;enable-background:accumulate"
       d="m 1570.3297,126.01506 c 31.4146,4.10878 62.4837,13.66842 94.2998,11.444 l -24.0297,17.42495 c 11.5263,5.95106 25.0883,3.51704 37.9592,3.93024 l -13.281,13.50516 c 27.3686,13.66521 55.3862,12.79882 83.09,18.95606 l -24.8127,21.49736 c -27.2635,-9.95478 -52.6128,-24.81052 -82.0291,-29.25256 l 11.779,-14.6549 c -9.9218,-3.14265 -19.9843,-5.84138 -30.676,-6.55727 l 16.2411,-16.94954 z"
       id="path4032-3"
       inkscape:connector-curvature="0"
       sodipodi:nodetypes="cccccccccccc" />
    <rect
       style="color:#000000;clip-rule:nonzero;display:inline;overflow:visible;visibility:visible;opacity:1;isolation:auto;mix-blend-mode:normal;color-interpolation:sRGB;color-interpolation-filters:linearRGB;solid-color:#000000;solid-opacity:1;fill:#fff6d5;fill-opacity:1;fill-rule:nonzero;stroke:none;stroke-width:3.00631452;stroke-linecap:butt;stroke-linejoin:miter;stroke-miterlimit:4;stroke-dasharray:none;stroke-dashoffset:0;stroke-opacity:1;marker:none;color-rendering:auto;image-rendering:auto;shape-rendering:auto;text-rendering:auto;enable-background:accumulate"
       id="rect4632-8-6"
       width="670.97729"
       height="303.88354"
       x="1681.7418"
       y="131.15083"
       ry="57.867592"
       rx="61.921051" />
    <path
       style="color:#000000;display:inline;overflow:visible;visibility:visible;fill:#fff6d5;fill-opacity:1;fill-rule:nonzero;stroke:none;stroke-width:0.91825897px;marker:none;enable-background:accumulate"
       d="m 1877.519,377.61539 c -7.8437,18.40711 -52.0842,19.95061 -68.3703,16.20911 32.8291,20.5918 31.6845,33.3858 -12.888,35.3724 74.749,37.1119 13.665,31.496 1.6167,40.9065 58.6919,12.7896 32.4326,28.7065 21.9835,44.5515 67.4602,0.5443 45.3835,25.9434 48.2269,46.17215 5.719,-9.4922 32.8886,-38.39075 34.5232,-6.2142 44.6212,-30.69815 98.3662,-50.52775 102.6337,3.1943 17.9786,-27.02615 35.9033,-38.44845 34.5234,-6.2142 44.5454,-41.92455 97.9201,-36.42575 142.0003,-5.3922 -22.7854,-23.31165 -5.349,-41.68585 28.867,-37.13025 -4.7975,-12.5422 6.7552,-21.1637 32.8451,-26.2835 -34.6692,-7.5763 -41.0587,-15.3912 23.3145,-23.8012 -48.9844,-0.8135 -94.6624,-2.4802 -37.1933,-31.1607 -18.0296,-0.694 -60.8068,23.2379 -40.8625,-46.7992 -31.0029,22.4213 -64.0804,34.7962 -105.5626,-12.17081 -19.6314,23.46381 -53.6818,35.07461 -68.4954,5.7665 -5.3243,12.49461 -27.4018,17.19361 -46.1437,17.76341 -7.2475,-4.9631 -14.7226,-11.7041 -22.5232,-20.53611 -12.7492,18.54471 -31.8209,31.06901 -68.4953,5.7665 z"
       id="path3549-3-7-7"
       inkscape:connector-curvature="0"
       sodipodi:nodetypes="cccccccccccccccccccc" />
    <rect
       style="color:#000000;clip-rule:nonzero;display:inline;overflow:visible;visibility:visible;opacity:1;isolation:auto;mix-blend-mode:normal;color-interpolation:sRGB;color-interpolation-filters:linearRGB;solid-color:#000000;solid-opacity:1;fill:#fff6d5;fill-opacity:1;fill-rule:nonzero;stroke:none;stroke-width:2.76229906;stroke-linecap:butt;stroke-linejoin:miter;stroke-miterlimit:4;stroke-dasharray:none;stroke-dashoffset:0;stroke-opacity:1;marker:none;color-rendering:auto;image-rendering:auto;shape-rendering:auto;text-rendering:auto;enable-background:accumulate"
       id="rect4632-8-6-1"
       width="560.97729"
       height="306.86139"
       x="119.13635"
       y="1593.1943"
       ry="58.434654"
       rx="51.769714" />
    <rect
       style="color:#000000;clip-rule:nonzero;display:inline;overflow:visible;visibility:visible;opacity:1;isolation:auto;mix-blend-mode:normal;color-interpolation:sRGB;color-interpolation-filters:linearRGB;solid-color:#000000;solid-opacity:1;fill:#fff6d5;fill-opacity:1;fill-rule:nonzero;stroke:none;stroke-width:3.02203846;stroke-linecap:butt;stroke-linejoin:miter;stroke-miterlimit:4;stroke-dasharray:none;stroke-dashoffset:0;stroke-opacity:1;marker:none;color-rendering:auto;image-rendering:auto;shape-rendering:auto;text-rendering:auto;enable-background:accumulate"
       id="rect4632-8-6-6"
       width="684.80688"
       height="246.86139"
       x="834.62451"
       y="2094.2979"
       ry="62.536003"
       rx="63.197304" />
    <path
       style="color:#000000;display:inline;overflow:visible;visibility:visible;fill:#fff6d5;fill-opacity:1;fill-rule:nonzero;stroke:none;stroke-width:0.94423294px;marker:none;enable-background:accumulate"
       d="m 1041.8037,2295.69 c -7.8819,18.4071 -52.33779,19.9506 -68.70321,16.2091 32.98891,20.5918 31.83871,33.3858 -12.95069,35.3724 75.1128,37.1119 13.73155,31.496 1.62453,40.9065 58.97757,12.7896 32.59042,28.7065 22.09047,44.5515 67.7885,0.5443 45.6044,25.9434 48.4617,46.1721 5.7469,-9.4922 33.0485,-38.3907 34.6911,-6.2142 44.8385,-30.6981 98.8449,-50.5277 103.1332,3.1943 18.0663,-27.0261 36.078,-38.4484 34.6914,-6.2142 44.7624,-41.9245 98.3968,-36.4257 142.6916,-5.3922 -22.8964,-23.3116 -5.375,-41.6858 29.0074,-37.1302 -4.8208,-12.5422 6.7882,-21.1637 33.005,-26.2835 -34.838,-7.5763 -41.2585,-15.3912 23.4279,-23.8012 -49.2227,-0.8135 -95.1231,-2.4802 -37.3743,-31.1607 -18.1174,-0.694 -61.1029,23.2379 -41.0613,-46.7992 -31.1539,22.4213 -64.3923,34.7962 -106.0765,-12.1708 -19.7268,23.4638 -53.943,35.0746 -68.8286,5.7665 -5.3501,12.4946 -27.5351,17.1936 -46.3683,17.7634 -7.2829,-4.9631 -14.7942,-11.7041 -22.6328,-20.5361 -12.8113,18.5447 -31.9758,31.069 -68.8286,5.7665 z"
       id="path3549-3-7-7-9"
       inkscape:connector-curvature="0"
       sodipodi:nodetypes="cccccccccccccccccccc" />
    <path
       style="color:#000000;display:inline;overflow:visible;visibility:visible;fill:#ffffff;fill-opacity:1;fill-rule:nonzero;stroke:none;stroke-width:1.25220346px;marker:none;enable-background:accumulate"
       d="m 1931.7261,2262.7197 c -4.0877,-41.8791 8.6574,-38.2183 14.4978,-45.2246 -8.3687,-34.9676 3.2754,-75.5844 55.5121,-92.0591 12.4422,-27.3618 55.054,-47.6866 84.5953,-25.0908 20.6405,-21.208 53.5309,-20.9877 67.0743,-4.0723 14.5343,-18.62 34.5832,2.3352 36.409,6.6587 18.1864,-9.9733 43.6765,-2.6517 53.7007,7.8256 24.1596,-14.7699 75.6718,8.7093 74.4152,39.8267 27.9813,22.6906 29.5781,49.2005 21.1501,65.2326 21.4758,18.6511 32.9044,104.4289 -27.6642,112.5406 -16.856,32.0642 -62.9864,45.9509 -84.4621,27.2997 -29.2385,8.4269 -47.5578,16.1905 -54.8616,-1.1037 -14.534,18.6202 -52.1039,18.684 -41.4876,-13.0018 -18.0787,20.9236 -39.6983,15.5446 -56.5883,2.6252 -28.0621,24.5221 -64.4208,15.3203 -64.0829,-8.7865 -39.6772,10.0149 -46.4187,-27.607 -44.5796,-41.663 -6.3955,-2.1475 -21.7095,-3.7527 -33.6282,-31.0073 z"
       id="path4043"
       inkscape:connector-curvature="0" />
    <path
       style="color:#000000;display:inline;overflow:visible;visibility:visible;fill:#ffffff;fill-opacity:1;fill-rule:nonzero;stroke:none;stroke-width:1px;marker:none;enable-background:accumulate"
       d="m 2117.8728,2399.3531 c 17.15,-17.4058 44.9166,-16.6147 42.4665,7.1205 12.25,10.2853 6.5333,39.5587 -41.6499,22.1529 -18.7831,-8.703 -25.3164,-26.1088 -0.8166,-29.2734 z"
       id="path4051"
       inkscape:connector-curvature="0" />
    <path
       style="color:#000000;display:inline;overflow:visible;visibility:visible;fill:#ffffff;fill-opacity:1;fill-rule:nonzero;stroke:none;stroke-width:1px;marker:none;enable-background:accumulate"
       d="m 2153.1219,2449.2075 c 4.5827,-1.0212 8.3975,1.1598 11.3791,4.1414 7.7521,-4.1742 29.8159,11.3301 -0.5963,19.6785 -11.33,2.9816 -22.6601,-9.5411 -14.3116,-14.9079 -3.2186,-3.2186 -1.0539,-7.8909 3.5288,-8.912 z"
       id="path4059"
       inkscape:connector-curvature="0"
       sodipodi:nodetypes="zcccz" />
  </g>
  <g
     inkscape:groupmode="layer"
     id="layer1"
     inkscape:label="txt"
     style="display:inline">
    <g
       id="g3474"
       transform="translate(25.604375,12.296719)">
      <text
         id="text4246-2-3-1-3-9-3-7-6"
         y="188.64041"
         x="439.40439"
         style="font-style:normal;font-variant:normal;font-weight:normal;font-stretch:normal;line-height:0%;font-family:Lavi;-inkscape-font-specification:Lavi;text-align:center;letter-spacing:0px;word-spacing:0px;text-anchor:middle;fill:#000000;fill-opacity:1;stroke:none"
         xml:space="preserve"><tspan
           y="188.64041"
           x="446.43564"
           style="font-size:45px;line-height:1.25"
           sodipodi:role="line"
           id="tspan4165">Tha i deas-làmhach le </tspan><tspan
           y="244.89041"
           x="446.43564"
           style="font-size:45px;line-height:1.25"
           sodipodi:role="line"
           id="tspan155">draoidheachd ath-bheòthachail </tspan><tspan
           y="301.14041"
           x="446.43564"
           style="font-size:45px;line-height:1.25"
           sodipodi:role="line"
           id="tspan153">na <tspan
   style="font-style:italic;font-variant:normal;font-weight:normal;font-stretch:normal;font-family:Lavi;-inkscape-font-specification:'Lavi Italic'"
   id="tspan258">Sòmbaidheachd</tspan> ’s tha sinn </tspan><tspan
           y="357.39041"
           x="439.40439"
           style="font-size:45px;line-height:1.25"
           sodipodi:role="line"
           id="tspan167">moiteil fàilte a chur air...</tspan></text>
    </g>
    <text
       xml:space="preserve"
       style="font-style:normal;font-variant:normal;font-weight:normal;font-stretch:normal;line-height:0%;font-family:Lavi;-inkscape-font-specification:Lavi;text-align:center;letter-spacing:0px;word-spacing:0px;text-anchor:middle;fill:#000000;fill-opacity:1;stroke:#000000;stroke-width:3.5321846;stroke-miterlimit:4;stroke-dasharray:none;stroke-opacity:1"
       x="553.6792"
       y="457.25345"
       id="text4246-2-3-1-3-9-3-7-9"
       transform="matrix(0.93835319,0,-0.12334078,1.0656968,0,0)"><tspan
         sodipodi:role="line"
         style="font-size:61.13397217px;line-height:1.25;stroke:#000000;stroke-width:3.5321846;stroke-miterlimit:4;stroke-dasharray:none;stroke-opacity:1"
         x="553.6792"
         y="457.25345"
         id="tspan4814-3">COSTAG!</tspan></text>
    <use
       x="0"
       y="0"
       xlink:href="#use4531"
       id="use4615"
       transform="translate(-829.209,-2079.655)"
       width="100%"
       height="100%" />
    <use
       x="0"
       y="0"
       xlink:href="#use4533"
       id="use4617"
       transform="matrix(0.79456111,0,0,0.79456111,-650.5093,-1402.1715)"
       width="100%"
       height="100%" />
    <use
       x="0"
       y="0"
       xlink:href="#use4537"
       id="use4619"
       transform="matrix(0.79814913,-0.08198379,0.08198379,0.79814913,-1058.9768,-1211.92)"
       width="100%"
       height="100%" />
    <use
       x="0"
       y="0"
       xlink:href="#use4541"
       id="use4621"
       transform="matrix(0.90154637,-0.0150643,0.01480904,0.88627,95.218457,-1443.95)"
       width="100%"
       height="100%" />
    <use
       x="0"
       y="0"
       xlink:href="#use4623"
       id="use4625"
       transform="translate(-120.04958,-0.403329)"
       width="100%"
       height="100%" />
    <use
       x="0"
       y="0"
       xlink:href="#use4543"
       id="use4623"
       transform="translate(191.30644,-1699.8492)"
       width="100%"
       height="100%" />
    <text
       xml:space="preserve"
       style="font-style:normal;font-variant:normal;font-weight:normal;font-stretch:normal;line-height:0%;font-family:Lavi;-inkscape-font-specification:Lavi;text-align:center;letter-spacing:0px;word-spacing:0px;text-anchor:middle;fill:#000000;fill-opacity:1;stroke:none"
       x="2014.6387"
       y="189.82233"
       id="text4246-2-3-1-3-9-3-7-6-5"><tspan
         sodipodi:role="line"
         style="font-size:45px;line-height:1.25"
         x="2021.6699"
         y="189.82233"
         id="tspan4201">Seo bana-bhuidseach na </tspan><tspan
         sodipodi:role="line"
         style="font-size:45px;line-height:1.25"
         x="2014.6387"
         y="246.07233"
         id="tspan178"><tspan
   style="-inkscape-font-specification:'Lavi Italic';font-family:Lavi;font-weight:normal;font-style:italic;font-stretch:normal;font-variant:normal"
   id="tspan260">Clann-fhlùrachd</tspan> a tha làn-</tspan><tspan
         sodipodi:role="line"
         style="font-size:45px;line-height:1.25"
         x="2021.6699"
         y="302.32233"
         id="tspan180">eòlach air rùintean-dìomhair </tspan><tspan
         sodipodi:role="line"
         style="font-size:45px;line-height:1.25"
         x="2021.6699"
         y="358.57233"
         id="tspan182">nan lusan ’s nam beathaichean! </tspan><tspan
         sodipodi:role="line"
         style="font-size:45px;line-height:1.25"
         x="2014.6387"
         y="414.82233"
         id="tspan184">Cuiribh fàilte air...</tspan></text>
    <text
       xml:space="preserve"
       style="font-style:normal;font-variant:normal;font-weight:normal;font-stretch:normal;line-height:0%;font-family:Lavi;-inkscape-font-specification:Lavi;text-align:center;letter-spacing:0px;word-spacing:0px;text-anchor:middle;fill:#000000;fill-opacity:1;stroke:#000000;stroke-width:3.5321846;stroke-miterlimit:4;stroke-dasharray:none;stroke-opacity:1"
       x="2208.1843"
       y="466.80646"
       id="text4246-2-3-1-3-9-3-7-9-5"
       transform="matrix(0.93835319,0,-0.12334078,1.0656968,0,0)"><tspan
         sodipodi:role="line"
         style="font-size:61.13397217px;line-height:1.25;stroke:#000000;stroke-width:3.5321846;stroke-miterlimit:4;stroke-dasharray:none;stroke-opacity:1"
         x="2208.1843"
         y="466.80646"
         id="tspan4814-3-3">BUIDHEAG</tspan></text>
    <use
       x="0"
       y="0"
       xlink:href="#use4617"
       id="use4633"
       transform="rotate(-5.7935996,1357.1675,-9949.8388)"
       width="100%"
       height="100%" />
    <use
       x="0"
       y="0"
       xlink:href="#use4615"
       id="use4635"
       transform="matrix(1.1838394,0,0,1.3004419,1240.6281,-150.25014)"
       width="100%"
       height="100%" />
    <use
       x="0"
       y="0"
       xlink:href="#use4617"
       id="use4637"
       transform="matrix(0.88647762,-0.08530562,0.08668772,0.90084017,1060.0331,372.02821)"
       width="100%"
       height="100%" />
    <use
       x="0"
       y="0"
       xlink:href="#use4623"
       id="use4627"
       transform="translate(931.28917,-151.73353)"
       width="100%"
       height="100%" />
    <use
       x="0"
       y="0"
       xlink:href="#use4621"
       id="use4631"
       transform="translate(1149.6643,56.855347)"
       width="100%"
       height="100%" />
    <use
       x="0"
       y="0"
       xlink:href="#use4625"
       id="use4629"
       transform="translate(1242.489,12.944936)"
       width="100%"
       height="100%" />
    <text
       xml:space="preserve"
       style="font-style:normal;font-variant:normal;font-weight:normal;font-stretch:normal;line-height:0%;font-family:Lavi;-inkscape-font-specification:Lavi;text-align:center;letter-spacing:0px;word-spacing:0px;text-anchor:middle;fill:#000000;fill-opacity:1;stroke:none"
       x="398.0332"
       y="1652.3436"
       id="text4246-2-3-1-3-9-3-7-6-5-2"><tspan
         sodipodi:role="line"
         style="font-size:45px;line-height:1.25"
         x="405.06445"
         y="1652.3436"
         id="tspan4197">Agus a-nis, taing do </tspan><tspan
         sodipodi:role="line"
         style="font-size:45px;line-height:1.25"
         x="405.06445"
         y="1708.5936"
         id="tspan217">chomasan teicneolach </tspan><tspan
         sodipodi:role="line"
         style="font-size:45px;line-height:1.25"
         x="405.06445"
         y="1764.8436"
         id="tspan219">Chomona, seo an t-aon </tspan><tspan
         sodipodi:role="line"
         style="font-size:45px;line-height:1.25"
         x="405.06445"
         y="1821.0936"
         id="tspan229">àite air an t-saoghal </tspan><tspan
         sodipodi:role="line"
         style="font-size:45px;line-height:1.25"
         x="398.0332"
         y="1877.3436"
         id="tspan221">far am faic sibh...</tspan></text>
    <text
       xml:space="preserve"
       style="font-style:normal;font-variant:normal;font-weight:normal;font-stretch:normal;line-height:0%;font-family:Lavi;-inkscape-font-specification:Lavi;letter-spacing:0px;word-spacing:0px;fill:#000000;fill-opacity:1;stroke:#000000;stroke-width:0.99236238;stroke-miterlimit:4;stroke-dasharray:none;stroke-opacity:1;filter:url(#filter4375-4-1-1-1-9)"
       x="787.65729"
       y="1584.5073"
       id="text4580"
       transform="matrix(0.77749876,-0.47144279,-0.14353773,1.2492358,81.042154,1568.506)"><tspan
         sodipodi:role="line"
         id="tspan4582"
         x="787.65729"
         y="1584.5073"
         style="font-size:70px;line-height:1.25;fill:#ffffff">Flop!</tspan></text>
    <text
       xml:space="preserve"
       style="font-style:normal;font-variant:normal;font-weight:normal;font-stretch:normal;line-height:0%;font-family:Lavi;-inkscape-font-specification:Lavi;text-align:center;letter-spacing:0px;word-spacing:0px;text-anchor:middle;fill:#000000;fill-opacity:1;stroke:none"
       x="1176.7861"
       y="2150.2944"
       id="text4246-2-3-1-3-9-3-7-6-5-4"><tspan
         sodipodi:role="line"
         style="font-size:45px;line-height:1.25"
         x="1183.8174"
         y="2150.2944"
         id="tspan4205">...bana-bhuidseach à </tspan><tspan
         sodipodi:role="line"
         style="font-size:45px;line-height:1.25"
         x="1183.8174"
         y="2206.5444"
         id="tspan242">doimhne na mara a tha ’na </tspan><tspan
         sodipodi:role="line"
         style="font-size:45px;line-height:1.25"
         x="1183.8174"
         y="2262.7944"
         id="tspan256">maighstir draoidheachd </tspan><tspan
         sodipodi:role="line"
         style="font-size:45px;line-height:1.25"
         x="1176.7861"
         y="2319.0444"
         id="tspan240">chumhachdach na h-<tspan
   style="font-style:italic;font-variant:normal;font-weight:normal;font-stretch:normal;font-family:Lavi;-inkscape-font-specification:'Lavi Italic'"
   id="tspan262">Uisgeachd</tspan>!</tspan><tspan
         sodipodi:role="line"
         style="font-size:45px;line-height:1.25"
         x="1183.8174"
         y="2375.2944"
         id="tspan4691"> </tspan></text>
    <text
       xml:space="preserve"
       style="font-style:normal;font-variant:normal;font-weight:normal;font-stretch:normal;line-height:0%;font-family:Lavi;-inkscape-font-specification:Lavi;text-align:center;letter-spacing:0px;word-spacing:0px;text-anchor:middle;fill:#000000;fill-opacity:1;stroke:#000000;stroke-width:3.5321846;stroke-miterlimit:4;stroke-dasharray:none;stroke-opacity:1"
       x="1554.9926"
       y="2259.6477"
       id="text4246-2-3-1-3-9-3-7-9-5-3"
       transform="matrix(0.93835319,0,-0.12334078,1.0656968,0,0)"><tspan
         sodipodi:role="line"
         style="font-size:61.13397217px;line-height:1.25;stroke:#000000;stroke-width:3.5321846;stroke-miterlimit:4;stroke-dasharray:none;stroke-opacity:1"
         x="1554.9926"
         y="2259.6477"
         id="tspan4814-3-3-7">MUIRLINN!</tspan></text>
    <use
       x="0"
       y="0"
       xlink:href="#use4531"
       id="use4539"
       transform="rotate(3.917783,-877.39572,1403.2816)"
       width="100%"
       height="100%" />
    <use
       x="0"
       y="0"
       xlink:href="#use4531"
       id="use4543"
       transform="matrix(0.88115496,0.04946838,-0.05305626,0.82156758,194.37578,410.50281)"
       width="100%"
       height="100%" />
    <use
       x="0"
       y="0"
       xlink:href="#text4580-1-7-3-6"
       id="use4531"
       transform="matrix(0.77520109,0,0,0.77350724,1329.8557,2500.8302)"
       width="100%"
       height="100%" />
    <use
       x="0"
       y="0"
       xlink:href="#use4531"
       id="use4533"
       transform="matrix(1.3943222,0.02342648,-0.0210694,1.2540314,-240.15274,-754.23554)"
       width="100%"
       height="100%" />
    <use
       x="0"
       y="0"
       xlink:href="#use4533"
       id="use4535"
       transform="matrix(0.80574379,0.02924242,-0.03634386,0.7290677,577.01074,760.34106)"
       width="100%"
       height="100%" />
    <use
       x="0"
       y="0"
       xlink:href="#use4535"
       id="use4537"
       transform="matrix(1.3677664,-0.00784959,0.05996307,1.2741545,-704.57925,-765.61507)"
       width="100%"
       height="100%" />
    <use
       x="0"
       y="0"
       xlink:href="#text4580-1-7-3-6"
       id="use4560"
       transform="rotate(2.9937017,-43059.808,32151.42)"
       width="100%"
       height="100%" />
    <use
       x="0"
       y="0"
       xlink:href="#text4580-1-7-3-6"
       id="use4541"
       transform="matrix(0.74452441,0.02853948,-0.03939499,0.64274603,1422.7067,2479.6301)"
       width="100%"
       height="100%" />
    <text
       xml:space="preserve"
       style="font-style:normal;font-variant:normal;font-weight:normal;font-stretch:normal;line-height:0%;font-family:Lavi;-inkscape-font-specification:Lavi;text-align:center;letter-spacing:0px;word-spacing:0px;text-anchor:middle;fill:#000000;fill-opacity:1;stroke:none"
       x="2145.2688"
       y="2163.6802"
       id="text4246-2-3-1-3-9-3-7-6-5-4-7"><tspan
         sodipodi:role="line"
         style="font-size:45px;line-height:1.25"
         x="2145.2688"
         y="2163.6802"
         id="tspan4749">An Uisgeachd?!</tspan><tspan
         sodipodi:role="line"
         style="font-size:45px;line-height:1.25"
         x="2145.2688"
         y="2219.9302"
         id="tspan271">An-seo?!</tspan><tspan
         sodipodi:role="line"
         style="font-size:45px;line-height:1.25"
         x="2152.3"
         y="2276.1802"
         id="tspan273">Tha sin </tspan><tspan
         sodipodi:role="line"
         style="font-size:45px;line-height:1.25"
         x="2145.2688"
         y="2332.4302"
         id="tspan275">iongantach!</tspan></text>
    <text
       xml:space="preserve"
       style="font-style:normal;font-weight:normal;font-size:40px;line-height:1.25;font-family:sans-serif;letter-spacing:0px;word-spacing:0px;fill:#000000;fill-opacity:1;stroke:none"
       x="1287.5"
       y="2155.5"
       id="text246"><tspan
         sodipodi:role="line"
         id="tspan244"
         x="1287.5"
         y="2190.8906" /></text>
  </g>
</svg>
