<?xml version="1.0" encoding="UTF-8" standalone="no"?>
<!-- Created with Inkscape (http://www.inkscape.org/) -->

<svg
   xmlns:dc="http://purl.org/dc/elements/1.1/"
   xmlns:cc="http://creativecommons.org/ns#"
   xmlns:rdf="http://www.w3.org/1999/02/22-rdf-syntax-ns#"
   xmlns:svg="http://www.w3.org/2000/svg"
   xmlns="http://www.w3.org/2000/svg"
   xmlns:xlink="http://www.w3.org/1999/xlink"
   xmlns:sodipodi="http://sodipodi.sourceforge.net/DTD/sodipodi-0.dtd"
   xmlns:inkscape="http://www.inkscape.org/namespaces/inkscape"
   id="svg2"
   version="1.1"
   inkscape:version="0.48.5 r10040"
   width="2481"
   height="3503"
   sodipodi:docname="Pepper-and-Carrot_by-David-Revoy_E13P01.svg">
  <metadata
     id="metadata8">
    <rdf:RDF>
      <cc:Work
         rdf:about="">
        <dc:format>image/svg+xml</dc:format>
        <dc:type
           rdf:resource="http://purl.org/dc/dcmitype/StillImage" />
        <dc:title />
      </cc:Work>
    </rdf:RDF>
  </metadata>
  <defs
     id="defs6" />
  <sodipodi:namedview
     pagecolor="#ffffff"
     bordercolor="#666666"
     borderopacity="1"
     objecttolerance="10"
     gridtolerance="10"
     guidetolerance="10"
     inkscape:pageopacity="0"
     inkscape:pageshadow="2"
     inkscape:window-width="1292"
     inkscape:window-height="745"
     id="namedview4"
     showgrid="false"
     inkscape:zoom="0.43942712"
     inkscape:cx="1364.9172"
     inkscape:cy="527.27846"
     inkscape:window-x="66"
     inkscape:window-y="-8"
     inkscape:window-maximized="1"
     inkscape:current-layer="layer1" />
  <g
     inkscape:groupmode="layer"
     id="layer2"
     inkscape:label="artwork"
     sodipodi:insensitive="true">
    <image
       sodipodi:absref="C:\Users\Gwen\Documents\Academie_du_Gallo\Traduction_BD\peppercarrot_ep13_translation-master\go\../gfx_Pepper-and-Carrot_by-David-Revoy_E13P01.png"
       xlink:href="../gfx_Pepper-and-Carrot_by-David-Revoy_E13P01.png"
       y="0"
       x="0"
       id="image10"
       height="3503"
       width="2481" />
  </g>
  <g
     inkscape:groupmode="layer"
     id="layer3"
     inkscape:label="speechbubbles" />
  <g
     inkscape:groupmode="layer"
     id="layer1"
     inkscape:label="txt">
    <path
       style="fill:#ffffff;fill-opacity:1;stroke:none"
       d="m 733.60729,767.4025 c -6.12781,-73.6093 -98.25507,-83.0129 -188.82466,-85.55853 -124.5346,-3.50027 -170.71649,39.14469 -179.60729,68.13992 -6.86804,22.39851 -12.26205,76.68787 87.01965,96.07133 78.93254,15.41078 215.46988,-5.11232 236.75546,-15.83396 15.63706,-7.87646 39.20385,-20.57404 44.65684,-62.81876 z"
       id="path3238-1-6"
       inkscape:connector-curvature="0"
       sodipodi:nodetypes="cssssc" />
    <path
       style="fill:#ffffff;fill-opacity:1;stroke:none"
       d="m 731.34137,1112.0514 c 10.76285,-58.4007 -57.93757,-59.7338 -186.78713,-63.5055 -123.15478,-3.6049 -147.59935,9.0774 -164.20956,33.6365 -19.17918,28.3574 -25.58937,73.8614 72.62101,88.2487 78.0808,11.4386 216.4891,0.6814 234.20071,-11.7527 17.7116,-12.4341 38.78082,-15.271 44.17497,-46.627 z"
       id="path3238-1"
       inkscape:connector-curvature="0"
       sodipodi:nodetypes="cssssc" />
    <path
       style="fill:#ffffff;stroke:none"
       d="m 1939.3021,3342.7061 c -11.8428,-60.705 14.1447,-111.7226 31.4351,-124.7524 17.2904,-13.0298 47.3042,-29.2892 62.426,-32.5799 15.1219,-3.2908 255.5699,-18.1391 270.1452,-10.7639 14.5753,7.3751 80.0033,33.7889 95.2917,71.1652 15.2884,37.3762 36.5293,146.43 17.8469,168.2106 -18.6825,21.7805 -66.9939,9.5917 -176.3899,18.1921 -109.3959,8.6005 -240.7979,8.8568 -273.0597,-34.9815 -18.1875,-24.7135 -27.6953,-54.4902 -27.6953,-54.4902 z"
       id="path3286"
       inkscape:connector-curvature="0"
       sodipodi:nodetypes="csssssssc" />
    <path
       style="color:#000000;display:inline;overflow:visible;visibility:visible;fill:#ffffff;fill-opacity:1;fill-rule:nonzero;stroke:none;stroke-width:1px;marker:none;enable-background:accumulate"
       d="m 2065.3434,2908.9931 c 59.1369,57.7184 84.0546,81.7232 70.3501,131.5639 -13.7043,49.8409 29.5777,21.853 29.5777,21.853 0,0 27.6302,-106.7588 -99.9278,-153.4169 z"
       id="path3984"
       inkscape:connector-curvature="0"
       sodipodi:nodetypes="cscc" />
    <path
       style="color:#000000;fill:#ffffff;fill-opacity:1;fill-rule:nonzero;stroke:none;stroke-width:1px;marker:none;visibility:visible;display:inline;overflow:visible;enable-background:accumulate"
       d="m 2044.5176,3096.6455 c 1.4678,-49.6424 35.3545,-81.4368 71.0938,-88.6523 36.6918,-7.4079 55.8033,-4.5487 65.9921,-1.8473 10.1888,2.7015 89.1919,-3.7384 119.5985,0.8367 29.2736,4.4047 73.0628,32.9318 70.284,96.4165 -2.7789,63.4847 -44.4604,90.4995 -87.0682,94.5516 -42.6079,4.0523 -119.4785,2.7123 -141.8029,1.7779 -33.1024,-1.3853 -91.6134,0.9237 -98.0973,-103.0834 z"
       id="path5034"
       inkscape:connector-curvature="0"
       sodipodi:nodetypes="cscsssscc" />
    <path
       style="fill:#ffffff;fill-opacity:1;stroke:none"
       d="m 813.23055,1445.8788 c 11.47066,-62.3885 -61.74776,-63.8126 -199.07094,-67.8419 -131.2539,-3.851 -157.30603,9.6973 -175.00859,35.9334 -20.44047,30.2937 -27.27222,78.9049 77.39684,94.2746 83.21568,12.2197 230.72622,0.7279 249.60261,-12.5552 18.87638,-13.2831 41.33119,-16.3138 47.08008,-49.8109 z"
       id="path3238"
       inkscape:connector-curvature="0"
       sodipodi:nodetypes="cssssc" />
    <path
       style="color:#000000;display:inline;overflow:visible;visibility:visible;fill:#ffffff;fill-opacity:1;fill-rule:nonzero;stroke:none;stroke-width:1px;marker:none;enable-background:accumulate"
       d="M 537.20621,747.31481 C 497.18166,1119.9729 723.58268,1848.6244 747.8049,2074.1644 760.10221,1890.5729 526.40737,1185.705 565.75742,742.84162 c -24.19123,-4.10336 -28.55121,4.47319 -28.55121,4.47319 z"
       id="path4008"
       inkscape:connector-curvature="0"
       sodipodi:nodetypes="cccc" />
    <text
       xml:space="preserve"
       style="font-size:45px;font-style:normal;font-variant:normal;font-weight:normal;font-stretch:normal;text-indent:0;text-align:center;text-decoration:none;line-height:125%;letter-spacing:0px;word-spacing:0px;text-transform:none;direction:ltr;block-progression:tb;writing-mode:lr-tb;text-anchor:middle;baseline-shift:baseline;color:#000000;fill:#000000;fill-opacity:1;fill-rule:nonzero;stroke:none;visibility:visible;display:inline;overflow:visible;enable-background:accumulate;font-family:Lavi;-inkscape-font-specification:Lavi"
       x="2210.1592"
       y="3048.4604"
       id="text4159"
       sodipodi:linespacing="125%"><tspan
         sodipodi:role="line"
         x="2218.0693"
         y="3048.4604"
         id="tspan4181">Je sei den </tspan><tspan
         sodipodi:role="line"
         x="2218.0693"
         y="3104.7104"
         id="tspan3168">mon pairier </tspan><tspan
         sodipodi:role="line"
         x="2210.1592"
         y="3160.9604"
         id="tspan3170">de Madeleine !</tspan></text>
    <text
       xml:space="preserve"
       style="font-style:normal;font-variant:normal;font-weight:normal;font-stretch:normal;font-size:47.00374985px;line-height:125%;font-family:Lavi;-inkscape-font-specification:'Lavi, Normal';text-align:center;letter-spacing:0px;word-spacing:0px;writing-mode:lr-tb;text-anchor:middle;fill:#000000;fill-opacity:1;stroke:none;stroke-width:1px;stroke-linecap:butt;stroke-linejoin:miter;stroke-opacity:1"
       x="2232.5"
       y="3110.5"
       id="text4169"
       sodipodi:linespacing="125%"><tspan
         sodipodi:role="line"
         id="tspan4171"
         x="2232.5"
         y="3110.5" /><tspan
         sodipodi:role="line"
         x="2232.5"
         y="3169.2546"
         id="tspan4173" /></text>
    <text
       xml:space="preserve"
       style="font-size:45px;font-style:normal;font-variant:normal;font-weight:normal;font-stretch:normal;text-indent:0;text-align:center;text-decoration:none;line-height:125%;letter-spacing:0px;word-spacing:0px;text-transform:none;direction:ltr;block-progression:tb;writing-mode:lr-tb;text-anchor:middle;baseline-shift:baseline;color:#000000;fill:#000000;fill-opacity:1;fill-rule:nonzero;stroke:none;visibility:visible;display:inline;overflow:visible;enable-background:accumulate;font-family:Lavi;-inkscape-font-specification:Lavi"
       x="2163.6572"
       y="3265.3611"
       id="text4177"
       sodipodi:linespacing="125%"><tspan
         sodipodi:role="line"
         x="2171.5674"
         y="3265.3611"
         id="tspan4179">En te remerciant </tspan><tspan
         sodipodi:role="line"
         x="2171.5674"
         y="3321.6111"
         id="tspan3177">de nouz recevair </tspan><tspan
         sodipodi:role="line"
         x="2163.6572"
         y="3377.8611"
         id="tspan3179">cez tai Coriandr !</tspan></text>
    <text
       xml:space="preserve"
       style="color:#000000;font-style:normal;font-variant:normal;font-weight:normal;font-stretch:normal;font-size:47.26602173px;line-height:125%;font-family:Lavi;-inkscape-font-specification:Lavi;text-indent:0;text-align:center;text-decoration:none;text-decoration-line:none;text-decoration-style:solid;text-decoration-color:#000000;letter-spacing:0px;word-spacing:0px;text-transform:none;direction:ltr;block-progression:tb;writing-mode:lr-tb;baseline-shift:baseline;text-anchor:middle;white-space:normal;clip-rule:nonzero;display:inline;overflow:visible;visibility:visible;opacity:1;isolation:auto;mix-blend-mode:normal;color-interpolation:sRGB;color-interpolation-filters:linearRGB;solid-color:#000000;solid-opacity:1;fill:#000000;fill-opacity:1;fill-rule:nonzero;stroke:#000000;stroke-width:1.15539169;stroke-linecap:butt;stroke-linejoin:miter;stroke-miterlimit:4;stroke-dasharray:none;stroke-dashoffset:0;stroke-opacity:1;color-rendering:auto;image-rendering:auto;shape-rendering:auto;text-rendering:auto;enable-background:accumulate"
       x="627.89648"
       y="1448.4253"
       id="text4201"
       sodipodi:linespacing="125%"
       transform="scale(0.99121656,1.0088613)"><tspan
         sodipodi:role="line"
         x="627.89648"
         y="1448.4253"
         id="tspan4183"
         style="stroke-width:1.15539169">...du monde !</tspan></text>
    <text
       xml:space="preserve"
       style="font-size:45px;font-style:normal;font-variant:normal;font-weight:normal;font-stretch:normal;text-indent:0;text-align:center;text-decoration:none;line-height:125%;letter-spacing:0px;word-spacing:0px;text-transform:none;direction:ltr;block-progression:tb;writing-mode:lr-tb;text-anchor:middle;baseline-shift:baseline;color:#000000;fill:#000000;fill-opacity:1;fill-rule:nonzero;stroke:none;visibility:visible;display:inline;overflow:visible;enable-background:accumulate;font-family:Lavi;-inkscape-font-specification:Lavi"
       x="549.224"
       y="753.42969"
       id="text4201-8"
       sodipodi:linespacing="125%"><tspan
         sodipodi:role="line"
         x="557.13416"
         y="753.42969"
         id="tspan4160">'ét lez </tspan><tspan
         sodipodi:role="line"
         x="549.224"
         y="809.67969"
         id="tspan3164">meilhoures...</tspan></text>
    <text
       xml:space="preserve"
       style="color:#000000;font-style:normal;font-variant:normal;font-weight:normal;font-stretch:normal;font-size:45px;line-height:125%;font-family:Lavi;-inkscape-font-specification:Lavi;text-indent:0;text-align:center;text-decoration:none;text-decoration-line:none;text-decoration-style:solid;text-decoration-color:#000000;letter-spacing:0px;word-spacing:0px;text-transform:none;direction:ltr;block-progression:tb;writing-mode:lr-tb;baseline-shift:baseline;text-anchor:middle;white-space:normal;clip-rule:nonzero;display:inline;overflow:visible;visibility:visible;opacity:1;isolation:auto;mix-blend-mode:normal;color-interpolation:sRGB;color-interpolation-filters:linearRGB;solid-color:#000000;solid-opacity:1;fill:#000000;fill-opacity:1;fill-rule:nonzero;stroke:none;stroke-width:1;stroke-linecap:butt;stroke-linejoin:miter;stroke-miterlimit:4;stroke-dasharray:none;stroke-dashoffset:0;stroke-opacity:1;color-rendering:auto;image-rendering:auto;shape-rendering:auto;text-rendering:auto;enable-background:accumulate"
       x="552.08148"
       y="1121.1799"
       id="text4201-2"
       sodipodi:linespacing="125%"><tspan
         sodipodi:role="line"
         x="552.08148"
         y="1121.1799"
         id="tspan4183-92">...vacances...</tspan></text>
  </g>
</svg>
