<?xml version="1.0" encoding="UTF-8" standalone="no"?>
<!-- Created with Inkscape (http://www.inkscape.org/) -->

<svg
   xmlns:dc="http://purl.org/dc/elements/1.1/"
   xmlns:cc="http://creativecommons.org/ns#"
   xmlns:rdf="http://www.w3.org/1999/02/22-rdf-syntax-ns#"
   xmlns:svg="http://www.w3.org/2000/svg"
   xmlns="http://www.w3.org/2000/svg"
   xmlns:xlink="http://www.w3.org/1999/xlink"
   xmlns:sodipodi="http://sodipodi.sourceforge.net/DTD/sodipodi-0.dtd"
   xmlns:inkscape="http://www.inkscape.org/namespaces/inkscape"
   id="svg2"
   version="1.1"
   inkscape:version="0.92.2 2405546, 2018-03-11"
   width="2481"
   height="3503"
   sodipodi:docname="E27P02.svg">
  <metadata
     id="metadata8">
    <rdf:RDF>
      <cc:Work
         rdf:about="">
        <dc:format>image/svg+xml</dc:format>
        <dc:type
           rdf:resource="http://purl.org/dc/dcmitype/StillImage" />
        <dc:title />
      </cc:Work>
    </rdf:RDF>
  </metadata>
  <defs
     id="defs6" />
  <sodipodi:namedview
     pagecolor="#ffffff"
     bordercolor="#666666"
     borderopacity="1"
     objecttolerance="10"
     gridtolerance="10"
     guidetolerance="10"
     inkscape:pageopacity="0"
     inkscape:pageshadow="2"
     inkscape:window-width="1459"
     inkscape:window-height="1046"
     id="namedview4"
     showgrid="false"
     inkscape:zoom="0.4574026"
     inkscape:cx="1293.9708"
     inkscape:cy="2623.2535"
     inkscape:window-x="447"
     inkscape:window-y="-1"
     inkscape:window-maximized="0"
     inkscape:current-layer="layer3"
     inkscape:snap-global="false" />
  <g
     inkscape:groupmode="layer"
     id="layer2"
     inkscape:label="artwork"
     sodipodi:insensitive="true">
    <image
       sodipodi:absref="/home/midgard/git/peppercarrot/comics/ep27_Coriander-s-Invention/lang/fi/../gfx_Pepper-and-Carrot_by-David-Revoy_E27P02.png"
       xlink:href="../gfx_Pepper-and-Carrot_by-David-Revoy_E27P02.png"
       width="2481"
       height="3503"
       id="image10"
       x="0"
       y="0" />
  </g>
  <g
     inkscape:groupmode="layer"
     id="layer3"
     inkscape:label="speechbubbles">
    <path
       style="fill:#ffffff;fill-rule:evenodd;stroke:none;stroke-width:0.92821538px;stroke-linecap:butt;stroke-linejoin:miter;stroke-opacity:1"
       d="m 470.61743,195.57139 c 4.9497,1.63451 51.61824,0 55.86083,-0.81725 4.2426,-0.81726 36.06204,-7.35529 43.84014,-5.72078 7.77809,1.63451 61.51761,10.6243 71.417,11.44156 9.89939,0.81725 57.27502,2.45176 65.76021,7.35529 8.4852,4.90352 19.79878,9.80705 26.16267,17.9796 6.36389,8.17254 15.55617,33.50743 14.84907,39.22821 -0.70709,5.72078 -10.60647,44.94899 -16.26326,50.66977 -5.65679,5.72078 -25.45557,24.51763 -31.11236,26.9694 -5.6568,2.45176 -18.38457,8.98979 -24.74847,11.44156 -6.36389,2.45176 -150.6121,4.90352 -168.28958,5.72078 -17.67747,0.81725 -86.26609,-4.90353 -98.28678,-5.72078 -12.02068,-0.81726 -40.30464,1.63451 -58.6892,-6.53804 -18.38459,-8.17254 -31.11237,-38.41095 -36.76916,-44.13174 -5.6568,-5.72078 -15.55618,-30.23841 -14.84908,-39.22821 0.70709,-8.9898 14.84908,-30.23841 21.92006,-32.69017 7.071,-2.45177 36.06206,-22.88313 53.03244,-26.9694 16.97037,-4.08627 57.98212,-13.89332 65.7602,-13.07607 10.6467,1.64213 9.52817,0.16304 30.40527,4.08627 z"
       id="path1323"
       inkscape:connector-curvature="0"
       sodipodi:nodetypes="ccsscscsscsssccsscc" />
    <path
       style="fill:#ffffff;fill-rule:evenodd;stroke:none;stroke-width:1.10495889px;stroke-linecap:butt;stroke-linejoin:miter;stroke-opacity:1"
       d="m 145.53956,163.77351 c 12.86032,-19.15682 36.16965,-29.0442 48.22618,-31.51605 12.05657,-2.47185 32.15081,3.08981 43.40359,1.85389 11.25276,-1.23593 53.85255,-12.35924 69.92797,-11.74128 16.07538,0.61796 63.4978,4.32573 78.76943,4.9437 15.27162,0.61796 53.04881,3.0898 66.7129,9.88738 13.66409,6.79758 28.9357,14.21312 31.34701,21.0107 2.41132,6.79758 8.0377,19.77478 2.41132,30.89809 -5.62639,11.12331 -19.29047,30.28013 -36.97341,32.13401 -17.68293,1.85389 -105.29385,8.65147 -124.58432,8.0335 -19.29047,-0.61796 -72.33929,0 -85.19961,0 -12.86031,0 -59.47897,-4.32573 -73.14305,-12.35923 -13.66408,-8.0335 -24.11308,-24.10051 -25.72062,-33.9879 -1.60755,-9.88738 4.82261,-19.15681 4.82261,-19.15681 z"
       id="path1325"
       inkscape:connector-curvature="0" />
    <path
       style="fill:#ffffff;fill-rule:evenodd;stroke:none;stroke-width:1px;stroke-linecap:butt;stroke-linejoin:miter;stroke-opacity:1"
       d="m 544.4243,343.97954 c 6.17962,25.33643 -4.94369,76.0093 4.32573,89.60445 9.26943,13.59516 11.12331,11.74128 19.15682,18.53886 -12.35924,15.44904 -17.92089,33.36993 -16.68497,42.63936 1.23592,9.26942 4.32573,33.36993 35.84178,44.49324 -27.19032,-19.15681 -24.71847,-38.31363 -23.48255,-43.87528 1.23593,-5.56166 6.17962,-34.60586 21.62867,-42.0214 -15.44905,-11.74127 -23.48255,-24.71847 -23.48255,-32.13401 0,-7.41554 8.65146,-82.80688 8.65146,-82.80688 z"
       id="path1327"
       inkscape:connector-curvature="0" />
    <path
       style="fill:#ffffff;fill-rule:evenodd;stroke:none;stroke-width:1px;stroke-linecap:butt;stroke-linejoin:miter;stroke-opacity:1"
       d="m 1028.778,99.513979 c -32.42456,17.031151 -62.38624,30.970451 -66.70952,55.949461 -4.32327,24.97901 -16.21228,45.41639 -17.2931,62.44753 -1.08082,17.03115 7.26449,79.16428 14.83022,101.87247 7.56573,22.7082 48.6369,74.93704 54.0409,79.47868 5.4041,4.54163 41.0712,19.30196 58.3643,26.11442 17.2931,6.81246 155.6379,11.35409 180.4967,14.76032 24.8589,3.40623 91.8696,-15.89573 109.1628,-23.8436 17.2931,-7.94787 41.0711,-11.3541 51.8793,-24.97901 10.8082,-13.62491 35.667,-49.95802 39.9903,-65.85375 4.3232,-15.89574 4.3232,-70.3954 4.3232,-81.7495 0,-11.3541 -1.0808,-61.31212 -21.6163,-82.8849 -20.5356,-21.57278 -55.1218,-51.09344 -82.1423,-60.17671 -27.0205,-9.083277 -190.2241,-22.708193 -208.598,-23.843603 -18.374,-1.135409 -116.7285,22.708192 -116.7285,22.708192 z"
       id="path1329"
       inkscape:connector-curvature="0"
       sodipodi:nodetypes="cssscsscscscssc" />
    <path
       style="fill:#ffffff;fill-rule:evenodd;stroke:none;stroke-width:0.76945907px;stroke-linecap:butt;stroke-linejoin:miter;stroke-opacity:1"
       d="m 1080.5009,395.10744 c -20.0251,14.36798 -42.3607,27.83798 -46.9819,37.71597 -4.6212,9.87799 -10.7827,36.81796 -7.702,49.38996 3.0808,12.57199 13.0934,64.65595 24.6464,74.53394 11.5528,9.87799 48.5223,40.40997 67.007,40.40997 18.4846,0 77.7896,11.67399 87.8022,10.77599 10.0125,-0.898 74.7089,9.87799 91.6534,0.898 16.9442,-8.98 38.5096,-25.14398 51.6031,-30.53198 13.0931,-5.38799 44.6712,-8.08199 53.9135,-27.83798 9.2424,-19.75598 13.3781,-55.03303 6.1617,-80.81994 -6.9795,-24.93996 -21.5655,-46.69595 -44.6715,-60.16595 -23.1058,-13.46998 -97.0446,-43.10396 -97.0446,-43.10396 l -110.908,-11.67399 c 0,0 -17.7146,8.08199 -36.1993,19.75598 -18.4847,11.67399 -39.28,20.65399 -39.28,20.65399 z"
       id="path1331"
       inkscape:connector-curvature="0"
       sodipodi:nodetypes="csccsccccasccsc" />
    <path
       style="fill:#ffffff;fill-rule:evenodd;stroke:none;stroke-width:1px;stroke-linecap:butt;stroke-linejoin:miter;stroke-opacity:1"
       d="m 1351.9814,582.45483 c 0,0 27.0205,22.6972 35.667,37.82867 8.6466,15.13146 27.0205,36.74784 22.6972,76.73814 10.8082,-51.87931 10.8082,-67.01077 -20.5355,-116.72844 -31.3438,-49.71768 -37.8287,2.16163 -37.8287,2.16163 z"
       id="path1333"
       inkscape:connector-curvature="0" />
    <path
       style="fill:#ffffff;fill-rule:evenodd;stroke:none;stroke-width:1.03707886px;stroke-linecap:butt;stroke-linejoin:miter;stroke-opacity:1"
       d="m 1591.8531,224.8427 c 12.7595,-44.07905 17.0126,-69.79185 46.7848,-85.70929 29.772,-15.91744 151.696,-29.38604 168.7086,-30.61045 17.0127,-1.22442 68.0505,3.67326 92.1518,3.67326 24.1013,0 148.8606,-2.44885 168.7087,-2.44885 19.8481,0 100.6582,0 121.9241,2.44885 21.2657,2.44883 96.4048,17.14184 109.1644,28.16162 12.7594,11.01976 49.6201,57.54765 51.0379,88.15812 1.4178,30.61045 0.1281,93.17895 -25.3909,112.76964 -25.5188,19.59069 -86.6091,31.71171 -126.3053,39.05823 -39.696,7.34651 -233.9238,15.91743 -256.6072,15.91743 -22.6836,0 -119.0884,3.67326 -165.8732,-2.44883 -46.7848,-6.12209 -114.8279,-16.75878 -138.9291,-33.90063 -24.1012,-17.14187 -36.8684,-37.11563 -45.3746,-70.17493 -8.5063,-33.0593 0,-64.89417 0,-64.89417 z"
       id="path1335"
       inkscape:connector-curvature="0"
       sodipodi:nodetypes="ccsssscscsssscc" />
    <path
       style="fill:#ffffff;fill-rule:evenodd;stroke:none;stroke-width:0.98612016px;stroke-linecap:butt;stroke-linejoin:miter;stroke-opacity:1"
       d="m 1758.6055,423.03907 c 26.7532,26.61792 41.6773,47.56076 -11.0914,80.71719 47.781,-0.72812 42.3717,20.05383 33.2742,45.56614 65.0534,-20.5973 110.6065,-7.40942 117.0759,32.54725 42.7064,-32.2476 49.1705,-26.46532 81.3368,-1.30189 38.5395,-49.89404 60.8797,-15.54139 88.7311,-10.41512 -5.72,-23.03081 13.1558,-43.92498 60.7525,-10.21797 -17.0849,-18.88765 -10.32,-65.99877 55.091,-69.19731 -29.3198,-10.89059 -71.1806,-22.51429 -22.1829,-69.00017 -75.4808,-8.98442 -38.8472,-27.33589 -50.5274,-41.66048 l -109.6816,-13.0189 -110.9138,7.81134 -56.6894,5.20756 c -1.3716,20.45876 4.3571,42.79545 -75.175,42.96236 z"
       id="path1337"
       inkscape:connector-curvature="0"
       sodipodi:nodetypes="cccccccccccccc" />
    <path
       style="fill:#ffffff;fill-rule:evenodd;stroke:none;stroke-width:1px;stroke-linecap:butt;stroke-linejoin:miter;stroke-opacity:1"
       d="m 2083.819,528.58622 c 24.8588,19.45474 57.2834,63.76832 55.1217,92.95043 10.8082,-38.90948 -17.2931,-97.27371 -31.3437,-112.40517 -14.0507,-15.13147 -23.778,19.45474 -23.778,19.45474 z"
       id="path1339"
       inkscape:connector-curvature="0" />
    <path
       style="fill:#ffffff;fill-rule:evenodd;stroke:none;stroke-width:1px;stroke-linecap:butt;stroke-linejoin:miter;stroke-opacity:1"
       d="m 890.21141,1438.6648 c 10.99475,-34.2595 32.98428,-50.6446 62.82721,-59.5818 29.84293,-8.9372 108.37698,1.4895 128.79578,1.4895 20.4188,0 102.0943,7.4477 113.089,19.3641 10.9948,11.9164 37.6963,37.2387 29.8429,64.0505 -7.8534,26.8118 -17.2775,53.6236 -59.6858,68.519 -42.4084,14.8954 -81.6754,0 -97.3823,1.4896 -15.7068,1.4895 -36.1256,8.9372 -80.10461,1.4895 -43.97905,-7.4477 -100.52356,-46.1759 -97.38218,-96.8204 z"
       id="path1341"
       inkscape:connector-curvature="0" />
    <path
       style="fill:#ffffff;fill-rule:evenodd;stroke:none;stroke-width:1px;stroke-linecap:butt;stroke-linejoin:miter;stroke-opacity:1"
       d="m 1321.8416,1549.9601 c -25.1103,-26.3097 -29.3743,-46.7563 -36.94,-53.2412 -7.5658,-6.4849 -52.768,-40.79 -87.3542,-44.0325 -34.5862,-3.2424 -28.1013,24.8589 -28.1013,24.8589 0,0 36.7479,1.0808 51.8793,5.4041 15.1315,4.3232 48.6369,20.5355 54.041,24.8588 5.4041,4.3233 19.4547,27.0205 46.4752,42.1519 z"
       id="path1343"
       inkscape:connector-curvature="0"
       sodipodi:nodetypes="cccccsc" />
    <path
       style="fill:#ffffff;fill-rule:evenodd;stroke:none;stroke-width:1px;stroke-linecap:butt;stroke-linejoin:miter;stroke-opacity:1"
       d="m 1847.0115,1634.8585 c 65.8759,-41.0171 79.5483,-53.4465 129.266,-55.9324 49.7176,-2.4859 59.6612,-29.8306 59.6612,-29.8306 0,0 -34.8024,-1.243 -72.0906,6.2147 -37.2883,7.4576 -95.7066,37.2882 -116.8366,79.5483 z"
       id="path1345"
       inkscape:connector-curvature="0" />
    <path
       style="fill:#ffffff;fill-rule:evenodd;stroke:none;stroke-width:1.22809827px;stroke-linecap:butt;stroke-linejoin:miter;stroke-opacity:1"
       d="m 1967.2565,1498.8978 c 22.9799,-24.501 82.071,-50.5334 118.1823,-55.1273 36.1111,-4.5939 151.0107,6.1252 175.632,19.907 24.6213,13.7819 75.5054,24.5012 73.864,68.9093 -1.6415,44.4081 6.5657,64.3153 -31.187,88.8162 -37.7527,24.5012 -170.7078,18.3759 -200.2533,16.8446 -29.5457,-1.5312 -85.3539,-7.6565 -114.8996,-35.2203 -29.5456,-27.5636 -42.6769,-56.6586 -21.3384,-104.1295 z"
       id="path1347"
       inkscape:connector-curvature="0" />
    <path
       style="fill:#ffffff;fill-rule:evenodd;stroke:none;stroke-width:1px;stroke-linecap:butt;stroke-linejoin:miter;stroke-opacity:1"
       d="m 2013.5657,1655.9885 c 19.8871,-34.8024 68.3618,-47.2318 79.5483,-47.2318 11.1865,0 98.1924,7.4576 114.3506,7.4576 16.1583,0 49.7177,-7.4576 68.3618,-4.9717 18.6442,2.4859 53.4465,0 68.3618,24.8588 14.9153,24.8588 26.1018,79.5483 22.373,103.1642 -3.7288,23.6159 4.9718,54.6894 -11.1865,90.7347 -16.1582,36.0453 -22.3729,41.9881 -45.9888,53.1746 -23.6159,11.1865 -135.4807,6.2147 -160.3395,2.4859 -24.8589,-3.7289 -73.3336,0 -94.4636,-6.2147 -21.13,-6.2148 -48.1306,-17.4289 -49.7177,-45.7169 -3.7732,-26.1018 -13.0731,-49.7177 -6.8584,-94.4636 6.2148,-44.7459 15.559,-83.2771 15.559,-83.2771 z"
       id="path1349"
       inkscape:connector-curvature="0"
       sodipodi:nodetypes="cssssscsccccc" />
    <path
       style="fill:#ffffff;fill-rule:evenodd;stroke:none;stroke-width:0.93677616px;stroke-linecap:butt;stroke-linejoin:miter;stroke-opacity:1"
       d="m 110.738,2399.1151 c 0,-35.8207 22.70453,-41.7908 37.51182,-41.7908 14.8073,0 63.17778,-4.7762 70.08786,-4.7762 6.91008,0 58.24203,7.1642 67.12641,13.1343 8.88438,5.9701 22.70451,10.7462 20.73022,32.2386 -1.97431,21.4925 0,33.4327 -19.74306,39.4028 -19.74307,5.9702 -96.74101,8.3582 -110.56115,7.1642 -13.82014,-1.194 -34.55036,-10.7463 -44.42189,-17.9104 -9.87153,-7.1641 -22.70452,-9.5522 -20.73021,-27.4625 z"
       id="path1351"
       inkscape:connector-curvature="0" />
    <path
       style="fill:#ffffff;fill-rule:evenodd;stroke:none;stroke-width:0.9404344px;stroke-linecap:butt;stroke-linejoin:miter;stroke-opacity:1"
       d="m 309.11422,2417.4127 c 48.15781,-11.8278 82.20391,-9.022 96.44438,-7.2673 14.9867,1.8467 52.96013,12.754 64.84914,22.313 11.889,9.5589 27.05014,28.9255 25.96932,40.3962 -1.08082,11.4708 6.91442,42.9891 5.8336,58.2834 -1.08082,15.2943 -12.59967,67.8946 -20.1654,89.8803 -7.56574,21.9855 -25.93966,47.7946 -107.00108,52.5741 -81.06142,4.7795 -130.77909,2.8677 -162.12284,-4.7795 -31.34375,-7.6471 -71.33406,-12.4265 -82.14225,-48.7505 -10.80819,-36.3241 -14.05064,-77.4275 -10.80819,-94.6336 3.24246,-17.2061 6.48492,-55.4419 10.80819,-62.1332 4.32328,-6.6912 17.38212,-32.749 27.10949,-38.4843 9.72737,-5.7354 151.22564,-7.3986 151.22564,-7.3986 z"
       id="path1353"
       inkscape:connector-curvature="0"
       sodipodi:nodetypes="csssscscsscsc" />
    <path
       style="fill:#ffffff;fill-rule:evenodd;stroke:none;stroke-width:1px;stroke-linecap:butt;stroke-linejoin:miter;stroke-opacity:1"
       d="m 532.84375,2533.5054 c 1.08082,-19.4547 14.05064,-55.1218 33.50539,-61.6067 19.45474,-6.4849 73.49568,-6.4849 84.30387,-3.2424 10.80819,3.2424 28.1013,27.0204 32.42457,36.7478 4.32328,9.7274 16.21229,44.3136 -3.24245,58.3642 -19.45474,14.0507 -38.90949,24.8589 -59.44505,23.778 -20.53556,-1.0808 -61.60668,-8.6465 -71.33405,-21.6163 -9.72737,-12.9699 -16.21228,-32.4246 -16.21228,-32.4246 z"
       id="path1355"
       inkscape:connector-curvature="0" />
    <path
       style="fill:#ffffff;fill-rule:evenodd;stroke:none;stroke-width:1px;stroke-linecap:butt;stroke-linejoin:miter;stroke-opacity:1"
       d="m 371.0335,2656.8086 c 0,0 10.62431,7.3553 12.25882,23.7003 1.63451,16.3451 -0.81725,35.142 -13.89333,54.7561 28.60391,-32.6902 43.31449,-55.5733 34.32469,-83.36 -8.9898,-27.7866 -32.69018,4.9036 -32.69018,4.9036 z"
       id="path1357"
       inkscape:connector-curvature="0" />
    <path
       style="fill:#ffffff;fill-rule:evenodd;stroke:none;stroke-width:1px;stroke-linecap:butt;stroke-linejoin:miter;stroke-opacity:1"
       d="m 609.41023,2578.6689 c 0,0 17.16235,24.5177 9.80706,38.411 -7.35529,13.8933 -8.9898,18.7968 -25.33489,35.1419 26.9694,-17.9796 37.5937,-31.0556 40.86272,-43.3145 3.26902,-12.2588 5.72078,-35.9592 5.72078,-42.4972 0,-6.538 -31.05567,12.2588 -31.05567,12.2588 z"
       id="path1359"
       inkscape:connector-curvature="0" />
    <path
       style="fill:#ffffff;fill-rule:evenodd;stroke:none;stroke-width:1.07543445px;stroke-linecap:butt;stroke-linejoin:miter;stroke-opacity:1"
       d="m 721.7991,2523.652 c -9.39843,-45.6534 -7.51874,-90.2198 4.69921,-102.1765 4.75927,-27.9572 60.0674,-74.0419 81.7663,-68.1321 16.91717,-4.3479 108.0819,-23.1746 125.93891,-21.0005 17.85701,2.1738 118.32618,4.9456 137.12298,24.5114 18.7969,19.5656 34.2573,30.5986 45.5355,51.2513 11.2781,20.6527 17.716,61.3602 23.3551,67.882 5.639,6.522 3.5713,38.9684 -1.1279,57.4471 -4.6992,18.4788 -21.6164,33.6966 -46.0523,40.2184 -24.4359,6.522 -57.3304,15.2178 -78.9468,16.3049 -21.61634,1.0869 -71.428,7.2706 -109.0217,4.0097 -44.76237,-10.1925 -72.61993,-10.4528 -117.26947,-15.1072 -8.45859,-1.0868 -64.12015,-25.86 -65.99983,-55.2085 z"
       id="path1361"
       inkscape:connector-curvature="0"
       sodipodi:nodetypes="ccccccccccccc" />
    <path
       style="fill:#ffffff;fill-rule:evenodd;stroke:none;stroke-width:1px;stroke-linecap:butt;stroke-linejoin:miter;stroke-opacity:1"
       d="m 1048.8643,2539.6614 c 40.4132,37.5937 65.789,69.5483 47.932,102.4428 29.1351,-35.714 14.0976,-69.5483 -24.4359,-117.4803 -38.5336,-47.932 -23.4961,15.0375 -23.4961,15.0375 z"
       id="path1363"
       inkscape:connector-curvature="0" />
    <path
       style="fill:#ffffff;fill-rule:evenodd;stroke:none;stroke-width:1px;stroke-linecap:butt;stroke-linejoin:miter;stroke-opacity:1"
       d="m 1362.7766,2499.8218 c -0.8172,-27.7867 20.4314,-32.6902 31.8729,-34.3247 11.4416,-1.6345 58.8423,-9.807 76.8219,3.269 17.9796,13.0761 22.8832,35.142 14.7106,43.3145 -8.1725,8.1726 -34.3247,20.4314 -50.6698,21.2486 -16.345,0.8173 -51.487,-4.0862 -62.9285,-15.5278 -11.4416,-11.4416 -9.8071,-17.9796 -9.8071,-17.9796 z"
       id="path1365"
       inkscape:connector-curvature="0" />
    <path
       style="fill:#ffffff;fill-rule:evenodd;stroke:none;stroke-width:1px;stroke-linecap:butt;stroke-linejoin:miter;stroke-opacity:1"
       d="m 1445.7231,2523.112 c 0,0 19.6141,10.6243 24.5176,19.6141 4.9035,8.9898 13.0761,31.0556 8.9898,45.7662 13.0761,-26.1521 8.1725,-42.4972 4.9035,-49.8525 -3.269,-7.3553 -23.7004,-34.3247 -23.7004,-34.3247 z"
       id="path1367"
       inkscape:connector-curvature="0" />
    <path
       style="fill:#ffffff;fill-rule:evenodd;stroke:none;stroke-width:1.14009511px;stroke-linecap:butt;stroke-linejoin:miter;stroke-opacity:1"
       d="m 1791.5794,2454.9245 c 5.3616,-58.0473 38.8711,-75.8166 61.6576,-84.1092 22.7866,-8.2924 116.6134,-20.1388 148.7826,-18.9542 32.1692,1.1846 151.4633,13.031 171.569,14.2156 20.1059,1.1847 71.0404,28.4314 75.0615,35.5391 4.0212,7.1078 21.4462,26.0619 16.0846,47.3854 -5.3615,21.3235 -36.1904,49.7547 -65.6789,60.4163 -29.4884,10.6617 -147.442,18.9542 -170.2285,16.5849 -22.7866,-2.3692 -61.6577,-5.9232 -84.4442,-5.9232 -22.7866,0 -95.1672,-1.1845 -113.9326,-14.2155 -18.7654,-13.031 -38.8711,-50.9392 -38.8711,-50.9392 z"
       id="path1369"
       inkscape:connector-curvature="0" />
    <path
       style="fill:#ffffff;fill-rule:evenodd;stroke:none;stroke-width:1.29879129px;stroke-linecap:butt;stroke-linejoin:miter;stroke-opacity:1"
       d="m 1924.9422,2510.8451 c 23.9399,26.678 9.4117,38.1686 -31.1037,39.3988 31.3357,11.0005 70.4501,17.2237 62.2072,52.5316 34.7898,-0.4142 56.7982,-22.0229 112.3186,11.939 32.8316,-28.009 65.6632,-14.6705 98.4949,-2.3878 15.7471,-12.4948 44.7406,-13.2899 105.4067,-7.1634 -4.6845,-27.6277 33.3857,-39.9394 69.1192,-48.95 -30.2558,-14.5549 -57.5085,-30.4301 -38.0157,-66.8584 -43.9672,8.0387 -80.9406,7.3792 -101.9505,-13.1329 -43.6206,4.5919 -76.3863,24.1833 -136.5105,5.9695 -32.3771,22.0129 -68.4646,23.5159 -105.4067,20.2963 8.4185,19.6229 -1.5191,23.7448 -34.5595,8.3573 z"
       id="path1371"
       inkscape:connector-curvature="0"
       sodipodi:nodetypes="cccccccccccc" />
    <path
       style="fill:#ffffff;fill-rule:evenodd;stroke:none;stroke-width:1px;stroke-linecap:butt;stroke-linejoin:miter;stroke-opacity:1"
       d="m 2174.6474,2565.9234 c -3.2425,28.1012 -54.7361,79.9806 -28.7964,113.4859 -3.2425,16.2123 1.0808,33.5054 15.1315,47.5561 -12.9699,-29.1821 -7.5658,-36.7479 -1.0809,-50.7985 -26.0873,-34.1997 32.0389,-69.1724 28.7964,-109.1627 -3.2424,-39.9903 -14.0506,-1.0808 -14.0506,-1.0808 z"
       id="path1373"
       inkscape:connector-curvature="0"
       sodipodi:nodetypes="cccccc" />
  </g>
  <g
     inkscape:groupmode="layer"
     id="layer1"
     inkscape:label="txt">
    <text
       xml:space="preserve"
       style="font-style:normal;font-variant:normal;font-weight:normal;font-stretch:normal;line-height:0%;font-family:Lavi;-inkscape-font-specification:Lavi;text-align:center;letter-spacing:0px;word-spacing:0px;text-anchor:middle;fill:#000000;fill-opacity:1;stroke:none"
       x="322.61392"
       y="193.67375"
       id="text4246"><tspan
         sodipodi:role="line"
         style="font-size:45px;line-height:1.20000005"
         x="322.61392"
         y="193.67375"
         id="tspan4252">Tiedättehän ...</tspan></text>
    <text
       xml:space="preserve"
       style="font-style:normal;font-variant:normal;font-weight:normal;font-stretch:normal;line-height:0%;font-family:Lavi;-inkscape-font-specification:Lavi;text-align:center;letter-spacing:0px;word-spacing:0px;text-anchor:middle;fill:#000000;fill-opacity:1;stroke:none"
       x="528.04688"
       y="265.45801"
       id="text4246-3"><tspan
         sodipodi:role="line"
         style="font-size:45px;line-height:1.20000005"
         x="528.04688"
         y="265.45801"
         id="tspan841">mietin taas</tspan><tspan
         sodipodi:role="line"
         style="font-size:45px;line-height:1.20000005"
         x="528.04688"
         y="319.45801"
         id="tspan3783">turvallisuuttani ...</tspan></text>
    <text
       xml:space="preserve"
       style="font-style:normal;font-variant:normal;font-weight:normal;font-stretch:normal;line-height:0%;font-family:Lavi;-inkscape-font-specification:Lavi;text-align:center;letter-spacing:0px;word-spacing:0px;text-anchor:middle;fill:#000000;fill-opacity:1;stroke:none"
       x="1203.0967"
       y="159.41882"
       id="text4246-3-7"><tspan
         sodipodi:role="line"
         style="font-size:45px;line-height:1.20000005"
         x="1203.0967"
         y="159.41882"
         id="tspan868">Monet nuoret</tspan><tspan
         sodipodi:role="line"
         style="font-size:45px;line-height:1.20000005"
         x="1203.0967"
         y="213.41882"
         id="tspan872">kuninkaat ja kunin-</tspan><tspan
         sodipodi:role="line"
         style="font-size:45px;line-height:1.20000005"
         x="1203.0967"
         y="267.41882"
         id="tspan3811">gattaret on sala-</tspan><tspan
         sodipodi:role="line"
         style="font-size:45px;line-height:1.20000005"
         x="1203.0967"
         y="321.41882"
         id="tspan3819">murhattu heidän</tspan><tspan
         sodipodi:role="line"
         style="font-size:45px;line-height:1.20000005"
         x="1203.0967"
         y="375.41882"
         id="tspan3798">kruunajaisissaan.</tspan></text>
    <text
       xml:space="preserve"
       style="font-style:normal;font-variant:normal;font-weight:normal;font-stretch:normal;line-height:0%;font-family:Lavi;-inkscape-font-specification:Lavi;text-align:center;letter-spacing:0px;word-spacing:0px;text-anchor:middle;fill:#000000;fill-opacity:1;stroke:none"
       x="1216.4489"
       y="467.01553"
       id="text4246-3-7-7"><tspan
         sodipodi:role="line"
         style="font-size:45px;line-height:1.20000005"
         x="1216.4489"
         y="467.01553"
         id="tspan746">Siitä on tullut</tspan><tspan
         sodipodi:role="line"
         style="font-size:45px;line-height:1.20000005"
         x="1216.4489"
         y="521.01556"
         id="tspan3805">osa sukuni</tspan><tspan
         sodipodi:role="line"
         style="font-size:45px;line-height:1.20000005"
         x="1216.4489"
         y="575.01556"
         id="tspan3807">historiaa.</tspan></text>
    <text
       xml:space="preserve"
       style="font-style:normal;font-variant:normal;font-weight:normal;font-stretch:normal;line-height:0%;font-family:Lavi;-inkscape-font-specification:Lavi;text-align:center;letter-spacing:0px;word-spacing:0px;text-anchor:middle;fill:#000000;fill-opacity:1;stroke:none"
       x="1967.5282"
       y="176.76515"
       id="text4246-3-7-7-6"><tspan
         sodipodi:role="line"
         style="font-size:45px;line-height:1.20000005"
         x="1967.5282"
         y="176.76515"
         id="tspan3830">Ja muutaman tunnin sisällä</tspan><tspan
         sodipodi:role="line"
         style="font-size:45px;line-height:1.20000005"
         x="1967.5282"
         y="230.76515"
         id="tspan996">vastaanotamme tuhansia vieraita</tspan><tspan
         sodipodi:role="line"
         style="font-size:45px;line-height:1.20000005"
         x="1967.5282"
         y="284.76517"
         id="tspan3844">eri puolilta maailmaa, ja minä olen</tspan><tspan
         sodipodi:role="line"
         style="font-size:45px;line-height:1.20000005"
         x="1967.5282"
         y="338.76517"
         id="tspan3848">heidän huomionsa keskipisteenä.</tspan></text>
    <text
       xml:space="preserve"
       style="font-style:normal;font-variant:normal;font-weight:normal;font-stretch:normal;line-height:0%;font-family:Lavi;-inkscape-font-specification:Lavi;text-align:center;letter-spacing:0px;word-spacing:0px;text-anchor:middle;fill:#000000;fill-opacity:1;stroke:none"
       x="1059.3418"
       y="1445.7167"
       id="text4246-3-7-7-6-7"><tspan
         sodipodi:role="line"
         style="font-size:45px;line-height:1.20000005"
         x="1059.3418"
         y="1445.7167"
         id="tspan1042">Älä huolehdi,</tspan><tspan
         sodipodi:role="line"
         style="font-size:45px;line-height:1.20000005"
         x="1059.3418"
         y="1499.7167"
         id="tspan1067">Coriander.</tspan></text>
    <text
       xml:space="preserve"
       style="font-style:normal;font-variant:normal;font-weight:normal;font-stretch:normal;line-height:0%;font-family:Lavi;-inkscape-font-specification:Lavi;text-align:center;letter-spacing:0px;word-spacing:0px;text-anchor:middle;fill:#000000;fill-opacity:1;stroke:none"
       x="1959.3252"
       y="459.72366"
       id="text4246-3-7-7-6-7-7"><tspan
         sodipodi:role="line"
         style="font-size:45px;line-height:1.20000005"
         x="1959.3252"
         y="459.72366"
         id="tspan996-3-5">Olen todella</tspan><tspan
         sodipodi:role="line"
         style="font-size:45px;line-height:1.20000005"
         x="1959.3252"
         y="513.72369"
         id="tspan1042-9">peloissani!</tspan></text>
    <text
       xml:space="preserve"
       style="font-style:normal;font-variant:normal;font-weight:normal;font-stretch:normal;line-height:0%;font-family:Lavi;-inkscape-font-specification:Lavi;text-align:center;letter-spacing:0px;word-spacing:0px;text-anchor:middle;fill:#000000;fill-opacity:1;stroke:none"
       x="2149.855"
       y="1505.7174"
       id="text4246-3-7-7-6-7-2"><tspan
         sodipodi:role="line"
         style="font-size:45px;line-height:1.20000005"
         x="2149.855"
         y="1505.7174"
         id="tspan1092">Edetään</tspan><tspan
         sodipodi:role="line"
         style="font-size:45px;line-height:1.20000005"
         x="2149.855"
         y="1559.7174"
         id="tspan3856">suunnitelmamme</tspan><tspan
         sodipodi:role="line"
         style="font-size:45px;line-height:1.20000005"
         x="2149.855"
         y="1613.7174"
         id="tspan3858">mukaan.</tspan></text>
    <text
       xml:space="preserve"
       style="font-style:normal;font-variant:normal;font-weight:normal;font-stretch:normal;line-height:0%;font-family:Lavi;-inkscape-font-specification:Lavi;text-align:center;letter-spacing:0px;word-spacing:0px;text-anchor:middle;fill:#000000;fill-opacity:1;stroke:none"
       x="2186.6404"
       y="1688.3997"
       id="text4246-3-7-7-6-7-2-9"><tspan
         sodipodi:role="line"
         style="font-size:45px;line-height:1.20000005"
         x="2186.6404"
         y="1688.3997"
         id="tspan1092-3">Shichimi ja</tspan><tspan
         sodipodi:role="line"
         style="font-size:45px;line-height:1.20000005"
         x="2186.6404"
         y="1742.3997"
         id="tspan1119">minä olemme</tspan><tspan
         sodipodi:role="line"
         style="font-size:45px;line-height:1.20000005"
         x="2186.6404"
         y="1796.3997"
         id="tspan3862">henkivartijoitasi,</tspan><tspan
         sodipodi:role="line"
         style="font-size:45px;line-height:1.20000005"
         x="2186.6404"
         y="1850.3997"
         id="tspan1121">muistathan?</tspan></text>
    <text
       xml:space="preserve"
       style="font-style:normal;font-variant:normal;font-weight:normal;font-stretch:normal;line-height:0%;font-family:Lavi;-inkscape-font-specification:Lavi;text-align:center;letter-spacing:0px;word-spacing:0px;text-anchor:middle;fill:#000000;fill-opacity:1;stroke:none"
       x="207.74268"
       y="2409.7466"
       id="text4246-3-7-7-6-7-2-9-6"><tspan
         sodipodi:role="line"
         style="font-size:45px;line-height:1.20000005"
         x="207.74268"
         y="2409.7466"
         id="tspan1121-3">Aivan.</tspan></text>
    <text
       xml:space="preserve"
       style="font-style:normal;font-variant:normal;font-weight:normal;font-stretch:normal;line-height:0%;font-family:Lavi;-inkscape-font-specification:Lavi;text-align:center;letter-spacing:0px;word-spacing:0px;text-anchor:middle;fill:#000000;fill-opacity:1;stroke:none"
       x="306.79276"
       y="2471.5852"
       id="text4246-3-7-7-6-7-2-9-6-1"><tspan
         sodipodi:role="line"
         style="font-size:45px;line-height:1.20000005"
         x="306.79276"
         y="2471.5852"
         id="tspan1183">Lopeta</tspan><tspan
         sodipodi:role="line"
         style="font-size:45px;line-height:1.20000005"
         x="314.70291"
         y="2525.5852"
         id="tspan3878">huolehtiminen ja </tspan><tspan
         sodipodi:role="line"
         style="font-size:45px;line-height:1.20000005"
         x="306.79276"
         y="2579.5852"
         id="tspan3880">ajattele välillä</tspan><tspan
         sodipodi:role="line"
         style="font-size:45px;line-height:1.20000005"
         x="306.79276"
         y="2633.5852"
         id="tspan3882">jotain muuta.</tspan></text>
    <text
       xml:space="preserve"
       style="font-style:normal;font-variant:normal;font-weight:normal;font-stretch:normal;line-height:0%;font-family:Lavi;-inkscape-font-specification:Lavi;text-align:center;letter-spacing:0px;word-spacing:0px;text-anchor:middle;fill:#000000;fill-opacity:1;stroke:none"
       x="614.03857"
       y="2542.2996"
       id="text4246-3-7-7-6-7-2-9-6-1-4"><tspan
         sodipodi:role="line"
         style="font-size:45px;line-height:1.20000005"
         x="614.03857"
         y="2542.2996"
         id="tspan1183-0">OK.</tspan></text>
    <text
       xml:space="preserve"
       style="font-style:normal;font-variant:normal;font-weight:normal;font-stretch:normal;line-height:0%;font-family:Lavi;-inkscape-font-specification:Lavi;text-align:center;letter-spacing:0px;word-spacing:0px;text-anchor:middle;fill:#000000;fill-opacity:1;stroke:none"
       x="930.65936"
       y="2399.8977"
       id="text4246-3-7-7-6-7-2-9-6-1-4-3"><tspan
         sodipodi:role="line"
         style="font-size:45px;line-height:1.20000005"
         x="930.65936"
         y="2399.8977"
         id="tspan1183-0-6">Hei! Mitäpä</tspan><tspan
         sodipodi:role="line"
         style="font-size:45px;line-height:1.20000005"
         x="930.65936"
         y="2453.8977"
         id="tspan3884">jos näyttäisin</tspan><tspan
         sodipodi:role="line"
         style="font-size:45px;line-height:1.20000005"
         x="930.65936"
         y="2507.8977"
         id="tspan1247">teille viimeisimmän</tspan><tspan
         sodipodi:role="line"
         style="font-size:45px;line-height:1.20000005"
         x="930.65936"
         y="2561.8977"
         id="tspan1249">keksintöni?</tspan></text>
    <text
       xml:space="preserve"
       style="font-style:normal;font-variant:normal;font-weight:normal;font-stretch:normal;line-height:0%;font-family:Lavi;-inkscape-font-specification:Lavi;text-align:center;letter-spacing:0px;word-spacing:0px;text-anchor:middle;fill:#000000;fill-opacity:1;stroke:none"
       x="1429.6105"
       y="2501.0703"
       id="text4246-3-7-7-6-7-2-9-6-1-4-3-1"><tspan
         sodipodi:role="line"
         style="font-size:45px;line-height:1.20000005"
         x="1429.6105"
         y="2501.0703"
         id="tspan1249-3">...</tspan></text>
    <text
       xml:space="preserve"
       style="font-style:normal;font-variant:normal;font-weight:normal;font-stretch:normal;line-height:0%;font-family:Lavi;-inkscape-font-specification:Lavi;text-align:center;letter-spacing:0px;word-spacing:0px;text-anchor:middle;fill:#000000;fill-opacity:1;stroke:none"
       x="2025.8566"
       y="2426.8069"
       id="text4246-3-7-7-6-7-2-9-6-1-4-3-1-2"><tspan
         sodipodi:role="line"
         style="font-size:45px;line-height:1.20000005"
         x="2025.8566"
         y="2426.8069"
         id="tspan1249-3-0">Se on yläkerrassa</tspan><tspan
         sodipodi:role="line"
         style="font-size:45px;line-height:1.20000005"
         x="2025.8566"
         y="2480.8069"
         id="tspan1298">työpajassani.</tspan></text>
    <text
       xml:space="preserve"
       style="font-style:normal;font-variant:normal;font-weight:normal;font-stretch:normal;line-height:0%;font-family:Lavi;-inkscape-font-specification:Lavi;text-align:center;letter-spacing:0px;word-spacing:0px;text-anchor:middle;fill:#000000;fill-opacity:1;stroke:none"
       x="2122.7373"
       y="2559.7061"
       id="text4246-3-7-7-6-7-2-9-6-1-4-3-1-2-6"><tspan
         sodipodi:role="line"
         style="font-size:45px;line-height:1.20000005"
         x="2122.7373"
         y="2559.7061"
         id="tspan1298-5">Tulkaa perässä.</tspan></text>
  </g>
</svg>
